подписываться 3.005682604407159 0.0020974756485744304
макет 2.8233610476132043 0.0019702449739101213
работа 0.0404095383378767 5.639851826640153e-05
календарь 0.5897688261061103 0.005350310355463666
предлагать 2.130213867053259 0.0014865414285089036
позволять 1.5705980791178364 0.0010960209903125167
мусор 0.5375830729355401 0.0003751452009319889
соавтор 3.9219733362813143 0.00547379390967385
похожий 0.020000666706669435 1.395719937660114e-05
сервер 0.36662527479190044 0.0005116891483487794
свой 0.9775343571148737 0.0013643187119537663
приложение 1.1186129553747792 0.006244873442427239
объём 2.217225244042889 0.0015472611612302085
применять 1.9070703157390494 0.002661647335295254
вопрос 0.7864791203521645 0.0005488339988500799
место 0.25841169015166776 0.0023442791151232945
личный 2.5356789751614235 0.0035389797280689786
применение 2.217225244042889 0.006189044644920834
просмотр 0.009950330853168092 6.94370610828199e-06
понимать 0.5897688261061103 0.0008231246700713332
развитие 0.5546775062948401 0.00038707432400198193
инструмент 0.9775343571148737 0.0013643187119537663
контроллер 2.41789593950504 0.003374593076769072
знание 1.7247487589450947 0.001203592992983318
навык 0.36662527479190044 0.0002558445741743897
много 0.3110554236370897 0.0004341317845597902
шаблон 0.4719857904497268 0.00032936900938571306
техника 2.0501711593797225 0.0014306846890298132
смело 3.9219733362813143 0.002736896954836925
канал 1.149384614041533 0.002406248319696161
облачный 0.6077873316087886 0.0008482726191329917
разработка 0.7864791203521645 0.0027441699942503993
использовать 0.14921239818667575 0.0003123776654291886
дзен 0.009950330853168092 6.94370610828199e-06
конференция 0.6077873316087886 0.0025448178573989756
девять 0.6261364702769852 0.00043694101205651436
скролл 3.228826155721369 0.0045063868188714145
разрабатывать 0.6261364702769852 0.00043694101205651436
список 1.4796263009121098 0.0010325375442512977
практика 2.41789593950504 0.001687296538384536
директор 0.4254657748148339 0.0002969056349021869
занятие 0.6261364702769852 0.00043694101205651436
рассмотреть 1.8425317946014783 0.0012857863186332716
язык 0.009950330853168092 1.388741221656398e-05
создавать 1.6193882432872684 0.002260137115543989
мобильный 2.312535423847214 0.008068860515866064
сеть 1.004202604197035 0.0007007694376811131
июнь 0.6448286032891376 0.000449985068589768
подробный 0.5375830729355401 0.004876887612115855
серия 0.6077873316087886 0.0012724089286994878
сегодня 2.130213867053259 0.002973082857017807
другой 0.7030975114131134 0.0004906472515094998
вакансия 1.2829160066660557 0.002685797641310654
команда 1.0597724553518457 0.0007395481195756076
виджет 4.61512051684126 0.003220600500238143
грант 0.6448286032891376 0.000449985068589768
дата 0.6448286032891376 0.005849805891666985
быть 0.3956128116651528 0.0002760731414271827
пользовательский 2.6692103677859462 0.0018626729712393204
урок 0.5546775062948401 0.002322445944011892
интересный 3.005682604407159 0.0020974756485744304
использование 0.7649729151312009 0.0005338261794355902
платформа 0.48798613179616795 0.00034053463488916113
касаться 3.5165082281731497 0.0024539485193113397
хабра 0.009950330853168092 2.0831118324845972e-05
количество 0.009950330853168092 6.94370610828199e-06
база 0.4254657748148339 0.0002969056349021869
время 0.009950330853168092 9.026817940766587e-05
практический 0.5897688261061103 0.0012346870051069998
мочь 0.36662527479190044 0.0002558445741743897
февраль 0.5546775062948401 0.0034836689160178376
кроссплатформа 4.61512051684126 0.006441201000476286
должный 0.4407332469456224 0.0003075598373661007
интерфейс 1.670681537674819 0.002331725802756202
больший 2.8233610476132043 0.0019702449739101213
сутки 0.020000666706669435 2.791439875320228e-05
продуктовый 3.5165082281731497 0.0024539485193113397
элемент 1.8425317946014783 0.003857358955899815
сказать 1.5240780634829436 0.0010635576158289906
профессия 0.6448286032891376 0.000449985068589768
наш 0.663876798259832 0.002316387991136888
карма 0.009950330853168092 6.94370610828199e-06
наём 0.6448286032891376 0.000449985068589768
саша 4.61512051684126 0.006441201000476286
поддержка 0.009950330853168092 1.388741221656398e-05
инженер 0.5720692490067093 0.000798421840902595
чаплыгин 4.61512051684126 0.006441201000476286
построение 0.5720692490067093 0.0003992109204512975
карточка 3.9219733362813143 0.002736896954836925
мы 0.030153038170687457 4.2083793678558907e-05
преобразить 4.61512051684126 0.006441201000476286
себя 0.6261364702769852 0.00043694101205651436
москва 0.6261364702769852 0.0013108230361695433
яндекс 0.009950330853168092 1.388741221656398e-05
карьера 0.6077873316087886 0.00042413630956649584
современный 3.5165082281731497 0.007361845557934019
делиться 2.0501711593797225 0.0014306846890298132
час 0.030153038170687457 4.2083793678558907e-05
кроссплатформенный 4.61512051684126 0.003220600500238143
поиск 0.009950330853168092 6.94370610828199e-06
алгоритм 0.5546775062948401 0.00038707432400198193
давать 0.663876798259832 0.0004632775982273775
технический 0.009950330853168092 1.388741221656398e-05
улучшение 1.7819071727850435 0.0012434802322296185
администратор 0.5375830729355401 0.0003751452009319889
компетенция 0.6448286032891376 0.000449985068589768
пользователь 0.7864791203521645 0.0010976679977001598
вправо 0.6448286032891376 0.000449985068589768
голосование 0.009950330853168092 1.388741221656398e-05
публикация 0.020000666706669435 1.395719937660114e-05
качественный 0.5546775062948401 0.00038707432400198193
дть 0.4562374334815876 0.00031837922783083567
тренировка 0.6448286032891376 0.000449985068589768
софт 2.6692103677859462 0.003725345942478641
связь 0.9775343571148737 0.0006821593559768832
апрель 0.6261364702769852 0.00043694101205651436
войти 0.009950330853168092 6.94370610828199e-06
нужно 0.1607732205877518 0.000224386909403701
реагировать 3.5165082281731497 0.004907897038622679
запуск 0.297632403304949 0.0004153976319678283
принцип 0.3810140122440001 0.00026588556332449414
будущее 0.5720692490067093 0.0003992109204512975
средний 2.217225244042889 0.0015472611612302085
грань 0.20840126957700633 0.00014543005553175597
опыт 0.8309308829229982 0.0011597081408555453
обучение 0.5207759546191588 0.0007268331536903821
индустрия 0.5720692490067093 0.0003992109204512975
настройка 0.009950330853168092 6.94370610828199e-06
сборщик 0.6077873316087886 0.0008482726191329917
комментировать 1.1186129553747792 0.0007806091803034048
привлекательный 3.5165082281731497 0.0024539485193113397
активно 1.1186129553747792 0.0015612183606068097
создание 1.7819071727850435 0.002486960464459237
интеллект 0.5207759546191588 0.00036341657684519106
хороший 0.020000666706669435 1.395719937660114e-05
четверг 0.6448286032891376 0.000449985068589768
знать 0.3246610756928683 0.00045312083139269823
легко 1.149384614041533 0.0016041655464641073
эффект 0.9775343571148737 0.0006821593559768832
искусственный 0.5207759546191588 0.00036341657684519106
погрузиться 3.9219733362813143 0.00547379390967385
тег 0.009950330853168092 6.94370610828199e-06
агентство 2.41789593950504 0.001687296538384536
вести 0.9015484501369516 0.0006291336009329739
рассказывать 3.5165082281731497 0.0024539485193113397
добавить 0.009950330853168092 6.94370610828199e-06
работать 0.1607732205877518 0.00033658036410555154
рада 2.130213867053259 0.0014865414285089036
разработчик 0.3246610756928683 0.001812483325570793
рейтинг 0.009950330853168092 6.94370610828199e-06
гибкий 2.8233610476132043 0.0019702449739101213
влево 0.6261364702769852 0.00043694101205651436
множество 1.4796263009121098 0.0020650750885025954
лихой 0.6448286032891376 0.000449985068589768
который 0.3524406397999441 0.0004918920304256023
участник 1.670681537674819 0.001165862901378101
пекарный 4.61512051684126 0.003220600500238143
уровень 0.13778370236305296 9.615052502655475e-05
близкий 0.6448286032891376 0.000449985068589768
они 0.061243625240718594 4.273804971438841e-05
обновить 0.009950330853168092 6.94370610828199e-06
данные 0.10426101032440946 0.00014551432006198109
ы 0.009950330853168092 1.388741221656398e-05
такой 0.6448286032891376 0.000449985068589768
задача 0.4562374334815876 0.00031837922783083567
мощный 3.005682604407159 0.004194951297148861
встреча 0.5042466526679482 0.00035188182321559537
эффективный 3.228826155721369 0.0022531934094357072
ваш 0.7030975114131134 0.0004906472515094998
представлять 1.7247487589450947 0.001203592992983318
начало 0.4719857904497268 0.00032936900938571306
авторский 4.61512051684126 0.006441201000476286
совет 2.0501711593797225 0.0014306846890298132
март 0.5207759546191588 0.0010902497305355734
конкурс 0.6448286032891376 0.000449985068589768
операционный 0.5897688261061103 0.0004115623350356666
прочтение 0.009950330853168092 1.388741221656398e-05
туториал 1.670681537674819 0.001165862901378101
назад 0.13778370236305296 0.0001923010500531095
