язык 0.009950330853168092 5.983573558679079e-05
соскучиться 3.9219733362813143 0.0013873269672024459
код 0.6077873316087886 0.004514868752665214
вы 0.009950330853168092 1.0559247456492494e-05
рынок 1.7247487589450947 0.0024403944236930947
похожий 0.020000666706669435 1.4149746520459452e-05
становление 2.5356789751614235 0.00089695046875183
ответ 0.4562374334815876 0.0011297000475313454
корпорация 3.005682604407159 0.0010632057320152668
помочь 1.3570239788197773 0.002880135788085838
уставать 3.5165082281731497 0.0012439010357881675
качество 0.25841169015166776 0.0005484507042483221
подтверждаться 3.9219733362813143 0.0013873269672024459
простой 1.5705980791178364 0.000555570597494813
ресурс 1.0316015783851493 0.0007298207133959316
сам 0.14921239818667575 0.00010556236164603873
разброс 2.8233610476132043 0.0019974255731257193
внимание 1.1186129553747792 0.001582756215599263
аналогичный 3.9219733362813143 0.0013873269672024459
проигрывать 3.9219733362813143 0.0013873269672024459
уровень 0.1264841471091197 0.0003579317923144526
глубокий 2.8233610476132043 0.0019974255731257193
популярный 2.130213867053259 0.003014098149350207
здесь 0.8084580270709397 0.0011439094829443787
открыть 1.6193882432872684 0.001145658467129302
один 0.08252102368800344 0.00017514189675557862
мы 0.030153038170687457 0.00021332181231473264
тренд 2.6692103677859462 0.0037767391125375963
екатерина 3.228826155721369 0.0011421387179771378
продукт 1.1811333123561132 0.013369743896496505
затем 1.004202604197035 0.0007104369325766078
экспертиза 3.228826155721369 0.003426416153931414
отечественный 3.228826155721369 0.004568554871908551
требование 1.6193882432872684 0.001145658467129302
вовсе 3.005682604407159 0.0021264114640305335
заведомо 3.5165082281731497 0.002487802071576335
слышать 2.6692103677859462 0.0018883695562687982
сравнивать 2.6692103677859462 0.0018883695562687982
решить 1.6193882432872684 0.0034369754013879065
проект 0.6261364702769852 0.0008859377011347508
помогать 1.7247487589450947 0.0006100986059232737
привычный 3.9219733362813143 0.004161980901607337
цифра 3.005682604407159 0.0021264114640305335
каждый 0.5546775062948401 0.0009810355611864878
наш 0.6448286032891376 0.004790024997903038
попасть 1.9760631872260008 0.0006989965289090912
блог 0.6448286032891376 0.0004561928569431465
казаться 1.3570239788197773 0.0004800226313476397
коллега 1.9070703157390494 0.0020237746541270423
нейросеть 2.312535423847214 0.0008180174827899589
подтолкнуть 3.9219733362813143 0.0013873269672024459
хороший 0.020000666706669435 3.537436630114863e-05
служить 2.5356789751614235 0.00089695046875183
поддерживать 2.130213867053259 0.0022605736120126555
возможность 0.9015484501369516 0.0028701577825371648
удобный 2.6692103677859462 0.0009441847781343991
понятный 2.6692103677859462 0.0009441847781343991
практически 1.149384614041533 0.0008131479406024287
двигаться 3.005682604407159 0.0021264114640305335
следствие 2.8233610476132043 0.0019974255731257193
бесплатный 2.41789593950504 0.001710573710297163
использовать 0.19627990904466155 0.0002777218380539958
лицо 2.312535423847214 0.0008180174827899589
большинство 1.5240780634829436 0.0026955749265704697
присутствовать 3.5165082281731497 0.0012439010357881675
желаемый 3.9219733362813143 0.0027746539344048918
платформа 2.217225244042889 0.003921516172697009
богатый 2.8233610476132043 0.0009987127865628597
самый 0.8539204011476971 0.003322647475282868
специально 1.6193882432872684 0.001145658467129302
довольно 1.4370666864933137 0.003050017728673464
цель 1.3962446919730587 0.0009877924952055596
клиент 1.3570239788197773 0.005280248944824036
беспристрастный 3.9219733362813143 0.0013873269672024459
сайт 0.36662527479190044 0.0006484352224830216
индивидуально 3.9219733362813143 0.0027746539344048918
исходный 2.130213867053259 0.0007535245373375517
позволять 0.9262410627273231 0.00032764098433934314
сертификат 2.5356789751614235 0.00179390093750366
офлайн 3.5165082281731497 0.0012439010357881675
пойти 2.41789593950504 0.001710573710297163
проверка 1.1811333123561132 0.0004178044967655158
другой 0.41042789745029334 0.0017421771380981678
анализ 1.004202604197035 0.0063939323931894694
расход 2.312535423847214 0.0008180174827899589
происходить 1.2478246868547855 0.0004413953614626054
рамка 1.3192836508369303 0.00046667267450899554
ромашка 3.9219733362813143 0.0013873269672024459
профильный 3.9219733362813143 0.0013873269672024459
вопрос 0.7439195059333684 0.005789256855512594
работа 0.061243625240718594 6.499146647405582e-05
задача 0.4562374334815876 0.0017752429318349712
дать 0.5207759546191588 0.0007368602117002601
наука 2.6692103677859462 0.0028325543344031976
год 0.10426101032440946 0.0008482501724306395
наблюдаться 3.5165082281731497 0.0012439010357881675
сильный 2.5356789751614235 0.00089695046875183
попробовать 1.5705980791178364 0.0033334235849688783
примерно 1.9760631872260008 0.0013979930578181825
программный 3.228826155721369 0.0022842774359542756
продажа 1.7247487589450947 0.0006100986059232737
ошибка 1.3962446919730587 0.0024694812380138993
добавление 1.9070703157390494 0.0020237746541270423
пара 0.6261364702769852 0.0002214844252836877
частый 1.7819071727850435 0.0018909520758242416
бюджет 2.5356789751614235 0.00179390093750366
понимать 0.5207759546191588 0.00018421505292506502
сценарий 3.005682604407159 0.0010632057320152668
это 0.009950330853168092 4.2236989825969974e-05
порядок 2.312535423847214 0.0008180174827899589
диагностик 3.005682604407159 0.0021264114640305335
такой 0.3956128116651528 0.0009795860211022531
генерация 1.670681537674819 0.001181946613141011
часть 0.8539204011476971 0.0006041177227787033
переделывать 3.228826155721369 0.0022842774359542756
он 0.009950330853168092 1.0559247456492494e-05
поиск 0.009950330853168092 3.519749152164164e-05
план 0.9262410627273231 0.00032764098433934314
миф 3.5165082281731497 0.002487802071576335
обосновать 3.9219733362813143 0.0027746539344048918
давать 0.27131509498757567 0.00038389118498418913
пример 0.25841169015166776 0.00018281690141610737
целое 1.5240780634829436 0.0005391149853140939
студент 2.8233610476132043 0.0019974255731257193
подводить 3.9219733362813143 0.0027746539344048918
команда 0.7439195059333684 0.0036840725444171056
отдельно 1.8425317946014783 0.002607048878106089
документация 2.41789593950504 0.0008552868551485815
интерес 0.8539204011476971 0.0009061765841680549
заказчик 2.6692103677859462 0.0028325543344031976
свой 0.663876798259832 0.0016438406748563227
показывать 3.5165082281731497 0.002487802071576335
какой 0.4407332469456224 0.0014031125654441461
расширяться 3.5165082281731497 0.0012439010357881675
войти 0.009950330853168092 3.5197491521641642e-06
обратить 1.8425317946014783 0.001955286658579567
отдел 0.9262410627273231 0.0013105639373573725
высокий 2.41789593950504 0.001710573710297163
проходить 1.9070703157390494 0.0020237746541270423
маленький 1.004202604197035 0.0010656553988649118
небольшой 1.7247487589450947 0.0018302958177698213
линия 3.9219733362813143 0.0013873269672024459
анализатор 2.8233610476132043 0.022970394090945773
зарубежный 2.8233610476132043 0.003994851146251439
оставаться 3.005682604407159 0.0031896171960458007
два 0.48798613179616795 0.0006904649901608319
философский 3.228826155721369 0.0022842774359542756
крайность 3.9219733362813143 0.0027746539344048918
бывать 2.312535423847214 0.0008180174827899589
статический 3.005682604407159 0.008505645856122134
описать 2.41789593950504 0.0008552868551485815
директор 0.4254657748148339 0.0003010016093490158
ознакомиться 2.130213867053259 0.0015070490746751034
умолчание 2.0501711593797225 0.0007252108805729475
больший 1.1811333123561132 0.002089022483827579
распространить 3.9219733362813143 0.0013873269672024459
последующий 3.228826155721369 0.0011421387179771378
общаться 3.005682604407159 0.0010632057320152668
сравнение 2.0501711593797225 0.001450421761145895
задавать 2.5356789751614235 0.0026908514062554904
тот 0.009950330853168092 7.0394983043283285e-06
аннотирование 3.9219733362813143 0.0027746539344048918
собственный 1.8425317946014783 0.0013035244390530445
изучение 3.228826155721369 0.0011421387179771378
единый 2.6692103677859462 0.0009441847781343991
человек 1.0887599922250981 0.0015405164375310904
лично 1.1186129553747792 0.0007913781077996316
измениться 3.228826155721369 0.0011421387179771378
мой 0.5546775062948401 0.0005886213367118926
платить 3.005682604407159 0.0021264114640305335
забавный 3.228826155721369 0.0011421387179771378
отметить 2.5356789751614235 0.00089695046875183
настолько 2.8233610476132043 0.0019974255731257193
триал 3.9219733362813143 0.0027746539344048918
рассчитать 3.228826155721369 0.0011421387179771378
работать 0.1264841471091197 0.0001789658961572263
подробный 1.8425317946014783 0.001955286658579567
несколько 0.3956128116651528 0.0012594677414171824
включать 1.8425317946014783 0.0006517622195265222
разработчик 0.3246610756928683 0.0012632726680656353
запрос 1.0316015783851493 0.0010947310700938975
приобретать 3.5165082281731497 0.003731703107364503
разработка 0.8309308829229982 0.0011757069443551443
отнести 3.9219733362813143 0.0027746539344048918
взаимоисключающий 3.9219733362813143 0.0013873269672024459
мнение 1.8425317946014783 0.001955286658579567
любой 1.1811333123561132 0.0016712179870620632
сопоставление 3.9219733362813143 0.0027746539344048918
принести 2.6692103677859462 0.0009441847781343991
телефон 2.41789593950504 0.001710573710297163
доказывать 3.9219733362813143 0.0027746539344048918
иногда 1.5705980791178364 0.0016667117924844392
технический 0.009950330853168092 1.4078996608656657e-05
гибкость 3.005682604407159 0.0021264114640305335
прошлый 2.5356789751614235 0.00089695046875183
помощь 0.5897688261061103 0.001251720182750853
статья 0.6832948841169337 0.0009668127118739777
плагин 2.6692103677859462 0.0037767391125375963
стоимость 2.6692103677859462 0.0028325543344031976
лицензия 2.312535423847214 0.012270262241849383
реестр 2.8233610476132043 0.0029961383596885795
специализироваться 3.005682604407159 0.0010632057320152668
видеть 0.9262410627273231 0.00032764098433934314
рекомендация 1.9070703157390494 0.0006745915513756807
изначально 2.312535423847214 0.0016360349655799179
сосредоточиться 3.228826155721369 0.0011421387179771378
добавлять 1.3962446919730587 0.0009877924952055596
тратиться 3.9219733362813143 0.0027746539344048918
недостаток 2.8233610476132043 0.0009987127865628597
знакомство 3.228826155721369 0.0011421387179771378
объективно 3.9219733362813143 0.0013873269672024459
владелец 3.5165082281731497 0.002487802071576335
включительно 3.9219733362813143 0.0027746539344048918
вычесть 3.9219733362813143 0.0027746539344048918
символьный 3.9219733362813143 0.0013873269672024459
программирование 2.130213867053259 0.0015070490746751034
начать 1.670681537674819 0.0005909733065705055
коммерческий 3.9219733362813143 0.00693663483601223
получение 2.41789593950504 0.001710573710297163
фонд 2.6692103677859462 0.0018883695562687982
летие 3.5165082281731497 0.002487802071576335
мир 0.4719857904497268 0.00016695641685522705
продавать 3.005682604407159 0.0010632057320152668
старт 1.6193882432872684 0.000572829233564651
выбрать 1.6193882432872684 0.0017184877006939533
запустить 1.9760631872260008 0.0013979930578181825
сертификационный 3.9219733362813143 0.0013873269672024459
включить 2.0501711593797225 0.001450421761145895
сделать 0.9015484501369516 0.001594532101409536
заменить 1.8425317946014783 0.004562335536685656
улучшение 2.312535423847214 0.0008180174827899589
иметь 0.9015484501369516 0.0003189064202819072
хотеть 1.5705980791178364 0.001111141194989626
пенсионный 3.9219733362813143 0.0027746539344048918
доработка 3.228826155721369 0.0011421387179771378
почта 2.41789593950504 0.002565860565445745
объясняться 3.5165082281731497 0.0012439010357881675
традиционный 3.9219733362813143 0.0013873269672024459
случай 1.0597724553518457 0.0007497505874438244
потребоваться 2.217225244042889 0.0007843032345394019
закон 1.2478246868547855 0.0004413953614626054
максимально 2.130213867053259 0.003014098149350207
значение 1.149384614041533 0.0008131479406024287
непростой 3.9219733362813143 0.0027746539344048918
инструмент 0.9775343571148737 0.0034578505734519766
намного 2.217225244042889 0.0015686064690788037
информация 0.9775343571148737 0.00034578505734519764
приобрести 3.5165082281731497 0.00497560414315267
разобраться 2.130213867053259 0.0015070490746751034
российский 2.312535423847214 0.004090087413949795
отличие 2.217225244042889 0.0031372129381576075
второй 1.3962446919730587 0.0004938962476027798
отличаться 2.130213867053259 0.0022605736120126555
запись 1.8425317946014783 0.0006517622195265222
интересный 3.005682604407159 0.0021264114640305335
функциональный 2.312535423847214 0.002454052448369877
средний 3.9219733362813143 0.0013873269672024459
количество 0.009950330853168092 1.759874576082082e-05
мероприятие 3.005682604407159 0.0031896171960458007
время 0.009950330853168092 4.92764881302983e-05
делать 0.5546775062948401 0.0007848284489491901
применять 1.9760631872260008 0.0006989965289090912
локальный 2.5356789751614235 0.00089695046875183
общение 1.1186129553747792 0.002374134323398895
успех 2.5356789751614235 0.00089695046875183
излишний 3.9219733362813143 0.0013873269672024459
сойтись 3.9219733362813143 0.0013873269672024459
отказываться 3.5165082281731497 0.003731703107364503
компания 0.4562374334815876 0.0032277144215181294
достаточно 0.9775343571148737 0.0006915701146903953
обычно 1.0597724553518457 0.0007497505874438244
карма 0.009950330853168092 3.5197491521641642e-06
регулятор 3.005682604407159 0.0031896171960458007
остановиться 3.9219733362813143 0.004161980901607337
невозможно 1.9760631872260008 0.004193979173454547
предложить 2.6692103677859462 0.0018883695562687982
фстэк 3.9219733362813143 0.0027746539344048918
покупать 3.228826155721369 0.0022842774359542756
пробовать 1.670681537674819 0.0005909733065705055
игрок 2.6692103677859462 0.0009441847781343991
нравиться 2.6692103677859462 0.0018883695562687982
последний 1.4796263009121098 0.0010467819603198513
сложно 0.1153108465109944 0.00036710209359708154
этот 0.5207759546191588 0.0007368602117002601
специфический 3.9219733362813143 0.004161980901607337
просматриваться 3.9219733362813143 0.0013873269672024459
счёт 2.217225244042889 0.0007843032345394019
часто 1.149384614041533 0.002439443821807286
трудоустроить 3.9219733362813143 0.0013873269672024459
промежуточный 3.9219733362813143 0.0013873269672024459
отличать 2.5356789751614235 0.00089695046875183
руководитель 2.130213867053259 0.0007535245373375517
пока 0.6261364702769852 0.0013289065517021264
никакой 1.8425317946014783 0.001955286658579567
реальность 2.6692103677859462 0.0009441847781343991
решение 1.0316015783851493 0.002189462140187795
информационный 2.41789593950504 0.0042764342757429085
голосование 0.009950330853168092 7.0394983043283285e-06
который 0.0718257345712556 0.00043191987538427495
таблица 2.41789593950504 0.001710573710297163
абсолютно 2.130213867053259 0.003014098149350207
связь 0.9775343571148737 0.00034578505734519764
широкий 1.5705980791178364 0.001111141194989626
правило 0.663876798259832 0.0002348343821223318
подход 0.877450898557891 0.0012415293930780206
диалог 3.005682604407159 0.0021264114640305335
технологический 3.5165082281731497 0.003731703107364503
доступный 1.670681537674819 0.0005909733065705055
разбавить 3.9219733362813143 0.0027746539344048918
настройка 0.009950330853168092 7.0394983043283285e-06
освободить 3.5165082281731497 0.0012439010357881675
прийтись 2.130213867053259 0.0015070490746751034
сторона 1.004202604197035 0.0007104369325766078
читаться 3.228826155721369 0.0011421387179771378
культура 2.8233610476132043 0.0009987127865628597
нет 0.3810140122440001 0.0008086607971220378
учёт 2.6692103677859462 0.0009441847781343991
ещё 0.8309308829229982 0.002939267360887861
удивительно 3.005682604407159 0.0021264114640305335
речь 1.9070703157390494 0.0013491831027513613
ваш 0.7030975114131134 0.00024870799837747203
обойтись 3.005682604407159 0.0010632057320152668
тестирование 2.217225244042889 0.0015686064690788037
легко 1.149384614041533 0.0008131479406024287
звезда 3.005682604407159 0.0010632057320152668
широко 1.9760631872260008 0.0013979930578181825
востребованность 3.9219733362813143 0.0027746539344048918
никто 2.217225244042889 0.0015686064690788037
лицензирование 3.9219733362813143 0.004161980901607337
тег 0.009950330853168092 3.5197491521641642e-06
принцип 0.3810140122440001 0.0001347767995203396
разнообразие 3.228826155721369 0.0022842774359542756
тема 0.6261364702769852 0.0011074221264184387
понять 1.670681537674819 0.0005909733065705055
мочь 0.3384543978252041 0.0005986105373632899
дешёвый 2.6692103677859462 0.0009441847781343991
обращение 2.8233610476132043 0.0009987127865628597
разница 3.005682604407159 0.0010632057320152668
радовать 3.228826155721369 0.0022842774359542756
серьёзно 3.9219733362813143 0.0027746539344048918
пользователь 0.8084580270709397 0.0005719547414721894
доверие 2.8233610476132043 0.0019974255731257193
глаз 2.41789593950504 0.002565860565445745
разнообразный 3.5165082281731497 0.002487802071576335
осветить 3.9219733362813143 0.0013873269672024459
галстук 3.9219733362813143 0.0027746539344048918
потребовать 2.0501711593797225 0.0007252108805729475
финансовый 2.5356789751614235 0.00089695046875183
рискованно 3.9219733362813143 0.0027746539344048918
достойный 3.9219733362813143 0.0013873269672024459
заточить 3.9219733362813143 0.0013873269672024459
многие 1.9070703157390494 0.005396732411005445
итог 1.1811333123561132 0.0008356089935310316
сохранить 2.5356789751614235 0.00089695046875183
есть 0.2330938821673778 0.0014841492320526355
понятие 2.6692103677859462 0.0018883695562687982
напоследок 2.8233610476132043 0.0009987127865628597
правильно 1.2829160066660557 0.0004538082796837834
четвёртый 3.5165082281731497 0.002487802071576335
безопасный 3.228826155721369 0.0022842774359542756
конкурент 2.41789593950504 0.0008552868551485815
тип 0.9015484501369516 0.0006378128405638144
близкий 2.8233610476132043 0.0019974255731257193
совпадать 3.005682604407159 0.0010632057320152668
тематический 3.5165082281731497 0.0012439010357881675
верхушка 3.9219733362813143 0.0027746539344048918
подробно 1.7819071727850435 0.0025212694344323217
управление 1.3570239788197773 0.0019200905253905587
научить 2.5356789751614235 0.00089695046875183
прочтение 0.009950330853168092 7.0394983043283285e-06
встраивание 3.9219733362813143 0.0013873269672024459
назад 0.13778370236305296 9.747697372695646e-05
строить 1.7247487589450947 0.0012201972118465474
сориентироваться 3.9219733362813143 0.0027746539344048918
ответить 2.6692103677859462 0.008497663003209591
специалист 1.6193882432872684 0.001145658467129302
жить 1.1811333123561132 0.0004178044967655158
творческий 3.9219733362813143 0.0013873269672024459
кой 0.05077232537342314 1.7959789661628277e-05
ориентироваться 3.9219733362813143 0.0013873269672024459
бороздить 3.9219733362813143 0.0013873269672024459
касаться 2.217225244042889 0.0007843032345394019
схожий 3.9219733362813143 0.0013873269672024459
прибыль 2.5356789751614235 0.00179390093750366
оплата 3.005682604407159 0.0010632057320152668
наблюдение 3.5165082281731497 0.002487802071576335
стек 2.5356789751614235 0.00179390093750366
экономить 2.41789593950504 0.001710573710297163
являться 0.6261364702769852 0.0004429688505673754
востребовать 3.005682604407159 0.0031896171960458007
повышение 2.0501711593797225 0.0021756326417188424
входить 2.41789593950504 0.001710573710297163
заявлять 3.5165082281731497 0.002487802071576335
волна 3.005682604407159 0.0010632057320152668
прикладной 3.5165082281731497 0.002487802071576335
вывод 0.9775343571148737 0.0013831402293807906
развитие 2.312535423847214 0.0008180174827899589
менее 1.3962446919730587 0.0019755849904111193
ассортимент 3.9219733362813143 0.0013873269672024459
исключительный 3.9219733362813143 0.0013873269672024459
иной 1.9070703157390494 0.0006745915513756807
безопасность 1.3570239788197773 0.0038401810507811174
составить 2.41789593950504 0.0008552868551485815
метод 1.0597724553518457 0.0003748752937219122
иметься 3.9219733362813143 0.0013873269672024459
интересно 1.7247487589450947 0.0024403944236930947
старожил 3.9219733362813143 0.0013873269672024459
попадать 3.228826155721369 0.0011421387179771378
строка 1.4796263009121098 0.0010467819603198513
оценить 2.312535423847214 0.0016360349655799179
платный 2.5356789751614235 0.00089695046875183
упоминаться 3.9219733362813143 0.0013873269672024459
волновать 3.9219733362813143 0.00693663483601223
брать 0.8309308829229982 0.0002939267360887861
разный 0.8309308829229982 0.002939267360887861
уметь 1.8425317946014783 0.0006517622195265222
час 0.030153038170687457 1.0666090615736632e-05
участник 1.670681537674819 0.0005909733065705055
дискуссионный 3.228826155721369 0.0022842774359542756
использование 0.7649729151312009 0.001623571804311003
рекомендовать 2.8233610476132043 0.0009987127865628597
хабра 0.009950330853168092 1.0559247456492494e-05
бизнес 1.3570239788197773 0.004320203682128757
незаданный 3.9219733362813143 0.0013873269672024459
создать 0.6077873316087886 0.00021499375012691498
частность 1.9070703157390494 0.0006745915513756807
возрасти 3.9219733362813143 0.0013873269672024459
остаться 3.9219733362813143 0.0027746539344048918
наблюдать 3.9219733362813143 0.0013873269672024459
задаваться 3.228826155721369 0.0011421387179771378
контроль 1.7819071727850435 0.0006303173586080804
поддержка 0.009950330853168092 3.8717240673805804e-05
потенциальный 2.5356789751614235 0.00179390093750366
приятно 2.6692103677859462 0.0037767391125375963
давно 1.3192836508369303 0.0009333453490179911
предъявлять 3.9219733362813143 0.0013873269672024459
нужный 1.3192836508369303 0.0018666906980359822
инвестиция 3.5165082281731497 0.0012439010357881675
процесс 0.5207759546191588 0.0007368602117002601
город 2.217225244042889 0.0007843032345394019
канал 1.149384614041533 0.00040657397030121435
публикация 0.020000666706669435 7.074873260229726e-06
сублицензирование 3.9219733362813143 0.0027746539344048918
чистый 3.5165082281731497 0.002487802071576335
предсказуемый 3.5165082281731497 0.0012439010357881675
опыт 0.8309308829229982 0.0005878534721775722
долгий 3.228826155721369 0.0022842774359542756
индустрия 0.5720692490067093 0.00020235912593091947
диагностика 3.005682604407159 0.004252822928061067
немного 1.3962446919730587 0.0009877924952055596
активно 1.1186129553747792 0.0007913781077996316
финансист 3.9219733362813143 0.0013873269672024459
новый 0.9262410627273231 0.00032764098433934314
формат 1.2829160066660557 0.0004538082796837834
сложный 1.7247487589450947 0.0012201972118465474
яндекс 0.009950330853168092 3.5197491521641642e-06
важный 1.8425317946014783 0.0006517622195265222
необходимо 0.6077873316087886 0.00042998750025382995
альтернатива 2.217225244042889 0.0007843032345394019
различать 3.9219733362813143 0.0013873269672024459
коротко 3.5165082281731497 0.002487802071576335
обезболивать 3.9219733362813143 0.0013873269672024459
россия 1.8425317946014783 0.002607048878106089
искусственный 0.5207759546191588 0.00036843010585013003
опытный 3.005682604407159 0.0010632057320152668
обновить 0.009950330853168092 7.0394983043283285e-06
конкретный 2.41789593950504 0.001710573710297163
солидный 3.9219733362813143 0.0013873269672024459
вынудить 3.005682604407159 0.0010632057320152668
напомнить 3.9219733362813143 0.0027746539344048918
первый 0.9262410627273231 0.0013105639373573725
далёкий 1.3192836508369303 0.00046667267450899554
число 0.5720692490067093 0.0008094365037236779
модель 2.130213867053259 0.0015070490746751034
называть 2.8233610476132043 0.0009987127865628597
протестировать 3.5165082281731497 0.002487802071576335
спектр 2.8233610476132043 0.0009987127865628597
десяток 3.5165082281731497 0.0012439010357881675
сфера 2.6692103677859462 0.0009441847781343991
результат 0.8084580270709397 0.0014298868536804735
характерный 3.5165082281731497 0.0012439010357881675
вероятность 2.130213867053259 0.0015070490746751034
ожидать 2.6692103677859462 0.0009441847781343991
потерять 2.5356789751614235 0.00089695046875183
писать 0.7439195059333684 0.0005262960777738722
уместно 3.5165082281731497 0.002487802071576335
данные 0.10426101032440946 3.6880442279593014e-05
выполнение 2.312535423847214 0.0016360349655799179
метаязык 3.9219733362813143 0.0027746539344048918
трактовать 3.9219733362813143 0.0013873269672024459
практика 1.4796263009121098 0.0005233909801599257
менеджер 1.9760631872260008 0.0013979930578181825
возврат 2.8233610476132043 0.0019974255731257193
существенно 2.0501711593797225 0.001450421761145895
найти 1.0597724553518457 0.0007497505874438244
сэкономить 2.5356789751614235 0.00179390093750366
сообщество 2.130213867053259 0.003014098149350207
переспросить 3.9219733362813143 0.0027746539344048918
преобразоваться 3.9219733362813143 0.0013873269672024459
решать 1.9760631872260008 0.0013979930578181825
сразу 0.8539204011476971 0.002416470891114813
прибавить 3.9219733362813143 0.0013873269672024459
истина 3.228826155721369 0.0011421387179771378
удивление 3.5165082281731497 0.0012439010357881675
завтрак 3.9219733362813143 0.0013873269672024459
развиваться 3.5165082281731497 0.002487802071576335
поездка 3.9219733362813143 0.0013873269672024459
просмотр 0.009950330853168092 3.5197491521641642e-06
денежный 3.228826155721369 0.0011421387179771378
далее 0.009950330853168092 3.5197491521641642e-06
представление 2.217225244042889 0.0015686064690788037
купить 2.0501711593797225 0.001450421761145895
импортозамещение 3.9219733362813143 0.0027746539344048918
лёгкий 3.5165082281731497 0.0012439010357881675
теряться 3.5165082281731497 0.0012439010357881675
написать 1.9070703157390494 0.0026983662055027227
наконец 2.217225244042889 0.0007843032345394019
исключение 1.9070703157390494 0.0006745915513756807
дзен 0.009950330853168092 3.5197491521641642e-06
насколько 1.9070703157390494 0.0026983662055027227
комментарий 1.5705980791178364 0.000555570597494813
конференция 0.6077873316087886 0.0010749687506345748
идея 2.41789593950504 0.0008552868551485815
искать 1.9760631872260008 0.002795986115636365
запретить 3.228826155721369 0.0011421387179771378
большой 1.149384614041533 0.001219721910903643
никогда 2.0501711593797225 0.001450421761145895
род 0.25841169015166776 9.140845070805369e-05
различие 3.9219733362813143 0.0013873269672024459
производитель 1.3570239788197773 0.0004800226313476397
серьёзный 3.9219733362813143 0.0013873269672024459
индивидуальный 3.005682604407159 0.0010632057320152668
совершенно 2.312535423847214 0.0016360349655799179
подстраиваться 3.9219733362813143 0.0027746539344048918
жаль 3.5165082281731497 0.002487802071576335
переписка 3.5165082281731497 0.0012439010357881675
сказать 1.7247487589450947 0.0024403944236930947
призвать 3.228826155721369 0.0011421387179771378
стартап 2.41789593950504 0.001710573710297163
отличный 3.5165082281731497 0.002487802071576335
поток 1.8425317946014783 0.0006517622195265222
поэтому 0.5042466526679482 0.0010702086720932754
поверить 3.9219733362813143 0.0027746539344048918
специализация 3.9219733362813143 0.0027746539344048918
универсальный 3.005682604407159 0.0021264114640305335
замыливаться 3.9219733362813143 0.0013873269672024459
сотрудник 1.8425317946014783 0.0006517622195265222
укладываться 3.5165082281731497 0.0012439010357881675
быть 0.3956128116651528 0.0004198225804723942
взгляд 1.9070703157390494 0.0013491831027513613
поделиться 2.130213867053259 0.0007535245373375517
история 1.9070703157390494 0.0006745915513756807
позволить 3.005682604407159 0.0021264114640305335
стоять 1.0887599922250981 0.0003851291093827726
вариант 1.213923135179104 0.00042940330215037283
отдельный 1.9070703157390494 0.0006745915513756807
присматриваться 3.9219733362813143 0.0013873269672024459
клиентский 3.9219733362813143 0.0013873269672024459
получить 0.951558870711613 0.0006731933998667231
серверный 3.9219733362813143 0.0027746539344048918
развивать 3.228826155721369 0.0011421387179771378
айсберг 3.9219733362813143 0.0013873269672024459
размер 1.1186129553747792 0.0007913781077996316
сутки 0.020000666706669435 1.4149746520459452e-05
развенчать 3.9219733362813143 0.0027746539344048918
упростить 3.9219733362813143 0.0013873269672024459
так 0.009950330853168092 2.8157993217313314e-05
особенность 2.6692103677859462 0.0009441847781343991
покупка 2.130213867053259 0.0007535245373375517
я 0.009950330853168092 1.4078996608656657e-05
закрывать 2.41789593950504 0.0008552868551485815
планировать 2.217225244042889 0.0015686064690788037
путь 1.670681537674819 0.002363893226282022
открытие 2.5356789751614235 0.00089695046875183
разрабатывать 3.005682604407159 0.0010632057320152668
налог 1.3570239788197773 0.0004800226313476397
проделать 3.5165082281731497 0.0012439010357881675
посмотреть 1.670681537674819 0.001181946613141011
банальный 3.9219733362813143 0.0013873269672024459
огромный 2.8233610476132043 0.0009987127865628597
удивить 3.9219733362813143 0.0013873269672024459
уязвимость 2.6692103677859462 0.0028325543344031976
соотношение 3.9219733362813143 0.0027746539344048918
участвовать 1.9070703157390494 0.0006745915513756807
указать 2.312535423847214 0.0016360349655799179
быстро 1.1186129553747792 0.0007913781077996316
встраиваться 3.9219733362813143 0.0027746539344048918
адресный 3.228826155721369 0.0011421387179771378
фактор 1.8425317946014783 0.0006517622195265222
приложение 1.5240780634829436 0.0010782299706281878
василёк 3.9219733362813143 0.0013873269672024459
реальный 2.312535423847214 0.0008180174827899589
качественный 3.005682604407159 0.004252822928061067
нужно 0.14921239818667575 0.00026390590411509685
ощущение 3.228826155721369 0.0011421387179771378
попытка 2.217225244042889 0.0007843032345394019
повествование 3.9219733362813143 0.0027746539344048918
компьютер 1.4370666864933137 0.000508336288112244
имидж 3.5165082281731497 0.002487802071576335
угадать 3.005682604407159 0.0010632057320152668
обращаться 2.0501711593797225 0.001450421761145895
считаться 2.6692103677859462 0.0009441847781343991
накопить 3.9219733362813143 0.0013873269672024459
выбор 1.4796263009121098 0.0010467819603198513
прошлое 2.0501711593797225 0.001450421761145895
актуальный 2.8233610476132043 0.0009987127865628597
распределить 3.5165082281731497 0.002487802071576335
заявка 3.005682604407159 0.0010632057320152668
интеллект 0.5207759546191588 0.00036843010585013003
пользоваться 1.1811333123561132 0.0016712179870620632
доказать 2.6692103677859462 0.0009441847781343991
обогатить 3.9219733362813143 0.0013873269672024459
польза 0.3110554236370897 0.00011003021706299601
добавить 0.009950330853168092 3.5197491521641642e-06
успешный 3.9219733362813143 0.0013873269672024459
рада 2.130213867053259 0.0015070490746751034
вполне 1.7819071727850435 0.0012606347172161609
шаблон 0.4719857904497268 0.00016695641685522705
пилот 3.5165082281731497 0.0012439010357881675
хреновый 3.9219733362813143 0.0013873269672024459
взрослый 3.9219733362813143 0.0027746539344048918
будущее 1.9070703157390494 0.0006745915513756807
рейтинг 0.009950330853168092 3.5197491521641642e-06
множество 1.4796263009121098 0.0010467819603198513
стабильный 3.5165082281731497 0.0012439010357881675
право 0.48798613179616795 0.00017261624754020798
продолжать 3.005682604407159 0.0021264114640305335
заодно 3.005682604407159 0.0010632057320152668
отчисление 3.9219733362813143 0.0013873269672024459
стать 0.22067136216882066 7.80584938694095e-05
непросто 3.9219733362813143 0.0027746539344048918
окружение 3.005682604407159 0.0010632057320152668
вид 0.22067136216882066 7.80584938694095e-05
сертификация 3.005682604407159 0.0021264114640305335
очень 0.7864791203521645 0.0016692163856077068
основа 0.7649729151312009 0.0002705953007185005
