компания 0.48798613179616795 0.0010096264795782786
подписываться 3.005682604407159 0.002072884554763558
процедура 2.6692103677859462 0.020249182100445108
наложиться 3.9219733362813143 0.002704809197435389
счёт 2.0501711593797225 0.0014139111443998084
оптимальный 3.9219733362813143 0.002704809197435389
мониторинг 1.9070703157390494 0.009206546351843687
оперативный 3.9219733362813143 0.002704809197435389
жёстко 3.005682604407159 0.002072884554763558
мусор 0.5375830729355401 0.0029659755748167728
изменение 2.0501711593797225 0.0014139111443998084
залог 3.005682604407159 0.004145769109527116
похожий 0.020000666706669435 1.379356324597892e-05
случаться 3.9219733362813143 0.002704809197435389
работа 0.0404095383378767 0.0003065551184252715
открытый 2.8233610476132043 0.0019471455500780718
инструмент 0.9262410627273231 0.0006387869398119469
стратегия 2.6692103677859462 0.011045008418424606
наличие 1.8425317946014783 0.0038121347474513343
выжимка 3.9219733362813143 0.005409618394870778
уплотнять 3.9219733362813143 0.002704809197435389
вакуумировать 3.9219733362813143 0.008114427592306168
помочь 1.2829160066660557 0.001769539319539387
который 0.09333193979221913 0.0004505679852038165
падать 2.217225244042889 0.001529120857960613
подход 0.877450898557891 0.00060513855072958
администратор 0.5375830729355401 0.0003707469468520966
приложение 1.149384614041533 0.0015853580883331488
останавливать 3.005682604407159 0.002072884554763558
ресурс 1.0316015783851493 0.0014228987288071025
пространство 2.312535423847214 0.023922780246695315
перестроить 3.9219733362813143 0.005409618394870778
угроза 3.9219733362813143 0.005409618394870778
блокировка 3.228826155721369 0.02449454325030004
один 0.20840126957700633 0.00043117504050415104
частота 2.8233610476132043 0.005841436650234216
работоспособность 2.6692103677859462 0.0036816694728082013
выполнение 1.9760631872260008 0.0013628021980868971
новый 0.6077873316087886 0.002095818384857892
рассмотреть 1.3570239788197773 0.002807635818247815
свободный 2.8233610476132043 0.0019471455500780718
фрагментация 3.9219733362813143 0.005409618394870778
просмотр 0.009950330853168092 6.862297140115925e-06
большой 1.2829160066660557 0.0008847696597696935
версия 1.6193882432872684 0.0011168194781291504
блок 1.5240780634829436 0.012613059835720914
хранение 1.0597724553518457 0.0029235102216602638
регулярный 3.228826155721369 0.00445355331823637
позволить 1.7247487589450947 0.001189481902720755
неприятно 3.9219733362813143 0.005409618394870778
таблица 1.5240780634829436 0.026277207991085235
минимизировать 2.312535423847214 0.011163964115124481
запускать 1.7247487589450947 0.00237896380544151
короткий 3.005682604407159 0.002072884554763558
следовать 1.3570239788197773 0.00187175721216521
видеть 1.1811333123561132 0.0008145746981766297
каждый 0.9262410627273231 0.0012775738796238939
многократный 3.9219733362813143 0.002704809197435389
недействительный 3.9219733362813143 0.008114427592306168
корректировать 2.6692103677859462 0.0036816694728082013
долгий 2.217225244042889 0.003058241715921226
правильно 1.4370666864933137 0.001982160946887329
называть 1.7247487589450947 0.001189481902720755
скорость 1.9760631872260008 0.0027256043961737943
вернуть 1.8425317946014783 0.0025414231649675562
ограничение 1.9760631872260008 0.0013628021980868971
использовать 0.14921239818667575 0.00020581020439541483
дзен 0.009950330853168092 6.862297140115925e-06
избежать 2.312535423847214 0.009569112098678126
рассказывать 3.228826155721369 0.002226776659118185
постоянный 3.9219733362813143 0.005409618394870778
разобрать 1.6193882432872684 0.0011168194781291504
явление 1.5705980791178364 0.002166342178093567
заполнение 3.005682604407159 0.002072884554763558
надолго 3.9219733362813143 0.005409618394870778
друг 0.297632403304949 0.0006157911792516186
маленький 1.0887599922250981 0.0007508689601552401
весь 1.149384614041533 0.0015853580883331488
привести 1.9760631872260008 0.008176813188521382
неделя 3.005682604407159 0.002072884554763558
провести 2.130213867053259 0.001469113011760868
инициироваться 3.9219733362813143 0.002704809197435389
язык 0.009950330853168092 1.372459428023185e-05
суть 1.5705980791178364 0.0010831710890467836
недопустимо 3.5165082281731497 0.0024251780883952755
анализировать 2.0501711593797225 0.004241733433199426
выложить 3.228826155721369 0.002226776659118185
предназначить 3.9219733362813143 0.002704809197435389
блог 0.6448286032891376 0.0008894187631574311
кусок 3.5165082281731497 0.0024251780883952755
реализация 2.130213867053259 0.001469113011760868
момент 0.663876798259832 0.0018313842710616054
теряться 3.228826155721369 0.002226776659118185
указывать 2.312535423847214 0.0031897040328927083
случай 0.4254657748148339 0.000880274016858277
автокоммит 3.5165082281731497 0.004850356176790551
избегать 3.005682604407159 0.002072884554763558
карьера 2.5356789751614235 0.0017487441208009816
потребоваться 2.217225244042889 0.001529120857960613
зависимость 1.213923135179104 0.0016743767381780744
максимально 2.130213867053259 0.005876452047043472
важный 2.130213867053259 0.002938226023521736
конец 1.7819071727850435 0.007373408990834663
чрезмерный 3.9219733362813143 0.002704809197435389
преследовать 3.9219733362813143 0.002704809197435389
резервный 3.228826155721369 0.002226776659118185
вакуумирование 3.9219733362813143 0.11901160468715713
взаимодействовать 2.312535423847214 0.0015948520164463542
минимум 1.8425317946014783 0.0025414231649675562
параметр 1.1811333123561132 0.0016291493963532593
достоинство 3.9219733362813143 0.002704809197435389
учёт 1.7819071727850435 0.0024578029969448876
сегмент 2.312535423847214 0.0015948520164463542
размер 1.1186129553747792 0.0023143716318098882
никакой 2.217225244042889 0.001529120857960613
завершение 3.5165082281731497 0.009700712353581102
использоваться 1.213923135179104 0.0008371883690890372
опасный 1.9760631872260008 0.0027256043961737943
работать 1.004202604197035 0.002077660560407659
выделение 3.9219733362813143 0.002704809197435389
команда 0.877450898557891 0.00242055420291832
старый 2.8233610476132043 0.0038942911001561436
отдельный 1.213923135179104 0.003348753476356149
статья 0.7439195059333684 0.001539143805379383
пропустить 3.228826155721369 0.00445355331823637
обнаружить 2.130213867053259 0.001469113011760868
размещаться 3.228826155721369 0.002226776659118185
делиться 1.8425317946014783 0.0012707115824837781
данные 0.09333193979221913 0.0016735382307570324
отказ 2.130213867053259 0.004407339035282605
использование 0.7649729151312009 0.0005275675276766903
текущий 1.8425317946014783 0.0012707115824837781
доступ 0.7030975114131134 0.000969789670914639
блоатинг 3.9219733362813143 0.008114427592306168
довольно 1.4370666864933137 0.001982160946887329
потеря 2.0501711593797225 0.002827822288799617
изоляция 3.228826155721369 0.002226776659118185
хабра 0.009950330853168092 2.74491885604637e-05
должный 1.7247487589450947 0.001189481902720755
количество 0.009950330853168092 6.862297140115925e-06
аварийный 3.9219733362813143 0.002704809197435389
чреватый 3.9219733362813143 0.005409618394870778
база 0.2456726643742379 0.0016942942370637096
копия 2.41789593950504 0.0016675144410379585
периодически 2.6692103677859462 0.0018408347364041006
целиком 2.6692103677859462 0.0036816694728082013
время 0.009950330853168092 4.1173782840695555e-05
администрирование 2.217225244042889 0.006116483431842452
объём 1.3962446919730587 0.0019258547475490464
своевременный 3.228826155721369 0.002226776659118185
получаться 2.0501711593797225 0.002827822288799617
долго 2.0501711593797225 0.002827822288799617
собирать 2.217225244042889 0.001529120857960613
мочь 0.36662527479190044 0.0010113800683914495
спланировать 3.9219733362813143 0.005409618394870778
февраль 0.5546775062948401 0.00038253621123782074
актуальный 2.8233610476132043 0.0019471455500780718
аккаунт 2.41789593950504 0.0016675144410379585
позволять 0.9262410627273231 0.0012775738796238939
пользователь 1.3570239788197773 0.00187175721216521
сутки 0.020000666706669435 2.758712649195784e-05
избавить 3.228826155721369 0.002226776659118185
свой 0.3810140122440001 0.0005255365686124139
всегда 0.9775343571148737 0.0006741616255964646
очищать 3.9219733362813143 0.005409618394870778
сравнение 2.217225244042889 0.001529120857960613
задаваться 3.9219733362813143 0.005409618394870778
конкретный 1.7247487589450947 0.001189481902720755
погрузиться 3.228826155721369 0.002226776659118185
возможный 3.005682604407159 0.002072884554763558
иначе 2.0501711593797225 0.002827822288799617
происходить 1.2478246868547855 0.002581706248665074
помечать 3.005682604407159 0.004145769109527116
уплотняться 3.9219733362813143 0.002704809197435389
начало 0.36662527479190044 0.0005056900341957247
риск 1.4370666864933137 0.004955402367218323
узел 2.8233610476132043 0.0019471455500780718
сложный 2.130213867053259 0.001469113011760868
допускать 3.228826155721369 0.00445355331823637
карма 0.009950330853168092 6.862297140115925e-06
простой 1.1811333123561132 0.0016291493963532593
поддержка 0.009950330853168092 1.372459428023185e-05
сайт 0.36662527479190044 0.0002528450170978624
сам 0.19627990904466155 0.00013536545451355969
операция 1.670681537674819 0.01382632996696402
обычный 1.9070703157390494 0.0026304418148124817
главный 2.217225244042889 0.001529120857960613
табличный 3.9219733362813143 0.013524045987176946
обработка 2.130213867053259 0.002938226023521736
наполняться 3.9219733362813143 0.002704809197435389
совместный 3.9219733362813143 0.002704809197435389
вызов 1.8425317946014783 0.0012707115824837781
активный 1.9760631872260008 0.0013628021980868971
память 1.7247487589450947 0.00237896380544151
деликатно 3.9219733362813143 0.005409618394870778
помечаться 3.9219733362813143 0.002704809197435389
обновление 2.312535423847214 0.0015948520164463542
запись 1.670681537674819 0.005760970819568341
раздуваться 3.9219733362813143 0.002704809197435389
завершиться 3.9219733362813143 0.008114427592306168
результат 0.8084580270709397 0.0005575572600489239
частый 1.7819071727850435 0.0012289014984724438
подверженный 3.9219733362813143 0.002704809197435389
кратко 2.130213867053259 0.004407339035282605
забытый 3.9219733362813143 0.002704809197435389
периодичность 3.228826155721369 0.00445355331823637
камень 3.9219733362813143 0.002704809197435389
мониторить 3.228826155721369 0.00445355331823637
тема 0.4407332469456224 0.00030395396341077404
последний 1.9760631872260008 0.0013628021980868971
компактный 3.9219733362813143 0.002704809197435389
раздутый 3.9219733362813143 0.002704809197435389
необходимый 2.312535423847214 0.0015948520164463542
часть 0.8539204011476971 0.0011778212429623407
система 0.7233002187306328 0.0004988277370556088
ключевой 2.130213867053259 0.001469113011760868
такой 0.2843871765549284 0.0015690326982340877
транзакция 2.41789593950504 0.011672601087265711
включать 1.5705980791178364 0.0010831710890467836
поиск 0.009950330853168092 6.862297140115925e-06
полезно 2.0501711593797225 0.0014139111443998084
достаточный 3.9219733362813143 0.005409618394870778
чтение 0.009950330853168092 2.0586891420347777e-05
полный 1.7819071727850435 0.0036867044954173316
поддержание 3.9219733362813143 0.005409618394870778
давать 0.663876798259832 0.0009156921355308027
удаление 1.9760631872260008 0.010902417584695177
специфика 2.5356789751614235 0.0017487441208009816
целое 1.5240780634829436 0.0010510883196434093
решение 1.1811333123561132 0.0008145746981766297
недавно 2.41789593950504 0.0016675144410379585
наш 0.663876798259832 0.0013735382032962042
попытаться 2.0501711593797225 0.0014139111443998084
стопор 3.9219733362813143 0.005409618394870778
отдельно 1.8425317946014783 0.0025414231649675562
увеличивать 3.9219733362813143 0.002704809197435389
быстро 1.1186129553747792 0.001542914421206592
сбор 0.4254657748148339 0.0023473973782887386
привет 3.005682604407159 0.004145769109527116
принудительно 3.228826155721369 0.00445355331823637
голосование 0.009950330853168092 1.372459428023185e-05
публикация 0.020000666706669435 1.379356324597892e-05
тип 0.9015484501369516 0.0006217575518185873
продолжительность 3.5165082281731497 0.004850356176790551
оставить 1.213923135179104 0.0008371883690890372
статус 2.41789593950504 0.0016675144410379585
эффективный 2.8233610476132043 0.0038942911001561436
специальный 2.312535423847214 0.0031897040328927083
этот 0.2456726643742379 0.0003388588474127419
техника 2.5356789751614235 0.0017487441208009816
неактуальный 3.9219733362813143 0.002704809197435389
плохой 2.41789593950504 0.0016675144410379585
технический 0.009950330853168092 6.862297140115925e-06
безопасный 2.5356789751614235 0.005246232362402945
применять 2.5356789751614235 0.0034974882416019632
держать 1.7819071727850435 0.0012289014984724438
связь 0.9775343571148737 0.0006741616255964646
пункт 1.9070703157390494 0.0013152209074062408
произойти 2.6692103677859462 0.0018408347364041006
дисковый 3.9219733362813143 0.002704809197435389
войти 0.009950330853168092 6.862297140115925e-06
нужно 0.1607732205877518 0.0011087808316396675
правило 0.663876798259832 0.00045784606776540134
называться 2.130213867053259 0.001469113011760868
выделять 3.005682604407159 0.002072884554763558
требовать 1.0316015783851493 0.0007114493644035512
эскалация 3.9219733362813143 0.010819236789741556
занимать 2.130213867053259 0.004407339035282605
вакуум 3.228826155721369 0.006680329977354556
практика 1.9760631872260008 0.0013628021980868971
соединение 2.41789593950504 0.006670057764151834
неправильный 3.9219733362813143 0.002704809197435389
узнать 1.6193882432872684 0.0011168194781291504
схема 2.41789593950504 0.003335028882075917
выполнять 1.4796263009121098 0.001020431931663524
бывать 2.312535423847214 0.0015948520164463542
параллельно 2.5356789751614235 0.0034974882416019632
содержать 1.2829160066660557 0.001769539319539387
настройка 0.009950330853168092 6.862297140115925e-06
заполнить 2.5356789751614235 0.0017487441208009816
нормальный 3.9219733362813143 0.005409618394870778
оставаться 2.217225244042889 0.001529120857960613
потенциально 2.5356789751614235 0.0069949764832039265
канал 1.149384614041533 0.0015853580883331488
снижение 3.005682604407159 0.002072884554763558
комментировать 1.1186129553747792 0.000771457210603296
физически 2.0501711593797225 0.002827822288799617
создаваться 3.228826155721369 0.002226776659118185
процесс 0.5207759546191588 0.0007183116615436673
график 2.41789593950504 0.003335028882075917
активно 1.1186129553747792 0.001542914421206592
сформулировать 3.5165082281731497 0.0024251780883952755
индекс 2.130213867053259 0.004407339035282605
умолчание 2.0501711593797225 0.0014139111443998084
адаптивный 3.9219733362813143 0.002704809197435389
блокироваться 3.9219733362813143 0.005409618394870778
сбой 2.8233610476132043 0.007788582200312287
разбивать 3.9219733362813143 0.002704809197435389
яндекс 0.009950330853168092 6.862297140115925e-06
другой 0.7864791203521645 0.0005423993933463203
максимальный 3.5165082281731497 0.0024251780883952755
критически 2.8233610476132043 0.007788582200312287
успеть 3.9219733362813143 0.002704809197435389
аккуратно 3.005682604407159 0.004145769109527116
необходимо 0.6077873316087886 0.0008383273539431566
особо 1.6193882432872684 0.002233638956258301
хороший 0.020000666706669435 1.379356324597892e-05
оно 0.1607732205877518 0.00044351233265586696
интенсивный 3.9219733362813143 0.002704809197435389
постепенно 2.5356789751614235 0.0069949764832039265
знать 0.3246610756928683 0.00044780838026602516
ещё 1.0597724553518457 0.0014617551108301319
ожидать 2.41789593950504 0.0016675144410379585
архитектура 2.312535423847214 0.004784556049339063
эксперт 1.4370666864933137 0.0009910804734436646
производительность 1.5705980791178364 0.002166342178093567
полностью 1.5705980791178364 0.002166342178093567
состояние 1.4796263009121098 0.001020431931663524
выделить 2.5356789751614235 0.0034974882416019632
ход 0.020000666706669435 1.379356324597892e-05
реляционный 3.9219733362813143 0.008114427592306168
она 0.1843037179979458 0.0005084240496495056
падение 2.6692103677859462 0.0018408347364041006
тег 0.009950330853168092 6.862297140115925e-06
обслуживание 3.228826155721369 0.002226776659118185
грамотный 3.9219733362813143 0.002704809197435389
нарушить 3.5165082281731497 0.004850356176790551
системный 3.005682604407159 0.004145769109527116
добавить 0.009950330853168092 6.862297140115925e-06
подробный 1.9760631872260008 0.0013628021980868971
избавляться 3.9219733362813143 0.002704809197435389
уровень 0.13778370236305296 0.00019004648601800406
образ 0.5042466526679482 0.0010432689365543757
опасность 1.7819071727850435 0.0012289014984724438
несколько 0.48798613179616795 0.0006730843197188523
регулярно 2.8233610476132043 0.0038942911001561436
сессия 3.228826155721369 0.002226776659118185
место 0.7649729151312009 0.002110270110706761
задействовать 3.228826155721369 0.002226776659118185
увеличение 2.41789593950504 0.0016675144410379585
добавление 2.217225244042889 0.001529120857960613
восстанавливать 3.5165082281731497 0.004850356176790551
запрос 1.0316015783851493 0.0007114493644035512
какой 0.5720692490067093 0.0011835915496690537
рекомендация 2.6692103677859462 0.0018408347364041006
гарантировать 2.312535423847214 0.0015948520164463542
рейтинг 0.009950330853168092 6.862297140115925e-06
обрезать 3.9219733362813143 0.002704809197435389
разработчик 0.3246610756928683 0.00022390419013301258
стабильный 3.228826155721369 0.002226776659118185
лёгкий 3.5165082281731497 0.0024251780883952755
дальнейший 3.9219733362813143 0.002704809197435389
устроить 3.9219733362813143 0.002704809197435389
любой 1.5240780634829436 0.0010510883196434093
подразумевать 2.130213867053259 0.001469113011760868
заблокировать 3.9219733362813143 0.005409618394870778
отслеживать 2.217225244042889 0.003058241715921226
диск 1.5240780634829436 0.0010510883196434093
блокировать 3.9219733362813143 0.005409618394870778
сборка 1.7819071727850435 0.0024578029969448876
безопасность 1.3570239788197773 0.000935878606082605
чрезмерно 3.5165082281731497 0.004850356176790551
понимание 1.5705980791178364 0.0010831710890467836
вероятность 2.130213867053259 0.002938226023521736
автоматический 2.6692103677859462 0.0018408347364041006
разрастаться 3.9219733362813143 0.002704809197435389
потенциальный 3.9219733362813143 0.002704809197435389
явно 1.7819071727850435 0.007373408990834663
обновить 0.009950330853168092 6.862297140115925e-06
авария 3.5165082281731497 0.0024251780883952755
ограничивать 3.005682604407159 0.004145769109527116
поэтому 0.5042466526679482 0.00034775631218479186
перестраивать 3.9219733362813143 0.002704809197435389
прерваться 3.9219733362813143 0.002704809197435389
конфликтовать 3.9219733362813143 0.005409618394870778
важно 1.0316015783851493 0.002845797457614205
цепочка 3.005682604407159 0.002072884554763558
интенсивность 3.5165082281731497 0.0024251780883952755
проводить 1.9760631872260008 0.008176813188521382
дописываться 3.9219733362813143 0.005409618394870778
перемещать 3.005682604407159 0.002072884554763558
вчера 2.0501711593797225 0.002827822288799617
очистка 3.228826155721369 0.011133883295590927
глубокий 3.228826155721369 0.002226776659118185
кластер 2.5356789751614235 0.0034974882416019632
конечный 2.312535423847214 0.0015948520164463542
рекомендоваться 3.9219733362813143 0.002704809197435389
возникать 2.5356789751614235 0.0069949764832039265
вместе 1.670681537674819 0.0023043883278273366
делать 0.5207759546191588 0.00035915583077183365
перезапуск 3.5165082281731497 0.0024251780883952755
управление 1.3570239788197773 0.000935878606082605
прочтение 0.009950330853168092 1.372459428023185e-05
сразу 0.8539204011476971 0.0023556424859246814
борьба 3.5165082281731497 0.0024251780883952755
эффективность 1.7819071727850435 0.0012289014984724438
ненужный 3.9219733362813143 0.002704809197435389
очень 0.7864791203521645 0.002169597573385281
статистика 2.5356789751614235 0.0034974882416019632
туториал 1.670681537674819 0.0011521941639136683
осуществлять 3.228826155721369 0.00445355331823637
