автомат 0.877450898557891 0.006792371487781
сильно 1.5705980791178364 0.00221055324295262
компания 0.48798613179616795 0.0003434103672034961
музей 3.9219733362813143 0.07176024401359196
завестись 3.9219733362813143 0.002760009385138152
гонка 3.228826155721369 0.0022722210807328423
жёлтый 3.9219733362813143 0.002760009385138152
календарь 0.5897688261061103 0.005395492427430987
мусор 0.5375830729355401 0.000378313211073568
похожий 0.020000666706669435 1.4075064536713184e-05
третий 3.005682604407159 0.0042303766423746085
закрыться 3.9219733362813143 0.002760009385138152
сервер 0.36662527479190044 0.0005160102389752293
участвовать 1.8425317946014783 0.0012966444719222227
изучать 2.5356789751614235 0.0017844327763275323
ретроконсоль 3.9219733362813143 0.002760009385138152
далековато 3.9219733362813143 0.005520018770276304
год 0.10426101032440946 0.00029348630633190556
находиться 3.228826155721369 0.0068166632421985274
доступный 1.9760631872260008 0.0013906144878437726
молочный 3.9219733362813143 0.005520018770276304
воспоминание 3.9219733362813143 0.002760009385138152
девайс 3.005682604407159 0.0042303766423746085
внимательный 3.9219733362813143 0.002760009385138152
детство 3.9219733362813143 0.002760009385138152
место 0.2456726643742379 0.0031119690068517115
переводчик 3.5165082281731497 0.0024746715187706895
электроника 3.228826155721369 0.0022722210807328423
просмотр 0.009950330853168092 7.0023440205264546e-06
понимать 0.5897688261061103 0.0008300757580663058
хмелёк 3.9219733362813143 0.002760009385138152
волк 3.9219733362813143 0.002760009385138152
развитие 0.5546775062948401 0.0003903430726916539
школьник 3.9219733362813143 0.002760009385138152
другой 0.5042466526679482 0.0010645601393411996
купить 2.0501711593797225 0.0028855329477547116
продаваться 3.9219733362813143 0.002760009385138152
частный 3.9219733362813143 0.002760009385138152
историк 3.9219733362813143 0.008280028155414457
ребёнок 3.9219733362813143 0.002760009385138152
темно 2.130213867053259 0.0029981898199201392
навык 0.36662527479190044 0.00025800511948761463
много 0.3110554236370897 0.000875595844157888
шаблон 0.4719857904497268 0.0003321504507035375
усадьба 3.9219733362813143 0.002760009385138152
техника 2.0501711593797225 0.004328299421632068
провести 2.5356789751614235 0.0017844327763275323
облачный 0.6077873316087886 0.0008554360754522007
работать 0.13778370236305296 0.00038784997146531445
конференция 0.6077873316087886 0.002566308226356602
дзен 0.009950330853168092 7.0023440205264546e-06
девять 0.6261364702769852 0.0004406308728198347
скролл 3.228826155721369 0.004544442161465685
ссылка 1.7819071727850435 0.0012539811208902487
газировка 3.9219733362813143 0.002760009385138152
прикладываться 3.9219733362813143 0.002760009385138152
недавний 3.228826155721369 0.004544442161465685
слышать 2.8233610476132043 0.0019868832143653797
разрабатывать 0.6261364702769852 0.0004406308728198347
единица 2.130213867053259 0.0014990949099600696
большой 1.149384614041533 0.0008088561675169127
бульон 3.9219733362813143 0.002760009385138152
сделать 0.9015484501369516 0.0019033394443426143
директор 0.4254657748148339 0.00029941293090417583
занятие 0.6261364702769852 0.0004406308728198347
язык 0.009950330853168092 1.4004688041052909e-05
билет 3.9219733362813143 0.008280028155414457
куча 2.8233610476132043 0.005960649643096139
мудрёный 3.9219733362813143 0.002760009385138152
интересно 1.7247487589450947 0.004855028174370429
проводить 1.6193882432872684 0.0022792234247533687
набраться 3.9219733362813143 0.002760009385138152
площадка 2.6692103677859462 0.0018784027922490825
странный 3.228826155721369 0.0022722210807328423
фонд 2.6692103677859462 0.005635208376747248
создатель 3.228826155721369 0.0022722210807328423
игра 1.213923135179104 0.0034170953840368867
последний 2.6692103677859462 0.009392013961245413
популярный 1.5705980791178364 0.00331582986442893
полезный 1.9760631872260008 0.0013906144878437726
июнь 0.6448286032891376 0.0004537850832435873
мост 0.4562374334815876 0.00032106786311160277
коктейль 3.5165082281731497 0.004949343037541379
закрываться 3.9219733362813143 0.002760009385138152
макет 2.8233610476132043 0.003973766428730759
поэтому 0.7649729151312009 0.0010766684238299803
остаться 3.228826155721369 0.0022722210807328423
толковый 3.9219733362813143 0.005520018770276304
подробный 0.5375830729355401 0.004918071743956384
серия 0.6077873316087886 0.001283154113178301
использовать 0.19627990904466155 0.0005525120592390192
поставить 2.217225244042889 0.0015603274060822583
записываться 3.9219733362813143 0.002760009385138152
российский 2.5356789751614235 0.0017844327763275323
день 1.6193882432872684 0.004558446849506737
узнать 1.7247487589450947 0.0024275140871852143
пивной 3.9219733362813143 0.002760009385138152
грант 0.6448286032891376 0.0004537850832435873
дата 0.6448286032891376 0.005899206082166635
час 0.030153038170687457 6.365877164817901e-05
игрок 2.6692103677859462 0.0018784027922490825
измениться 3.005682604407159 0.0021151883211873042
урок 0.5546775062948401 0.002342058436149923
история 1.9070703157390494 0.002684124300829063
компьютер 1.4370666864933137 0.005056533027773799
консоль 2.130213867053259 0.0059963796398402784
запретить 3.228826155721369 0.0022722210807328423
довольно 1.4370666864933137 0.012135679266657118
платформа 0.48798613179616795 0.0003434103672034961
общий 1.670681537674819 0.003527124991572454
хабра 0.009950330853168092 2.1007032061579365e-05
добавить 0.009950330853168092 1.4004688041052909e-05
количество 0.009950330853168092 7.0023440205264546e-06
база 0.4254657748148339 0.00029941293090417583
четыре 2.0501711593797225 0.0028855329477547116
время 0.009950330853168092 9.803281628737037e-05
целиком 2.6692103677859462 0.003756805584498165
практический 0.6261364702769852 0.0004406308728198347
мочь 0.36662527479190044 0.00025800511948761463
февраль 0.5546775062948401 0.0039034307269165385
результат 0.7233002187306328 0.0005090078949547028
хранение 2.0501711593797225 0.0028855329477547116
должный 0.4407332469456224 0.000310157105521198
частность 1.9070703157390494 0.0013420621504145315
надеяться 2.6692103677859462 0.0018784027922490825
игровой 0.6077873316087886 0.0038494623395349033
егор 2.41789593950504 0.001701545347997917
калькулятор 3.228826155721369 0.0022722210807328423
выставка 3.9219733362813143 0.03312011262165783
картридж 3.9219733362813143 0.005520018770276304
сутки 0.020000666706669435 2.815012907342637e-05
заново 2.5356789751614235 0.0035688655526550646
так 0.009950330853168092 4.901640814368518e-05
комната 3.228826155721369 0.0022722210807328423
многое 2.312535423847214 0.0032548000335639884
скоро 1.4370666864933137 0.0020226132111095196
профессия 0.6448286032891376 0.0004537850832435873
толпа 3.9219733362813143 0.002760009385138152
бесплатный 2.217225244042889 0.0031206548121645167
карма 0.009950330853168092 7.0023440205264546e-06
пойти 3.228826155721369 0.0022722210807328423
наём 0.6448286032891376 0.0004537850832435873
ретроспектива 3.9219733362813143 0.005520018770276304
далеко 2.130213867053259 0.0029981898199201392
поддержка 0.009950330853168092 1.4004688041052909e-05
инженер 0.5720692490067093 0.0008051643195027576
построение 0.5720692490067093 0.0004025821597513788
покупать 2.8233610476132043 0.0019868832143653797
археолог 3.9219733362813143 0.002760009385138152
размер 1.1186129553747792 0.0015744024706189714
танцевальный 3.9219733362813143 0.002760009385138152
московский 3.228826155721369 0.0022722210807328423
просторный 3.9219733362813143 0.002760009385138152
центр 1.5240780634829436 0.0010725391016769483
москва 0.6261364702769852 0.003084416109738843
яндекс 0.009950330853168092 3.501172010263227e-05
понравиться 3.005682604407159 0.0021151883211873042
недра 1.4796263009121098 0.0010412570731260448
карьера 0.6077873316087886 0.00042771803772610035
забыть 2.5356789751614235 0.0017844327763275323
там 0.3246610756928683 0.00045694732680206656
список 1.670681537674819 0.007054249983144908
развязка 3.9219733362813143 0.002760009385138152
постоянно 1.7247487589450947 0.0024275140871852143
помощник 2.41789593950504 0.001701545347997917
посмотреть 1.670681537674819 0.007054249983144908
идти 2.130213867053259 0.0029981898199201392
машина 2.0501711593797225 0.0014427664738773558
часть 0.8539204011476971 0.001201858411186062
тема 0.8309308829229982 0.001169501594543277
научно 2.41789593950504 0.003403090695995834
система 0.7233002187306328 0.0005090078949547028
поиск 0.009950330853168092 7.0023440205264546e-06
устройство 1.6193882432872684 0.0011396117123766843
алгоритм 0.5546775062948401 0.0003903430726916539
весь 1.5705980791178364 0.00221055324295262
конец 0.9262410627273231 0.0006518234079713744
аппарат 2.5356789751614235 0.0017844327763275323
заранее 2.5356789751614235 0.0035688655526550646
цифровой 2.0501711593797225 0.0014427664738773558
технический 0.009950330853168092 1.4004688041052909e-05
записной 3.9219733362813143 0.002760009385138152
город 2.217225244042889 0.0015603274060822583
экскурсия 3.9219733362813143 0.005520018770276304
администратор 0.5375830729355401 0.000378313211073568
компетенция 0.6448286032891376 0.0004537850832435873
политех 3.9219733362813143 0.002760009385138152
быстро 1.1186129553747792 0.0015744024706189714
вправо 0.6448286032891376 0.0004537850832435873
социальный 3.228826155721369 0.0022722210807328423
голосование 0.009950330853168092 1.4004688041052909e-05
публикация 0.020000666706669435 1.4075064536713184e-05
качественный 0.5546775062948401 0.0003903430726916539
играть 2.5356789751614235 0.0035688655526550646
вал 0.3246610756928683 0.00045694732680206656
дть 0.4562374334815876 0.00032106786311160277
тренировка 0.6448286032891376 0.0004537850832435873
пинбол 3.9219733362813143 0.01380004692569076
очень 0.7864791203521645 0.0044277501497658805
какой 0.7864791203521645 0.0005534687687207351
зрение 1.4370666864933137 0.0010113066055547598
быть 0.3956128116651528 0.0005568090241592579
апрель 0.6261364702769852 0.0004406308728198347
войти 0.009950330853168092 7.0023440205264546e-06
обойти 2.5356789751614235 0.0017844327763275323
автор 1.2478246868547855 0.0008781313770969638
нужно 0.1607732205877518 0.00022628180237544234
тот 0.009950330853168092 7.0023440205264546e-06
ощущение 3.228826155721369 0.0022722210807328423
запуск 0.297632403304949 0.00041890556411674736
дизайн 1.7819071727850435 0.0012539811208902487
олимпиада 3.9219733362813143 0.002760009385138152
принцип 0.3810140122440001 0.0002681309023532724
мой 0.5897688261061103 0.0004150378790331529
будущее 0.5720692490067093 0.0004025821597513788
уголок 3.9219733362813143 0.005520018770276304
всякий 3.005682604407159 0.0021151883211873042
знать 0.297632403304949 0.0010472639102918685
грань 0.20840126957700633 0.00014665817704222824
человек 1.0316015783851493 0.0007259687391872972
второй 1.670681537674819 0.0011757083305241514
основное 2.217225244042889 0.0015603274060822583
ранний 2.6692103677859462 0.0018784027922490825
временной 2.312535423847214 0.0016274000167819942
точка 1.1186129553747792 0.0007872012353094857
опоздать 3.9219733362813143 0.005520018770276304
обучение 0.5207759546191588 0.0007329710832078238
сейчас 1.1186129553747792 0.0015744024706189714
индустрия 0.5720692490067093 0.0004025821597513788
динамичный 3.9219733362813143 0.005520018770276304
настройка 0.009950330853168092 7.0023440205264546e-06
жетон 3.9219733362813143 0.005520018770276304
больший 3.5165082281731497 0.0024746715187706895
сборщик 0.6077873316087886 0.0008554360754522007
канал 1.149384614041533 0.004853137005101476
вживую 3.9219733362813143 0.005520018770276304
ретрокомпьютинг 3.9219733362813143 0.005520018770276304
сторона 1.213923135179104 0.0008542738460092217
старый 1.670681537674819 0.003527124991572454
тесно 3.5165082281731497 0.004949343037541379
музеон 3.9219733362813143 0.002760009385138152
который 0.13778370236305296 0.00029088747859898584
потыкать 3.9219733362813143 0.005520018770276304
культура 2.8233610476132043 0.0019868832143653797
советский 2.8233610476132043 0.011921299286192278
ещё 1.0597724553518457 0.0037289671194646224
расшириться 3.9219733362813143 0.002760009385138152
гигантский 3.9219733362813143 0.002760009385138152
реконструкция 3.9219733362813143 0.002760009385138152
железо 2.312535423847214 0.006509600067127977
одновременно 2.312535423847214 0.0032548000335639884
сложно 0.1153108465109944 0.00016229535047289852
абонемент 3.9219733362813143 0.005520018770276304
выжить 3.5165082281731497 0.0024746715187706895
интеллект 0.5207759546191588 0.0003664855416039119
хороший 0.020000666706669435 1.4075064536713184e-05
крымский 3.9219733362813143 0.002760009385138152
четверг 0.6448286032891376 0.0004537850832435873
дух 2.6692103677859462 0.0018784027922490825
дорогой 2.8233610476132043 0.0019868832143653797
воздух 3.5165082281731497 0.0024746715187706895
сеть 1.670681537674819 0.0023514166610483027
древний 3.228826155721369 0.0022722210807328423
забавный 3.9219733362813143 0.005520018770276304
недалеко 3.9219733362813143 0.011040037540552609
искусственный 0.5207759546191588 0.0003664855416039119
информация 1.7247487589450947 0.0012137570435926072
воронеж 3.9219733362813143 0.002760009385138152
теряться 3.5165082281731497 0.0024746715187706895
тег 0.009950330853168092 7.0023440205264546e-06
активный 3.005682604407159 0.006345564963561912
сфинкс 3.9219733362813143 0.002760009385138152
соратник 3.9219733362813143 0.002760009385138152
составить 3.005682604407159 0.0021151883211873042
этот 0.48798613179616795 0.0003434103672034961
дмитровский 3.9219733362813143 0.002760009385138152
первый 1.149384614041533 0.0008088561675169127
несколько 0.48798613179616795 0.0006868207344069922
каждый 1.0597724553518457 0.001491586847785849
впечатлить 3.5165082281731497 0.004949343037541379
новый 1.213923135179104 0.0017085476920184433
стать 0.5546775062948401 0.0003903430726916539
интерактив 2.6692103677859462 0.0018784027922490825
написать 1.6193882432872684 0.0011396117123766843
число 0.5720692490067093 0.0004025821597513788
разработчик 0.3246610756928683 0.00022847366340103328
где 0.5375830729355401 0.001134939633220704
рейтинг 0.009950330853168092 7.0023440205264546e-06
влево 0.6261364702769852 0.0004406308728198347
электронный 2.41789593950504 0.001701545347997917
маршрут 2.5356789751614235 0.0017844327763275323
лихой 0.6448286032891376 0.0004537850832435873
оставить 1.7819071727850435 0.0025079622417804974
освободиться 3.9219733362813143 0.002760009385138152
блог 2.130213867053259 0.0059963796398402784
выходной 2.41789593950504 0.001701545347997917
душный 3.5165082281731497 0.0024746715187706895
уровень 0.13778370236305296 9.696249286632861e-05
близкий 0.6448286032891376 0.0004537850832435873
портативный 3.5165082281731497 0.0024746715187706895
обновить 0.009950330853168092 7.0023440205264546e-06
музыка 2.6692103677859462 0.0018784027922490825
данные 0.10426101032440946 7.337157658297639e-05
статья 0.7439195059333684 0.0005235183011494499
увидеть 1.6193882432872684 0.006837670274260106
счастливый 3.005682604407159 0.0021151883211873042
выпить 3.9219733362813143 0.005520018770276304
филиал 3.9219733362813143 0.008280028155414457
встреча 0.5042466526679482 0.00035485337978039986
составляться 3.9219733362813143 0.002760009385138152
закрытый 1.670681537674819 0.0011757083305241514
фотобудка 3.9219733362813143 0.002760009385138152
оставлять 1.5705980791178364 0.00110527662147631
юзер 3.228826155721369 0.0022722210807328423
ваш 0.7030975114131134 0.0004947906484258363
важно 1.0316015783851493 0.0014519374783745944
начало 0.4719857904497268 0.0003321504507035375
рекомендация 1.9070703157390494 0.0013420621504145315
специальный 1.9070703157390494 0.0013420621504145315
яйцо 3.9219733362813143 0.002760009385138152
авиасимулятор 3.9219733362813143 0.002760009385138152
март 0.5207759546191588 0.0014659421664156476
конкурс 0.6448286032891376 0.0004537850832435873
операционный 0.5897688261061103 0.0004150378790331529
строить 1.4796263009121098 0.0010412570731260448
третьяковка 3.9219733362813143 0.005520018770276304
пиво 3.9219733362813143 0.005520018770276304
известный 2.5356789751614235 0.0017844327763275323
прочтение 0.009950330853168092 1.4004688041052909e-05
рождественка 3.9219733362813143 0.002760009385138152
дом 0.4254657748148339 0.00029941293090417583
случай 0.5546775062948401 0.0003903430726916539
политехнический 3.9219733362813143 0.002760009385138152
назад 0.13778370236305296 0.0005817749571979717
современный 3.9219733362813143 0.005520018770276304
