установиться 3.9219733362813143 0.0023338133509558548
использовать 0.10426101032440946 0.0004963332833057279
попадать 3.5165082281731497 0.0010462684403966527
ключ 0.22067136216882066 0.0005252516802590197
подобный 1.8425317946014783 0.0016446282010724293
популярный 2.0501711593797225 0.0012199768874618998
зависеть 1.7247487589450947 0.0005131653552350772
каталог 1.8425317946014783 0.018090910211796724
второй 1.213923135179104 0.001083537460737076
вы 0.009950330853168092 3.552632259387596e-05
называть 2.6692103677859462 0.0007941714869937359
работа 0.061243625240718594 0.00016399661623518814
календарь 0.5897688261061103 0.0022811647543527023
команда 0.7439195059333684 0.007082839687553641
сторона 1.149384614041533 0.0027358158025386084
мусор 0.5375830729355401 0.00015994735880260044
привыкнуть 3.9219733362813143 0.0011669066754779274
видеотека 3.9219733362813143 0.0011669066754779274
разрешать 3.5165082281731497 0.0010462684403966527
открыть 1.2829160066660557 0.0011451199107403057
похожий 0.020000666706669435 5.950808303085223e-06
сервер 0.36662527479190044 0.009490151415321434
домашний 2.5356789751614235 0.0052810927777833866
ряд 0.663876798259832 0.0005925707809519477
помочь 1.3570239788197773 0.0004037560186907996
свой 0.3384543978252041 0.0006042030309286595
решение 0.7864791203521645 0.0028080182815310843
файл 0.9775343571148737 0.004071847961799533
который 0.061243625240718594 0.000765317542430878
правильный 2.130213867053259 0.001267607180632704
получение 1.4370666864933137 0.00042757116527620165
подход 0.877450898557891 0.00026106840183216036
установить 1.4370666864933137 0.00256542699165721
туннель 3.9219733362813143 0.02333813350955855
пароль 2.312535423847214 0.005504398509603603
ресурс 1.0316015783851493 0.002455463441559415
место 0.13778370236305296 0.0005739279479567811
обойти 2.8233610476132043 0.0016800720307130047
находиться 1.2829160066660557 0.0022902398214806113
давать 0.3110554236370897 0.0009254847475069613
далее 2.130213867053259 0.0038028215418981115
поехать 3.9219733362813143 0.0011669066754779274
целесообразно 3.9219733362813143 0.0023338133509558548
хранение 1.9070703157390494 0.0022696463144767027
внимание 1.1186129553747792 0.0013312858736980414
нюанс 3.005682604407159 0.0017885644774812016
учитывать 2.6692103677859462 0.0015883429739874718
использоваться 1.213923135179104 0.001083537460737076
просмотр 0.009950330853168092 5.921053765645994e-06
понимать 0.5897688261061103 0.0007018968474931393
мир 0.4719857904497268 0.0001404301667508857
хватать 2.6692103677859462 0.0007941714869937359
развитие 0.5546775062948401 0.00016503347405380546
плохой 2.130213867053259 0.001267607180632704
являться 0.6261364702769852 0.0005588840853409567
начинать 1.9760631872260008 0.0005879390619535855
смонтировать 3.5165082281731497 0.0020925368807933054
первый 0.8309308829229982 0.0009889091138625388
уровень 0.13778370236305296 8.198970685096874e-05
так 0.009950330853168092 5.0328957007990944e-05
загрузка 1.7819071727850435 0.0005301717265055173
описание 2.6692103677859462 0.0007941714869937359
настройка 0.009950330853168092 1.4802634414114983e-05
сожаление 2.6692103677859462 0.0007941714869937359
музыка 2.6692103677859462 0.0007941714869937359
анонимно 3.9219733362813143 0.0023338133509558548
ограничить 2.8233610476132043 0.0008400360153565024
влететь 3.9219733362813143 0.0023338133509558548
разрешение 3.228826155721369 0.0019213485008755542
возникать 3.228826155721369 0.0028820227513133316
кавычка 3.9219733362813143 0.0011669066754779274
среда 1.9070703157390494 0.0005674115786191757
средство 1.9070703157390494 0.0005674115786191757
мы 0.030153038170687457 0.0002691434528773055
серый 3.9219733362813143 0.0011669066754779274
закончить 2.8233610476132043 0.0008400360153565024
остановиться 3.005682604407159 0.0008942822387406008
проверить 2.5356789751614235 0.0022633254761928803
навык 0.36662527479190044 0.00010908220017610843
шаблон 0.4719857904497268 0.0001404301667508857
голова 3.005682604407159 0.0008942822387406008
функционал 1.0887599922250981 0.0003239393014653669
настроить 2.0501711593797225 0.0024399537749237995
писать 0.8084580270709397 0.0004810818369955012
дать 0.2330938821673778 0.001387050771599987
обеспечить 2.5356789751614235 0.003017767301590507
пользователь 0.3384543978252041 0.001913309597940755
внешний 2.5356789751614235 0.0007544418253976268
банальный 3.9219733362813143 0.0011669066754779274
выполнение 1.2478246868547855 0.0003712658990939558
преимущество 2.0501711593797225 0.0006099884437309499
теперь 0.8084580270709397 0.0009621636739910024
клиент 1.3570239788197773 0.015342728710250383
менее 1.3962446919730587 0.0008308507539262473
обязательно 1.5705980791178364 0.0009346016537446216
облачный 0.6077873316087886 0.0007233410670738335
месяц 1.4796263009121098 0.000880467897002148
нечто 3.5165082281731497 0.0020925368807933054
прочитать 2.5356789751614235 0.0007544418253976268
дзен 0.009950330853168092 2.960526882822997e-06
конференция 0.6077873316087886 0.0010850116006107502
девять 0.6261364702769852 0.00018629469511365223
сервис 1.0316015783851493 0.0009207987905847807
причина 1.5240780634829436 0.0009069194070115701
сразу 0.8309308829229982 0.0007416818353969041
разрабатывать 0.6261364702769852 0.00018629469511365223
дальнейший 2.6692103677859462 0.0007941714869937359
односторонний 3.9219733362813143 0.0011669066754779274
сделать 0.7864791203521645 0.002106013711148313
дешёвый 3.9219733362813143 0.0023338133509558548
инициирование 3.228826155721369 0.0009606742504377771
подразумеваться 3.5165082281731497 0.0010462684403966527
особо 1.4796263009121098 0.000440233948501074
размещение 2.8233610476132043 0.0016800720307130047
основать 2.6692103677859462 0.0015883429739874718
наш 0.663876798259832 0.0015801887492051937
ранее 1.1186129553747792 0.0006656429368490207
конец 1.670681537674819 0.0004970787080258313
директор 0.4254657748148339 0.00012658904338436
занятие 0.6261364702769852 0.00018629469511365223
иметь 0.7864791203521645 0.0011700076173046185
штатный 3.5165082281731497 0.0010462684403966527
ограничение 1.6193882432872684 0.0014454521659809
язык 0.009950330853168092 5.921053765645994e-06
слепой 3.5165082281731497 0.0010462684403966527
происходить 3.005682604407159 0.0017885644774812016
очевидный 2.217225244042889 0.0006596921285459354
предел 0.41042789745029334 0.0003663444487803868
сам 0.17246926035094298 5.131486472804016e-05
прослушивание 3.9219733362813143 0.0011669066754779274
видеть 1.3570239788197773 0.0024225361121447972
получить 0.6261364702769852 0.00167665225602287
оперировать 3.9219733362813143 0.0011669066754779274
вообще 1.5705980791178364 0.0014019024806169323
монтировать 3.005682604407159 0.006259975671184205
проблема 1.3570239788197773 0.0008075120373815991
сеть 1.004202604197035 0.0020914662985359253
клиентский 3.5165082281731497 0.0010462684403966527
промышленный 3.005682604407159 0.0008942822387406008
вид 0.22067136216882066 0.00013131292006475493
подключаться 3.9219733362813143 0.0011669066754779274
июнь 0.6448286032891376 0.00019185617473642893
назначение 3.5165082281731497 0.0020925368807933054
полный 1.9070703157390494 0.001702234735857527
значение 1.149384614041533 0.0006839539506346521
пояснить 3.5165082281731497 0.0020925368807933054
намного 2.217225244042889 0.0013193842570918708
должный 0.3246610756928683 0.0006761759981702105
возможность 1.004202604197035 0.000597561799581693
входной 3.228826155721369 0.0009606742504377771
порт 1.149384614041533 0.004103723703807913
приложение 1.2829160066660557 0.0015268265476537407
установление 3.228826155721369 0.0067247197530644395
закрыть 3.005682604407159 0.0017885644774812016
быть 0.009950330853168092 3.552632259387596e-05
поэтому 0.5042466526679482 0.0009001725426979141
одинарный 3.9219733362813143 0.0011669066754779274
уметь 3.005682604407159 0.0017885644774812016
учёт 1.7819071727850435 0.0005301717265055173
ошибка 1.9070703157390494 0.0011348231572383513
предупредить 2.8233610476132043 0.0016800720307130047
ваш 0.7030975114131134 0.002719508374998653
подробный 0.5375830729355401 0.0020793156644338057
серия 0.6077873316087886 0.0005425058003053751
вакансия 1.2829160066660557 0.0003817066369134352
статический 3.228826155721369 0.0019213485008755542
производиться 3.228826155721369 0.0009606742504377771
выполнять 1.3570239788197773 0.0004037560186907996
хранить 1.7819071727850435 0.0015905151795165518
неспроста 3.9219733362813143 0.0023338133509558548
управление 1.3192836508369303 0.0027476898410766174
удалённый 2.312535423847214 0.002064149441101351
сборщик 0.6077873316087886 0.00036167053353691677
грант 0.6448286032891376 0.00019185617473642893
дата 0.6448286032891376 0.002494130271573576
сетевой 2.6692103677859462 0.0007941714869937359
махинация 3.9219733362813143 0.0011669066754779274
инициализация 3.5165082281731497 0.0020925368807933054
статья 1.670681537674819 0.0009941574160516626
сначала 1.6193882432872684 0.0004818173886603
хотеть 0.9262410627273231 0.0019290947453410477
идеология 3.228826155721369 0.0019213485008755542
потому 1.213923135179104 0.0003611791535790253
выполняться 2.8233610476132043 0.0008400360153565024
урок 0.5546775062948401 0.0009902008443228327
устанавливать 2.130213867053259 0.005070428722530816
увидеть 1.3570239788197773 0.0008075120373815991
я 0.009950330853168092 5.921053765645994e-06
доступ 0.7030975114131134 0.005648209701920281
право 0.0404095383378767 4.809228008078155e-05
данные 0.09333193979221913 0.00022215278736618656
использование 0.7649729151312009 0.001365616629213688
воспользоваться 2.130213867053259 0.0019014107709490558
час 0.030153038170687457 8.971448429243516e-06
полоса 3.9219733362813143 0.0023338133509558548
платформа 0.48798613179616795 0.0001451907562618768
реализация 3.005682604407159 0.0017885644774812016
удача 3.5165082281731497 0.0010462684403966527
хотеться 2.5356789751614235 0.0007544418253976268
хабра 0.009950330853168092 8.88158064846899e-06
выглядеть 1.2829160066660557 0.001908533184567176
объём 1.9070703157390494 0.0011348231572383513
предоставление 3.5165082281731497 0.0020925368807933054
работать 0.1264841471091197 0.0005268604759082642
следовать 1.3570239788197773 0.0008075120373815991
расшарить 3.9219733362813143 0.0023338133509558548
количество 0.009950330853168092 2.960526882822997e-06
база 0.4254657748148339 0.00025317808676872
канал 1.149384614041533 0.0006839539506346521
весь 0.5720692490067093 0.00034041609580881245
делать 0.5042466526679482 0.00045008627134895707
организовать 2.312535423847214 0.0013760996274009007
извне 3.228826155721369 0.0019213485008755542
фоновый 3.5165082281731497 0.0020925368807933054
вопрос 0.7864791203521645 0.0016380106642264656
время 0.009950330853168092 4.440790324234495e-05
протокол 2.312535423847214 0.0006880498137004504
мочь 0.3384543978252041 0.000503502525773883
февраль 0.5546775062948401 0.001485301266484249
практический 0.6261364702769852 0.00018629469511365223
вывод 0.9775343571148737 0.00029084628298568094
создать 1.5240780634829436 0.0009069194070115701
провернуть 3.9219733362813143 0.0023338133509558548
становиться 2.312535423847214 0.0013760996274009007
сила 2.0501711593797225 0.0012199768874618998
позволять 0.9262410627273231 0.0002755849636201497
подключение 1.9070703157390494 0.002837057893095878
массив 1.5705980791178364 0.0004673008268723108
движение 2.41789593950504 0.002158193340825683
сутки 0.020000666706669435 1.1901616606170447e-05
железа 3.228826155721369 0.0009606742504377771
согласный 2.8233610476132043 0.0008400360153565024
мессенджер 2.8233610476132043 0.0008400360153565024
диск 1.5240780634829436 0.0036276776280462805
проверка 1.1811333123561132 0.0003514231813020271
выполнить 1.7819071727850435 0.0010603434530110346
условие 1.2478246868547855 0.0011137976972818676
такой 0.3810140122440001 0.0007935430186575426
особенность 2.6692103677859462 0.0007941714869937359
иначе 2.0501711593797225 0.0036599306623856993
имя 1.5705980791178364 0.00654221157621235
достаточно 0.9775343571148737 0.0011633851319427237
процесс 0.5207759546191588 0.0009296803712332499
даваться 1.3570239788197773 0.0008075120373815991
адрес 1.6193882432872684 0.0004818173886603
коммерческий 3.005682604407159 0.0008942822387406008
многое 2.312535423847214 0.0013760996274009007
одноядерный 3.9219733362813143 0.0011669066754779274
профессия 0.6448286032891376 0.00019185617473642893
администратор 0.5375830729355401 0.00047984207640780133
карма 0.009950330853168092 2.960526882822997e-06
наём 0.6448286032891376 0.00019185617473642893
задача 0.5546775062948401 0.001155234318376638
бесплатный 2.41789593950504 0.0007193977802752277
вход 1.1811333123561132 0.0007028463626040542
хостинг 2.312535423847214 0.0027521992548018015
понять 1.5705980791178364 0.0004673008268723108
самый 1.3570239788197773 0.0008075120373815991
программа 1.5705980791178364 0.0014019024806169323
разумный 3.228826155721369 0.0009606742504377771
путь 1.670681537674819 0.0029824722481549878
инженер 0.5720692490067093 0.00034041609580881245
построение 0.5720692490067093 0.00017020804790440623
открытие 2.5356789751614235 0.0015088836507952536
данный 0.9015484501369516 0.0005364763166539432
веб 0.3524406397999441 0.00020972367735789594
буквально 3.005682604407159 0.0017885644774812016
владелец 3.005682604407159 0.0008942822387406008
желание 2.217225244042889 0.0006596921285459354
отдавать 2.8233610476132043 0.0008400360153565024
соединение 2.312535423847214 0.012384896646608107
собственный 1.6193882432872684 0.0019272695546412
обращение 2.41789593950504 0.004316386681651366
регистрироваться 3.005682604407159 0.0008942822387406008
память 1.7247487589450947 0.0005131653552350772
предлагать 1.6193882432872684 0.0004818173886603
москва 0.6261364702769852 0.0005588840853409567
яндекс 0.009950330853168092 5.921053765645994e-06
карьера 0.6077873316087886 0.00018083526676845838
обойтись 3.5165082281731497 0.0020925368807933054
ввод 1.3192836508369303 0.00039252712015380253
назначать 3.9219733362813143 0.0011669066754779274
ждать 2.130213867053259 0.002535214361265408
оказываться 3.5165082281731497 0.0010462684403966527
означать 1.2829160066660557 0.0015268265476537407
упомянуть 2.6692103677859462 0.0007941714869937359
пускать 1.9070703157390494 0.0011348231572383513
посмотреть 1.670681537674819 0.001988314832103325
машина 2.0501711593797225 0.0012199768874618998
доступно 2.217225244042889 0.0013193842570918708
давно 1.3192836508369303 0.0007850542403076051
часто 1.149384614041533 0.0006839539506346521
пользоваться 1.0597724553518457 0.0003153146252162588
счёт 0.9775343571148737 0.0005816925659713619
поиск 0.009950330853168092 2.960526882822997e-06
какой 0.877450898557891 0.001305342009160802
алгоритм 0.5546775062948401 0.00016503347405380546
расширить 3.5165082281731497 0.004185073761586611
обычный 2.0501711593797225 0.0006099884437309499
находить 1.9760631872260008 0.0005879390619535855
никакой 2.6692103677859462 0.0015883429739874718
видеофайл 3.9219733362813143 0.0011669066754779274
крайне 1.670681537674819 0.0009941574160516626
обратить 1.7247487589450947 0.0010263307104701545
сторонний 3.005682604407159 0.0026828467162218024
недостаток 2.8233610476132043 0.002520108046069507
успешность 3.9219733362813143 0.0023338133509558548
приходить 1.6193882432872684 0.0004818173886603
консоль 2.130213867053259 0.001267607180632704
решать 1.8425317946014783 0.0005482094003574765
момент 0.663876798259832 0.00019752359365064921
вправо 0.6448286032891376 0.00019185617473642893
голосование 0.009950330853168092 5.921053765645994e-06
хороший 0.020000666706669435 1.785242490925567e-05
полезный 2.5356789751614235 0.0015088836507952536
кто 0.05077232537342314 3.021263039180193e-05
публикация 0.020000666706669435 5.950808303085223e-06
качественный 0.5546775062948401 0.00016503347405380546
дть 0.4562374334815876 0.00013574455027717572
тренировка 0.6448286032891376 0.00019185617473642893
разместить 2.8233610476132043 0.0033601440614260095
решить 1.6193882432872684 0.0014454521659809
очень 0.7864791203521645 0.0007020045703827711
монтирование 3.228826155721369 0.0067247197530644395
код 0.6077873316087886 0.00036167053353691677
технический 0.009950330853168092 2.960526882822997e-06
связь 0.9775343571148737 0.00029084628298568094
разрешить 3.9219733362813143 0.0011669066754779274
покупка 2.8233610476132043 0.0016800720307130047
читатель 3.228826155721369 0.0009606742504377771
рука 2.312535423847214 0.0006880498137004504
вводить 2.312535423847214 0.002064149441101351
поддержка 0.009950330853168092 8.88158064846899e-06
проверять 2.217225244042889 0.0006596921285459354
апрель 0.6261364702769852 0.00018629469511365223
войти 0.009950330853168092 2.960526882822997e-06
мой 0.5897688261061103 0.00017547421187328482
нужно 0.1607732205877518 9.56698724116345e-05
поделиться 2.312535423847214 0.0027521992548018015
запуск 0.297632403304949 0.0001771094336833972
единственный 2.8233610476132043 0.0008400360153565024
принцип 0.3810140122440001 0.00011336328837964894
будущее 0.5720692490067093 0.00017020804790440623
описывать 3.228826155721369 0.0009606742504377771
нерешаемый 3.9219733362813143 0.0011669066754779274
стриминг 3.9219733362813143 0.0023338133509558548
отлично 2.5356789751614235 0.0015088836507952536
надеяться 2.312535423847214 0.0006880498137004504
грань 0.20840126957700633 6.200573328682128e-05
способный 2.6692103677859462 0.0007941714869937359
практика 2.8233610476132043 0.0033601440614260095
распространение 3.228826155721369 0.0019213485008755542
пакет 1.7247487589450947 0.0005131653552350772
предоставлять 1.670681537674819 0.0004970787080258313
иметься 3.005682604407159 0.0008942822387406008
два 0.5042466526679482 0.00030005751423263803
соединить 1.9070703157390494 0.0005674115786191757
проводиться 2.6692103677859462 0.0007941714869937359
обучение 0.5207759546191588 0.00030989345707775
провайдер 2.8233610476132043 0.0016800720307130047
индустрия 0.5720692490067093 0.00017020804790440623
заменить 1.9760631872260008 0.004115573433675098
почтовый 3.5165082281731497 0.0020925368807933054
обращаться 2.0501711593797225 0.004269919106116649
пример 0.25841169015166776 7.688535856937452e-05
можно 0.05077232537342314 0.00015106315195900964
термин 1.4796263009121098 0.000440233948501074
душа 3.5165082281731497 0.0010462684403966527
немного 1.3962446919730587 0.0008308507539262473
цель 1.6193882432872684 0.0009636347773206
дорого 2.8233610476132043 0.0016800720307130047
отвечать 1.9070703157390494 0.0005674115786191757
отметить 2.8233610476132043 0.0033601440614260095
нормально 2.41789593950504 0.0014387955605504553
оборудование 2.41789593950504 0.0028775911211009106
создание 1.7819071727850435 0.0010603434530110346
распоряжение 3.005682604407159 0.0008942822387406008
ходить 1.1186129553747792 0.00033282146842451035
приготовление 3.9219733362813143 0.0011669066754779274
заработать 3.5165082281731497 0.0010462684403966527
тот 0.22067136216882066 0.0001969693800971324
выделить 1.7819071727850435 0.0005301717265055173
звук 3.5165082281731497 0.0010462684403966527
нет 0.3810140122440001 0.0007935430186575426
метод 1.0597724553518457 0.0003153146252162588
запись 1.9760631872260008 0.001175878123907171
предоставить 3.005682604407159 0.0017885644774812016
диапазон 2.130213867053259 0.002535214361265408
контроль 2.217225244042889 0.0013193842570918708
поднимать 3.5165082281731497 0.0020925368807933054
широкий 2.6692103677859462 0.0007941714869937359
пространство 2.5356789751614235 0.006035534603181014
интеллект 0.5207759546191588 0.000154946728538875
необходимо 0.6077873316087886 0.0018083526676845839
железо 2.312535423847214 0.0006880498137004504
оно 0.1607732205877518 0.000191339744823269
пойти 2.5356789751614235 0.0007544418253976268
возможный 2.8233610476132043 0.0008400360153565024
четверг 0.6448286032891376 0.00019185617473642893
знать 0.3246610756928683 0.0001931931423343459
показать 1.7247487589450947 0.0005131653552350772
копеечка 3.9219733362813143 0.0011669066754779274
мощный 2.6692103677859462 0.0007941714869937359
полностью 1.5705980791178364 0.0009346016537446216
предусматривать 3.9219733362813143 0.0011669066754779274
вариант 1.213923135179104 0.0003611791535790253
администрирование 2.312535423847214 0.0027521992548018015
искусственный 0.5207759546191588 0.000154946728538875
общий 1.6193882432872684 0.0004818173886603
тут 0.877450898557891 0.0015664104109929624
необходимый 2.8233610476132043 0.0008400360153565024
тег 0.009950330853168092 2.960526882822997e-06
фотоальбом 3.9219733362813143 0.0023338133509558548
это 0.009950330853168092 5.921053765645993e-05
аналогия 3.228826155721369 0.0009606742504377771
идентификатор 2.8233610476132043 0.0016800720307130047
ложиться 3.005682604407159 0.0017885644774812016
инструкция 2.130213867053259 0.001267607180632704
сообщение 1.7247487589450947 0.002052661420940309
добавить 0.009950330853168092 2.960526882822997e-06
запрашивать 3.9219733362813143 0.0023338133509558548
серверный 3.228826155721369 0.0019213485008755542
ситуация 1.8425317946014783 0.0016446282010724293
вполне 1.7819071727850435 0.0010603434530110346
разница 3.005682604407159 0.0008942822387406008
столкнуться 2.5356789751614235 0.0007544418253976268
образ 0.5042466526679482 0.00030005751423263803
третий 2.5356789751614235 0.0007544418253976268
трафик 2.41789593950504 0.0014387955605504553
нести 1.4796263009121098 0.000440233948501074
перенаправление 3.9219733362813143 0.0023338133509558548
далёкий 1.3192836508369303 0.00039252712015380253
получать 1.9070703157390494 0.0011348231572383513
группа 1.5240780634829436 0.0009069194070115701
забыть 2.8233610476132043 0.0008400360153565024
входить 3.5165082281731497 0.0010462684403966527
разработчик 0.3246610756928683 9.659657116717295e-05
число 0.5720692490067093 0.00017020804790440623
результат 0.8084580270709397 0.0004810818369955012
организация 1.9070703157390494 0.0005674115786191757
следующий 1.7247487589450947 0.0005131653552350772
заканчивать 2.8233610476132043 0.0008400360153565024
рейтинг 0.009950330853168092 2.960526882822997e-06
видеоконференция 3.9219733362813143 0.0011669066754779274
влево 0.6261364702769852 0.00018629469511365223
простить 3.9219733362813143 0.0023338133509558548
двухсторонний 3.9219733362813143 0.0011669066754779274
папка 2.5356789751614235 0.0015088836507952536
установка 2.0501711593797225 0.0006099884437309499
необходимость 2.5356789751614235 0.0015088836507952536
роутер 3.5165082281731497 0.0020925368807933054
система 0.7864791203521645 0.00046800304692184736
реализовать 2.41789593950504 0.0028775911211009106
размонтирование 3.9219733362813143 0.0011669066754779274
ввести 2.5356789751614235 0.004526650952385761
написать 1.7247487589450947 0.0010263307104701545
лихой 0.6448286032891376 0.00019185617473642893
большой 1.4370666864933137 0.00042757116527620165
аспект 2.8233610476132043 0.0008400360153565024
размонтировать 3.9219733362813143 0.0023338133509558548
пропасть 3.9219733362813143 0.0011669066754779274
пробел 3.005682604407159 0.0008942822387406008
дисковый 3.5165082281731497 0.003138805321189958
просить 2.5356789751614235 0.0007544418253976268
иногда 1.5705980791178364 0.0009346016537446216
безопасность 1.3570239788197773 0.0012112680560723986
готовый 2.41789593950504 0.0007193977802752277
включить 2.312535423847214 0.0013760996274009007
обеспечение 1.6193882432872684 0.0004818173886603
размер 1.1186129553747792 0.00033282146842451035
теоретически 3.9219733362813143 0.0023338133509558548
простой 1.149384614041533 0.0010259309259519783
помощь 0.5897688261061103 0.00017547421187328482
требовательный 3.9219733362813143 0.0011669066754779274
чтение 0.009950330853168092 5.921053765645994e-06
близкий 0.6448286032891376 0.00019185617473642893
обновить 0.009950330853168092 2.960526882822997e-06
логин 2.41789593950504 0.0028775911211009106
повлиять 2.8233610476132043 0.0016800720307130047
настоящий 2.312535423847214 0.0006880498137004504
разобраться 1.8425317946014783 0.0005482094003574765
изменение 1.9760631872260008 0.0005879390619535855
системный 2.8233610476132043 0.0008400360153565024
вещь 3.228826155721369 0.0019213485008755542
повторение 3.5165082281731497 0.0020925368807933054
встреча 0.5042466526679482 0.00015002875711631901
остальной 2.41789593950504 0.0007193977802752277
продвинуть 3.9219733362813143 0.0011669066754779274
пониматься 3.9219733362813143 0.0011669066754779274
операционный 0.5375830729355401 0.0003198947176052009
преграда 3.9219733362813143 0.0011669066754779274
битрейт 3.9219733362813143 0.0011669066754779274
некоторый 3.005682604407159 0.0008942822387406008
страничка 3.9219733362813143 0.0011669066754779274
начало 0.4719857904497268 0.0001404301667508857
опция 3.005682604407159 0.0026828467162218024
уведомление 3.5165082281731497 0.0020925368807933054
монтироваться 3.9219733362813143 0.0023338133509558548
доменный 3.228826155721369 0.0019213485008755542
понимание 2.5356789751614235 0.003017767301590507
март 0.5207759546191588 0.00046484018561662494
занятый 0.5042466526679482 0.00030005751423263803
конкурс 0.6448286032891376 0.00019185617473642893
успешный 2.5356789751614235 0.0007544418253976268
совместить 3.9219733362813143 0.0023338133509558548
прямой 2.8233610476132043 0.0008400360153565024
подчас 3.5165082281731497 0.008370147523173221
трансляция 3.9219733362813143 0.0011669066754779274
подробно 1.7819071727850435 0.0010603434530110346
прочтение 0.009950330853168092 5.921053765645994e-06
локальный 3.9219733362813143 0.0023338133509558548
случай 0.5546775062948401 0.0006601338962152219
идти 0.951558870711613 0.00028311778360952486
занудность 3.9219733362813143 0.0023338133509558548
принадлежать 3.5165082281731497 0.0010462684403966527
компетенция 0.6448286032891376 0.00019185617473642893
почему 1.5705980791178364 0.0004673008268723108
назад 0.13778370236305296 8.198970685096874e-05
