попытка 2.217225244042889 0.004397511392389704
автомат 0.877450898557891 0.002784453466268595
первый 0.7439195059333684 0.002065623380219587
сильно 1.5705980791178364 0.0037380358884200786
снова 0.7864791203521645 0.0006239421819533237
допуск 2.8233610476132043 0.0044797477947056
соединить 2.6692103677859462 0.0021175806170455743
самый 0.8539204011476971 0.002371060217387497
видеокамера 4.61512051684126 0.0036613411478312254
отключить 2.8233610476132043 0.0022398738973528
фон 1.3570239788197773 0.0005382879725584202
паста 2.5356789751614235 0.011064049475119263
второй 1.4796263009121098 0.003521522334578603
нужный 1.1186129553747792 0.001331153854075501
отверстие 3.9219733362813143 0.01711293403375425
чип 2.8233610476132043 0.005599684743381999
очистить 4.61512051684126 0.0018306705739156127
электронный 3.5165082281731497 0.002789772493592344
панель 3.228826155721369 0.0038423159330282057
календарь 0.5897688261061103 0.0030412513841251224
рисковать 3.005682604407159 0.004769032295767012
ток 0.7439195059333684 0.0008852671629512516
мусор 0.5375830729355401 0.0002132419964044189
монета 4.61512051684126 0.005492011721746838
собрать 2.312535423847214 0.002751926327465943
большинство 1.9070703157390494 0.004538842480933874
разместить 2.5356789751614235 0.011064049475119263
похожий 0.020000666706669435 7.933624239059673e-06
ровный 4.61512051684126 0.0036613411478312254
удаться 2.41789593950504 0.001918203839353463
пройти 1.3192836508369303 0.0010466351851145818
работа 0.0404095383378767 9.617502182755264e-05
оказаться 1.213923135179104 0.0028891466922152417
гвоздик 4.61512051684126 0.005492011721746838
площадь 3.9219733362813143 0.0015557212757958407
идентичный 3.005682604407159 0.002384516147883506
целый 2.6692103677859462 0.0021175806170455743
модель 2.130213867053259 0.0008449876505566278
который 0.09333193979221913 0.0002591525499982284
ошибка 2.0501711593797225 0.00731913543610373
цепь 4.61512051684126 0.0036613411478312254
источник 1.5240780634829436 0.0006045529803581688
столкнуться 3.005682604407159 0.001192258073941753
место 0.2456726643742379 0.001656658188957574
поверхностный 4.61512051684126 0.0018306705739156127
один 0.3524406397999441 0.0004194057593811314
заказывать 4.61512051684126 0.0036613411478312254
далее 2.130213867053259 0.0016899753011132557
вытягивание 4.61512051684126 0.005492011721746838
цена 1.7819071727850435 0.0007068255346231826
новый 0.6448286032891376 0.0007673485957427263
весёлый 4.61512051684126 0.0036613411478312254
становиться 1.2478246868547855 0.000494972109026095
маленький 2.5356789751614235 0.006034936077337779
выбор 1.4796263009121098 0.0017607611672893016
перераспределение 4.61512051684126 0.0018306705739156127
подготовка 3.005682604407159 0.001192258073941753
просмотр 0.009950330853168092 3.946977728349104e-06
этот 0.2456726643742379 0.00038980192681354687
понимать 0.5897688261061103 0.0004678848283269419
развитие 0.5546775062948401 0.00022002281090632294
плохой 2.130213867053259 0.0008449876505566278
хранение 1.0597724553518457 0.0004203778085489273
цель 1.6193882432872684 0.0006423594777022089
потреблять 4.61512051684126 0.0018306705739156127
аккумулятор 3.228826155721369 0.0012807719776760686
сэндвич 4.61512051684126 0.02013737631307174
фрилансер 3.9219733362813143 0.0031114425515916815
происшествие 4.61512051684126 0.0018306705739156127
позволить 1.7247487589450947 0.0006841526215569595
сожаление 2.6692103677859462 0.0010587903085227872
двинуться 4.61512051684126 0.0036613411478312254
помнить 2.5356789751614235 0.0020116453591125932
тот 0.10426101032440946 8.271401057073341e-05
поставляться 3.9219733362813143 0.0015557212757958407
представлять 1.7247487589450947 0.001368305243113919
представление 2.217225244042889 0.0017590045569558818
проект 0.6261364702769852 0.00223531464993767
след 0.1607732205877518 6.37735900784418e-05
будущий 3.005682604407159 0.001192258073941753
керамический 4.61512051684126 0.0018306705739156127
выложить 3.5165082281731497 0.001394886246796172
выполнять 1.7819071727850435 0.002120476603869548
добиться 2.6692103677859462 0.004235161234091149
включение 2.41789593950504 0.0009591019196767315
мы 0.030153038170687457 8.372521507132574e-05
печатный 3.9219733362813143 0.009334327654775043
вперёд 3.5165082281731497 0.002789772493592344
наносить 4.61512051684126 0.0018306705739156127
отрицательный 4.61512051684126 0.0018306705739156127
заказать 3.5165082281731497 0.004184658740388516
проверить 2.5356789751614235 0.0020116453591125932
подключиться 3.5165082281731497 0.005579544987184688
навык 0.36662527479190044 0.00014542851042915526
шаблон 0.4719857904497268 0.002621103159974683
собственный 2.0501711593797225 0.0024397118120345765
провод 1.0597724553518457 0.0016815112341957092
прокладывание 4.61512051684126 0.0036613411478312254
разрабатывать 0.6261364702769852 0.0007451048833125567
дисплей 3.005682604407159 0.0035767742218252587
очевидный 4.61512051684126 0.0018306705739156127
величина 3.5165082281731497 0.001394886246796172
двухслойный 4.61512051684126 0.0018306705739156127
правильно 1.4370666864933137 0.0011400767048737118
позиция 2.41789593950504 0.0028773057590301943
больший 3.005682604407159 0.001192258073941753
скорость 1.9760631872260008 0.00156768202080603
особый 2.6692103677859462 0.0010587903085227872
идеальный 2.6692103677859462 0.003176370925568361
затем 1.004202604197035 0.0007966700548964975
перекосить 4.61512051684126 0.0018306705739156127
минь 0.22067136216882066 8.753326543785032e-05
утилита 2.6692103677859462 0.0021175806170455743
закончиться 3.228826155721369 0.0012807719776760686
светодиод 3.005682604407159 0.023845161478835055
менее 1.3962446919730587 0.0022153822958715726
вернуть 1.8425317946014783 0.0029234935257460982
втрое 4.61512051684126 0.0036613411478312254
масштаб 1.7819071727850435 0.0028273021384927306
остальной 2.312535423847214 0.0018346175516439618
край 1.4370666864933137 0.0011400767048737118
температура 3.005682604407159 0.001192258073941753
подруга 4.61512051684126 0.0018306705739156127
положиться 3.9219733362813143 0.0031114425515916815
конференция 0.6077873316087886 0.001446538671024487
дзен 0.009950330853168092 3.946977728349104e-06
подушка 4.61512051684126 0.0018306705739156127
задонатить 2.5356789751614235 0.0010058226795562966
оставить 1.7247487589450947 0.0006841526215569595
бейдж 3.9219733362813143 0.006222885103183363
девять 0.6261364702769852 0.0002483682944375189
калибровка 3.9219733362813143 0.0046671638273875216
положение 1.7819071727850435 0.002120476603869548
многоуровневый 4.61512051684126 0.0018306705739156127
проходить 3.005682604407159 0.001192258073941753
продолговатый 4.61512051684126 0.0036613411478312254
подключить 2.8233610476132043 0.0033598108460292
существовать 1.670681537674819 0.0006627058856306303
заказ 1.8425317946014783 0.0014617467628730491
счастие 2.5356789751614235 0.0010058226795562966
прекрасно 3.228826155721369 0.0012807719776760686
изготовить 4.61512051684126 0.005492011721746838
говорить 1.2829160066660557 0.000508891712283243
большой 1.5240780634829436 0.0018136589410745064
никакой 1.8425317946014783 0.0007308733814365246
надевать 4.61512051684126 0.0036613411478312254
сделать 0.7864791203521645 0.0028077398187899565
помогать 1.7247487589450947 0.0006841526215569595
рождество 4.61512051684126 0.0018306705739156127
передаваемый 4.61512051684126 0.0018306705739156127
датахать 4.61512051684126 0.0018306705739156127
размещение 2.5356789751614235 0.008046581436450373
сотня 3.5165082281731497 0.001394886246796172
влиять 2.41789593950504 0.0009591019196767315
перевод 1.3962446919730587 0.0016615367219036795
директор 0.4254657748148339 0.00016876865323872824
заметно 3.228826155721369 0.002561543955352137
привести 1.9760631872260008 0.00156768202080603
занятие 0.6261364702769852 0.0002483682944375189
иметь 0.7030975114131134 0.0013944813792406054
язык 0.009950330853168092 7.893955456698208e-06
принтер 4.61512051684126 0.0036613411478312254
справляться 3.9219733362813143 0.0031114425515916815
куча 3.228826155721369 0.002561543955352137
круг 1.8425317946014783 0.0007308733814365246
история 2.0501711593797225 0.0008132372706781922
диаметр 4.61512051684126 0.0036613411478312254
наконечник 4.61512051684126 0.0036613411478312254
конфигурация 3.228826155721369 0.002561543955352137
создавать 1.6193882432872684 0.0012847189554044177
стесняться 2.5356789751614235 0.0010058226795562966
корпус 3.228826155721369 0.005123087910704274
казаться 1.3570239788197773 0.0005382879725584202
предел 0.41042789745029334 0.0004884108260019358
понять 1.670681537674819 0.001988117656891891
площадка 2.6692103677859462 0.006352741851136722
получиться 2.312535423847214 0.0018346175516439618
втайне 4.61512051684126 0.0036613411478312254
извлечь 3.228826155721369 0.002561543955352137
изучить 3.228826155721369 0.002561543955352137
совершенно 2.312535423847214 0.0018346175516439618
сработать 3.228826155721369 0.002561543955352137
множество 1.4796263009121098 0.0005869203890964339
программирование 1.7819071727850435 0.0014136510692463653
требоваться 1.1811333123561132 0.000937035551254354
вручную 2.41789593950504 0.001918203839353463
точка 1.1186129553747792 0.0008874359027170005
сказать 1.7247487589450947 0.001368305243113919
камешек 4.61512051684126 0.0036613411478312254
утомительно 3.9219733362813143 0.0031114425515916815
июнь 0.6448286032891376 0.0002557828652475754
покупной 4.61512051684126 0.0018306705739156127
конец 1.7247487589450947 0.0020524578646708785
внутренний 3.005682604407159 0.0035767742218252587
намного 2.217225244042889 0.0017590045569558818
увеличить 2.8233610476132043 0.0011199369486764
должный 0.3956128116651528 0.0006277077535345542
матрица 2.8233610476132043 0.0044797477947056
пайка 3.5165082281731497 0.004184658740388516
разный 1.3570239788197773 0.0005382879725584202
выстроиться 4.61512051684126 0.0018306705739156127
добавить 0.009950330853168092 1.1840933185047313e-05
общий 1.670681537674819 0.0006627058856306303
ссылка 1.670681537674819 0.0006627058856306303
минимум 1.8425317946014783 0.0014617467628730491
конструкция 3.5165082281731497 0.001394886246796172
выходить 2.8233610476132043 0.0011199369486764
расстояние 2.41789593950504 0.00671371343773712
поэтому 0.7649729151312009 0.0042481637492411
практически 1.149384614041533 0.0009118481666335049
двигаться 3.005682604407159 0.002384516147883506
показать 1.3962446919730587 0.0011076911479357863
глупо 4.61512051684126 0.0036613411478312254
доллар 3.228826155721369 0.0012807719776760686
решить 1.3570239788197773 0.0005382879725584202
вместе 1.6193882432872684 0.0006423594777022089
размер 1.1186129553747792 0.003549743610868002
он 0.009950330853168092 3.157582182679283e-05
компонент 1.6193882432872684 0.008350673210128714
подробный 0.5375830729355401 0.002772145953257446
мощность 4.61512051684126 0.0036613411478312254
скважность 4.61512051684126 0.0018306705739156127
серия 0.6077873316087886 0.0007232693355122435
тактовый 4.61512051684126 0.0018306705739156127
использовать 0.19627990904466155 0.0004671477406854301
читать 1.1186129553747792 0.0004437179513585003
смотреть 1.004202604197035 0.00039833502744824874
возможность 0.9015484501369516 0.0003576154106056928
управление 1.670681537674819 0.0013254117712612607
снимать 3.5165082281731497 0.001394886246796172
возникнуть 2.41789593950504 0.001918203839353463
небольшой 2.0501711593797225 0.0016264745413563843
пытаться 1.8425317946014783 0.0007308733814365246
грант 0.6448286032891376 0.0002557828652475754
дата 0.6448286032891376 0.00332517724821848
час 0.030153038170687457 1.1960745010189392e-05
рамка 1.2478246868547855 0.000494972109026095
гораздо 2.217225244042889 0.005277013670867646
монтаж 3.9219733362813143 0.0031114425515916815
хотеть 1.0316015783851493 0.0024552199406231243
понятно 1.9070703157390494 0.0015129474936446247
деньга 2.130213867053259 0.0008449876505566278
урок 0.5546775062948401 0.0013201368654379376
малое 3.9219733362813143 0.0015557212757958407
партия 4.61512051684126 0.0018306705739156127
лента 2.5356789751614235 0.008046581436450373
сопротивление 3.9219733362813143 0.0031114425515916815
периметр 3.005682604407159 0.001192258073941753
напряжение 3.9219733362813143 0.0046671638273875216
размещаться 3.228826155721369 0.0012807719776760686
специально 1.6193882432872684 0.0012847189554044177
схема 2.41789593950504 0.003836407678706926
сквозной 3.9219733362813143 0.0015557212757958407
довольно 1.4370666864933137 0.0011400767048737118
платформа 0.48798613179616795 0.00019356847750740498
планировать 2.41789593950504 0.0009591019196767315
выровнять 4.61512051684126 0.005492011721746838
хотеться 2.5356789751614235 0.0010058226795562966
контур 3.9219733362813143 0.0015557212757958407
хабра 0.009950330853168092 1.5787910913396416e-05
вскрыть 4.61512051684126 0.0018306705739156127
микроконтроллер 3.005682604407159 0.0035767742218252587
подобный 2.130213867053259 0.0016899753011132557
работать 0.1264841471091197 0.0002508610613032917
остаться 3.5165082281731497 0.001394886246796172
такой 0.4407332469456224 0.0005244743121129977
количество 0.009950330853168092 7.893955456698208e-06
наложение 3.228826155721369 0.0012807719776760686
получить 0.8309308829229982 0.0009888110467151903
запас 3.005682604407159 0.001192258073941753
база 0.4254657748148339 0.00016876865323872824
носить 2.41789593950504 0.003836407678706926
частота 2.6692103677859462 0.0021175806170455743
делать 0.5546775062948401 0.0008800912436252918
крокодил 4.61512051684126 0.0036613411478312254
засохнуть 4.61512051684126 0.0018306705739156127
протестировать 3.228826155721369 0.0012807719776760686
снятой 4.61512051684126 0.0018306705739156127
плата 0.2843871765549284 0.003384218681732587
протягивание 4.61512051684126 0.0018306705739156127
монетка 4.61512051684126 0.0018306705739156127
время 0.009950330853168092 5.131071046853835e-05
конденсатор 4.61512051684126 0.007322682295662451
вопрос 0.7864791203521645 0.00031197109097666183
полезно 2.217225244042889 0.0017590045569558818
выдержка 4.61512051684126 0.0018306705739156127
исходный 2.217225244042889 0.0017590045569558818
результат 0.7233002187306328 0.0011476401725198457
февраль 0.5546775062948401 0.0019802052981569064
практический 0.6261364702769852 0.0002483682944375189
мой 0.663876798259832 0.0005266773488772963
создать 1.5240780634829436 0.0012091059607163377
угол 2.5356789751614235 0.0010058226795562966
уменьшить 3.005682604407159 0.001192258073941753
поведение 2.8233610476132043 0.0011199369486764
последний 2.41789593950504 0.0009591019196767315
невероятно 4.61512051684126 0.0036613411478312254
образовать 3.9219733362813143 0.0031114425515916815
отладочный 4.61512051684126 0.0018306705739156127
шесть 3.228826155721369 0.002561543955352137
подключение 2.312535423847214 0.0018346175516439618
массив 1.5705980791178364 0.0006230059814033464
сутки 0.020000666706669435 1.5867248478119345e-05
выталкивать 4.61512051684126 0.0018306705739156127
заключаться 1.9070703157390494 0.002269421240466937
обеспечивать 1.9760631872260008 0.000783841010403015
опорный 4.61512051684126 0.0018306705739156127
свой 0.6448286032891376 0.0002557828652475754
проверка 1.1811333123561132 0.000468517775627177
отскочить 4.61512051684126 0.0036613411478312254
напряг 4.61512051684126 0.0018306705739156127
стремиться 3.9219733362813143 0.0015557212757958407
недавно 2.8233610476132043 0.0022398738973528
брать 0.7864791203521645 0.0009359132729299855
нанести 3.5165082281731497 0.001394886246796172
незаполненный 4.61512051684126 0.0018306705739156127
достаточно 0.9775343571148737 0.001551026350043433
мочь 0.1264841471091197 0.0002006888490426334
проблема 0.6448286032891376 0.0010231314609903015
значение 1.0316015783851493 0.00040920332343718737
систематический 4.61512051684126 0.0018306705739156127
заканчиваться 3.9219733362813143 0.0015557212757958407
дойти 3.9219733362813143 0.0015557212757958407
обычно 1.0597724553518457 0.0016815112341957092
профессия 0.6448286032891376 0.0002557828652475754
представить 2.217225244042889 0.0008795022784779409
наш 0.663876798259832 0.0010533546977545927
подсоединиться 4.61512051684126 0.005492011721746838
карма 0.009950330853168092 3.946977728349104e-06
наём 0.6448286032891376 0.0002557828652475754
стереть 4.61512051684126 0.0018306705739156127
поддержка 0.009950330853168092 7.893955456698208e-06
стол 1.0597724553518457 0.0008407556170978546
инженер 0.5720692490067093 0.00045384311702237947
построение 0.5720692490067093 0.00022692155851118973
плёнка 3.5165082281731497 0.002789772493592344
покопаться 4.61512051684126 0.0018306705739156127
важный 2.41789593950504 0.0009591019196767315
толщина 4.61512051684126 0.007322682295662451
припаять 4.61512051684126 0.0018306705739156127
перебой 3.5165082281731497 0.001394886246796172
пенс 2.8233610476132043 0.0033598108460292
попробовать 1.7247487589450947 0.002736610486227838
проектирование 3.228826155721369 0.0012807719776760686
примерно 1.9760631872260008 0.0047030460624180905
установленный 3.5165082281731497 0.001394886246796172
контакт 2.41789593950504 0.001918203839353463
форма 0.3524406397999441 0.0001398019197937105
соединение 2.312535423847214 0.004586543879109904
производство 3.9219733362813143 0.0031114425515916815
вставлять 3.5165082281731497 0.001394886246796172
сетка 3.5165082281731497 0.001394886246796172
москва 0.6261364702769852 0.0007451048833125567
штифт 4.61512051684126 0.0036613411478312254
мешать 3.9219733362813143 0.0015557212757958407
яндекс 0.009950330853168092 7.893955456698208e-06
частый 1.7819071727850435 0.0007068255346231826
облачный 0.6077873316087886 0.0004821795570081623
карьера 0.6077873316087886 0.00024108977850408116
ранний 2.130213867053259 0.0008449876505566278
стоить 3.228826155721369 0.002561543955352137
установить 1.8425317946014783 0.0014617467628730491
нравиться 2.6692103677859462 0.0010587903085227872
переходный 4.61512051684126 0.0018306705739156127
предполагать 3.5165082281731497 0.002789772493592344
потребление 2.41789593950504 0.0009591019196767315
приступить 2.8233610476132043 0.0022398738973528
оплавление 4.61512051684126 0.0036613411478312254
дизайн 1.7819071727850435 0.002120476603869548
рассчитать 3.5165082281731497 0.002789772493592344
механизм 1.7247487589450947 0.0006841526215569595
привыкнуть 3.5165082281731497 0.001394886246796172
постоянно 1.7247487589450947 0.001368305243113919
усложнять 3.9219733362813143 0.0015557212757958407
плотность 4.61512051684126 0.0018306705739156127
знать 0.3110554236370897 0.00037015718798543004
воспользоваться 2.0501711593797225 0.0008132372706781922
честно 2.6692103677859462 0.0010587903085227872
часть 0.8539204011476971 0.0013548915527928553
равный 3.005682604407159 0.002384516147883506
отрезание 4.61512051684126 0.0018306705739156127
другой 0.7233002187306328 0.0008607301293898843
переделывать 3.228826155721369 0.002561543955352137
цикл 1.6193882432872684 0.0012847189554044177
часто 1.149384614041533 0.0009118481666335049
снизить 2.5356789751614235 0.0030174680386688894
уровень 1.9760631872260008 0.00313536404161206
поиск 0.009950330853168092 7.893955456698208e-06
алгоритм 0.5546775062948401 0.00022002281090632294
только 0.10426101032440946 8.271401057073341e-05
значить 3.9219733362813143 0.0015557212757958407
сверло 4.61512051684126 0.0018306705739156127
обычный 2.0501711593797225 0.0008132372706781922
пока 0.6261364702769852 0.0004967365888750378
превышать 3.9219733362813143 0.0015557212757958407
целое 1.5240780634829436 0.0006045529803581688
дорожка 4.61512051684126 0.0018306705739156127
земля 3.9219733362813143 0.0015557212757958407
крошечный 4.61512051684126 0.007322682295662451
слишком 1.7247487589450947 0.005473220972455676
вдохновить 2.41789593950504 0.0009591019196767315
администратор 0.5375830729355401 0.0002132419964044189
падать 3.228826155721369 0.0012807719776760686
компетенция 0.6448286032891376 0.0002557828652475754
клемма 4.61512051684126 0.009153352869578062
вправо 0.6448286032891376 0.0002557828652475754
ставить 0.9015484501369516 0.0003576154106056928
жизнь 1.4796263009121098 0.0005869203890964339
подсветка 3.9219733362813143 0.0015557212757958407
голосование 0.009950330853168092 7.893955456698208e-06
смочь 2.8233610476132043 0.0011199369486764
публикация 0.020000666706669435 2.380087271717902e-05
итог 1.1811333123561132 0.0014055533268815309
качественный 0.5546775062948401 0.00022002281090632294
тонкий 3.228826155721369 0.002561543955352137
дть 0.4562374334815876 0.00018097478519698038
тренировка 0.6448286032891376 0.0002557828652475754
неточный 4.61512051684126 0.0018306705739156127
вырезать 4.61512051684126 0.0018306705739156127
уложиться 4.61512051684126 0.0036613411478312254
использование 0.9015484501369516 0.0007152308212113856
пластиковый 4.61512051684126 0.0036613411478312254
технический 0.009950330853168092 3.946977728349104e-06
код 0.6077873316087886 0.0007232693355122435
абсолютно 2.130213867053259 0.0033799506022265113
суммарно 3.9219733362813143 0.0031114425515916815
добраться 3.9219733362813143 0.0015557212757958407
нажать 2.130213867053259 0.0016899753011132557
помочь 1.9760631872260008 0.00156768202080603
присутствовать 3.9219733362813143 0.0015557212757958407
зрение 1.4370666864933137 0.0005700383524368559
апрель 0.6261364702769852 0.0002483682944375189
войти 0.009950330853168092 3.946977728349104e-06
начинаться 2.5356789751614235 0.0010058226795562966
шаг 1.1811333123561132 0.001874071102508708
нулевой 4.61512051684126 0.0018306705739156127
нужно 0.14921239818667575 0.000295938909533272
подумать 3.5165082281731497 0.001394886246796172
перепрограммировать 4.61512051684126 0.0018306705739156127
удача 4.61512051684126 0.0018306705739156127
запуск 0.297632403304949 0.0002361224936969052
крепить 2.6692103677859462 0.0010587903085227872
принцип 0.3810140122440001 0.0001511360619769933
будущее 0.5720692490067093 0.00022692155851118973
сместить 4.61512051684126 0.0036613411478312254
дешёвый 4.61512051684126 0.007322682295662451
ширина 4.61512051684126 0.0018306705739156127
заполнение 2.8233610476132043 0.0011199369486764
удалить 1.9760631872260008 0.000783841010403015
грань 0.20840126957700633 8.26661124859208e-05
разработка 1.7819071727850435 0.0028273021384927306
слой 2.41789593950504 0.0009591019196767315
два 0.4562374334815876 0.0009048739259849019
задача 1.004202604197035 0.00039833502744824874
подпрыгнуть 4.61512051684126 0.0018306705739156127
сторона 0.7864791203521645 0.0009359132729299855
обучение 0.5207759546191588 0.00041315030116553656
параллельно 2.5356789751614235 0.0040232907182251865
сравнимый 2.5356789751614235 0.0010058226795562966
индустрия 0.5720692490067093 0.00022692155851118973
зажим 4.61512051684126 0.0036613411478312254
фотография 3.9219733362813143 0.0015557212757958407
настройка 0.009950330853168092 3.946977728349104e-06
можно 0.05077232537342314 0.00020139756197311835
сборщик 0.6077873316087886 0.0004821795570081623
электроника 3.5165082281731497 0.008369317480777032
давление 3.228826155721369 0.0012807719776760686
способный 2.6692103677859462 0.0010587903085227872
немного 1.3962446919730587 0.0011076911479357863
различаться 4.61512051684126 0.0018306705739156127
изготовление 3.5165082281731497 0.001394886246796172
посередине 4.61512051684126 0.0036613411478312254
физически 2.0501711593797225 0.0016264745413563843
разрыв 4.61512051684126 0.0018306705739156127
процесс 0.5207759546191588 0.0016526012046621462
поломать 4.61512051684126 0.0036613411478312254
сброс 3.228826155721369 0.002561543955352137
дело 1.5705980791178364 0.0018690179442100393
порядок 1.9760631872260008 0.000783841010403015
длинный 4.61512051684126 0.0018306705739156127
соленоидный 4.61512051684126 0.0036613411478312254
нормально 2.41789593950504 0.001918203839353463
уместить 3.9219733362813143 0.0031114425515916815
скрываться 3.9219733362813143 0.0015557212757958407
мешаться 3.9219733362813143 0.0015557212757958407
скомбинировать 4.61512051684126 0.007322682295662451
тщательно 2.6692103677859462 0.0021175806170455743
сложный 1.8425317946014783 0.0007308733814365246
завершить 3.5165082281731497 0.001394886246796172
странный 3.5165082281731497 0.001394886246796172
питание 2.312535423847214 0.0018346175516439618
кривой 3.228826155721369 0.0012807719776760686
цилиндрический 4.61512051684126 0.0018306705739156127
фотогалерея 4.61512051684126 0.0018306705739156127
сложно 0.1153108465109944 0.00018296048633239888
связать 2.6692103677859462 0.0010587903085227872
профиль 2.41789593950504 0.001918203839353463
расположить 3.228826155721369 0.0038423159330282057
отключение 4.61512051684126 0.0018306705739156127
интеллект 0.5207759546191588 0.00020657515058276828
аксессуар 4.61512051684126 0.0036613411478312254
размещать 3.228826155721369 0.002561543955352137
предстоять 3.228826155721369 0.0012807719776760686
особо 1.6193882432872684 0.0012847189554044177
хороший 0.020000666706669435 7.933624239059673e-06
положительный 3.9219733362813143 0.0015557212757958407
изготавливаться 4.61512051684126 0.0018306705739156127
уверенный 1.9760631872260008 0.000783841010403015
любопытно 4.61512051684126 0.0036613411478312254
высокий 2.312535423847214 0.0009173087758219809
разлетаться 4.61512051684126 0.0036613411478312254
автор 0.9775343571148737 0.0007755131750217165
четверг 0.6448286032891376 0.0002557828652475754
обзор 1.2478246868547855 0.000494972109026095
ещё 1.0597724553518457 0.002522266851293564
глубокий 2.41789593950504 0.001918203839353463
легко 1.149384614041533 0.0018236963332670098
отладка 3.228826155721369 0.0012807719776760686
глухой 4.61512051684126 0.005492011721746838
полностью 1.5705980791178364 0.0012460119628066929
состояние 1.4796263009121098 0.0005869203890964339
думать 2.312535423847214 0.0009173087758219809
отрывание 4.61512051684126 0.0018306705739156127
сопеть 4.61512051684126 0.0018306705739156127
искусственный 0.5207759546191588 0.00020657515058276828
использоваться 1.2829160066660557 0.000508891712283243
точный 1.7247487589450947 0.001368305243113919
никто 2.217225244042889 0.0017590045569558818
она 0.1843037179979458 7.310738516380237e-05
рядом 3.5165082281731497 0.002789772493592344
батарейка 3.5165082281731497 0.002789772493592344
сложность 3.228826155721369 0.0012807719776760686
вспышка 4.61512051684126 0.0018306705739156127
открыть 3.005682604407159 0.002384516147883506
попытаться 2.217225244042889 0.0017590045569558818
настолько 2.8233610476132043 0.0022398738973528
отсутствие 3.228826155721369 0.0012807719776760686
напоминать 3.5165082281731497 0.001394886246796172
это 0.009950330853168092 8.68335100236803e-05
тег 0.009950330853168092 3.946977728349104e-06
захотеть 2.6692103677859462 0.0021175806170455743
момент 0.663876798259832 0.00026333867443864816
вполне 1.7819071727850435 0.004240953207739096
прошивка 3.9219733362813143 0.0031114425515916815
несколько 0.3956128116651528 0.002040050198987301
точно 0.663876798259832 0.0010533546977545927
логика 3.005682604407159 0.001192258073941753
быть 0.17246926035094298 0.0002736521385972915
серьга 4.61512051684126 0.0036613411478312254
детектор 4.61512051684126 0.007322682295662451
впечатлить 3.5165082281731497 0.001394886246796172
стать 0.22067136216882066 0.00017506653087570064
смысл 1.9760631872260008 0.000783841010403015
далёкий 1.3192836508369303 0.0005233175925572909
недостаточно 2.6692103677859462 0.0021175806170455743
заметить 2.6692103677859462 0.0010587903085227872
нижний 3.5165082281731497 0.001394886246796172
число 0.5720692490067093 0.00022692155851118973
менять 1.7247487589450947 0.001368305243113919
разработчик 0.3246610756928683 0.0001287826559670243
выполнить 1.7247487589450947 0.0006841526215569595
палец 4.61512051684126 0.0018306705739156127
рейтинг 0.009950330853168092 3.946977728349104e-06
позволять 4.61512051684126 0.0018306705739156127
влево 0.6261364702769852 0.0002483682944375189
плат 0.2843871765549284 0.0009024583151286899
срок 2.217225244042889 0.0017590045569558818
снимок 3.5165082281731497 0.004184658740388516
поддержать 2.5356789751614235 0.0020116453591125932
сам 0.19627990904466155 7.785795678090502e-05
прочитать 2.6692103677859462 0.0010587903085227872
головка 3.9219733362813143 0.0031114425515916815
предыдущий 2.6692103677859462 0.0010587903085227872
трястись 4.61512051684126 0.0018306705739156127
переводчик 2.5356789751614235 0.0010058226795562966
оригинал 1.5240780634829436 0.0006045529803581688
мелкий 3.9219733362813143 0.0031114425515916815
весь 1.4796263009121098 0.0005869203890964339
лихой 0.6448286032891376 0.0002557828652475754
приемлемый 4.61512051684126 0.0018306705739156127
перенестись 4.61512051684126 0.0018306705739156127
ценообразование 3.9219733362813143 0.0015557212757958407
симметричность 4.61512051684126 0.0018306705739156127
иногда 1.5705980791178364 0.0006230059814033464
страх 2.41789593950504 0.0009591019196767315
смонтировать 4.61512051684126 0.0036613411478312254
разработать 2.5356789751614235 0.0010058226795562966
сборка 1.7819071727850435 0.0007068255346231826
замечательный 2.8233610476132043 0.0011199369486764
понимание 1.5705980791178364 0.0006230059814033464
смертный 3.228826155721369 0.0012807719776760686
близкий 0.6448286032891376 0.0002557828652475754
месяц 1.4796263009121098 0.0005869203890964339
они 0.061243625240718594 0.00017005369959739394
обновить 0.009950330853168092 3.946977728349104e-06
данные 0.10426101032440946 4.1357005285366705e-05
статья 0.7439195059333684 0.0002950890543170839
подозревать 4.61512051684126 0.0018306705739156127
риск 1.4370666864933137 0.0011400767048737118
многие 1.9070703157390494 0.0015129474936446247
прийтись 2.5356789751614235 0.0020116453591125932
тип 0.9015484501369516 0.0003576154106056928
стоимость 2.6692103677859462 0.0021175806170455743
выравнивание 4.61512051684126 0.0018306705739156127
кнопка 1.6193882432872684 0.0006423594777022089
круглый 4.61512051684126 0.0036613411478312254
справиться 3.228826155721369 0.0012807719776760686
встреча 0.5042466526679482 0.00020001850561997153
сервер 0.36662527479190044 0.0002908570208583105
прикоснуться 4.61512051684126 0.0018306705739156127
идеал 2.312535423847214 0.0009173087758219809
машинный 3.005682604407159 0.001192258073941753
главный 2.41789593950504 0.0009591019196767315
объяснение 3.5165082281731497 0.002789772493592344
содержать 1.7247487589450947 0.0006841526215569595
верхний 3.5165082281731497 0.001394886246796172
начало 0.4719857904497268 0.00018722165428390592
камушек 4.61512051684126 0.0018306705739156127
изначально 1.6193882432872684 0.0019270784331066263
сначала 2.217225244042889 0.0017590045569558818
март 0.5207759546191588 0.0006197254517483048
система 0.9262410627273231 0.0003674101795824368
что 0.009950330853168092 8.68335100236803e-05
коснуться 4.61512051684126 0.0018306705739156127
конкурс 0.6448286032891376 0.0002557828652475754
конечный 2.312535423847214 0.002751926327465943
защитный 3.9219733362813143 0.0015557212757958407
заменить 2.0501711593797225 0.0016264745413563843
скриншот 2.41789593950504 0.0009591019196767315
операционный 0.5897688261061103 0.00023394241416347094
некоторый 2.5356789751614235 0.0010058226795562966
вскоре 3.5165082281731497 0.002789772493592344
безвкусный 4.61512051684126 0.0018306705739156127
прочтение 0.009950330853168092 7.893955456698208e-06
катастрофа 3.9219733362813143 0.0015557212757958407
немедленно 3.5165082281731497 0.002789772493592344
очень 0.7864791203521645 0.006863364001486561
запросто 4.61512051684126 0.0036613411478312254
жёсткий 4.61512051684126 0.0036613411478312254
случай 0.5546775062948401 0.0006600684327189688
настоящий 3.005682604407159 0.001192258073941753
погрешность 4.61512051684126 0.0036613411478312254
остаток 2.6692103677859462 0.0010587903085227872
самодельный 4.61512051684126 0.0018306705739156127
назад 0.13778370236305296 0.00010930876823724947
