выяснить 2.6692103677859462 0.002913985117670247
компания 0.48798613179616795 0.002663679758712707
популярный 2.0501711593797225 0.0022381781215935832
бренд 2.312535423847214 0.015147611946597469
нагрузка 3.005682604407159 0.003281312886907379
дизайн 1.7819071727850435 0.0058359405222217576
китай 2.312535423847214 0.0025246019910995783
элемент 1.8425317946014783 0.006034492777079077
ток 0.7439195059333684 0.0032485567944688576
покупать 2.6692103677859462 0.002913985117670247
начать 1.670681537674819 0.0018238881415663963
похожий 0.020000666706669435 6.550436694324051e-05
отличаться 2.5356789751614235 0.005536416976334986
удаться 2.41789593950504 0.002639624388105939
небольшой 1.7819071727850435 0.0019453135074072527
надежина 3.9219733362813143 0.004281630279783094
собственный 2.312535423847214 0.0025246019910995783
просмотр 0.009950330853168092 1.0862806608262108e-05
этот 0.19627990904466155 0.0010713968834315587
плохой 2.130213867053259 0.004651121980465631
получиться 3.228826155721369 0.0035249193839752935
режим 1.5240780634829436 0.0016638406806582353
плюшевый 3.9219733362813143 0.017126521119132376
указать 1.0316015783851493 0.0011262025964903376
купить 2.0501711593797225 0.0044763562431871665
идея 2.41789593950504 0.002639624388105939
запрос 1.0316015783851493 0.002252405192980675
один 0.3524406397999441 0.0003847605237990656
химический 3.005682604407159 0.003281312886907379
выпуск 2.5356789751614235 0.005536416976334986
вывод 0.9775343571148737 0.0010671772457585956
отсортировать 3.9219733362813143 0.004281630279783094
производство 2.312535423847214 0.0025246019910995783
дата 2.130213867053259 0.006976682970698446
дзен 0.009950330853168092 1.0862806608262108e-05
батарейка 3.5165082281731497 0.061423724509574666
задонатить 2.5356789751614235 0.002768208488167493
заказ 1.8425317946014783 0.0040229951847193844
анализатор 2.8233610476132043 0.003082271886040616
протестировать 3.005682604407159 0.006562625773814758
проект 0.6261364702769852 0.002050665295666982
говорить 1.2829160066660557 0.0014005633260546458
разряд 3.005682604407159 0.03937575464288855
тёмный 3.5165082281731497 0.007677965563696833
ранее 1.1186129553747792 0.002442386365447116
язык 0.009950330853168092 2.1725613216524216e-05
блог 0.6448286032891376 0.0014079227146051039
стесняться 2.5356789751614235 0.002768208488167493
мочь 0.297632403304949 0.0006498524089627707
получить 0.7030975114131134 0.0015351474048321252
частично 3.005682604407159 0.006562625773814758
вообще 1.670681537674819 0.0036477762831327925
ничто 2.41789593950504 0.002639624388105939
маленький 3.005682604407159 0.006562625773814758
мой 0.6261364702769852 0.0006835550985556606
оптимальный 3.9219733362813143 0.004281630279783094
столбик 3.9219733362813143 0.008563260559566188
хороший 0.020000666706669435 8.733915592432067e-05
добавлять 1.9760631872260008 0.002157274221862446
результат 0.8084580270709397 0.003530384397689693
важный 2.41789593950504 0.005279248776211878
практически 1.149384614041533 0.0025095733931037837
дорогой 2.8233610476132043 0.006164543772081232
сеть 1.4370666864933137 0.0015688500944250148
называться 3.5165082281731497 0.01151694834554525
другой 0.5546775062948401 0.003027715645714193
минпромторг 3.9219733362813143 0.004281630279783094
завод 2.6692103677859462 0.02039789582369173
тест 0.951558870711613 0.008310557822808847
показать 1.6193882432872684 0.0017678910952917777
розовый 3.9219733362813143 0.004281630279783094
высказываться 3.5165082281731497 0.0038389827818484166
хотеть 1.3570239788197773 0.001481467225785783
просьба 3.9219733362813143 0.004281630279783094
понятно 1.9070703157390494 0.004163908986329802
второй 1.5240780634829436 0.0016638406806582353
руководство 1.7819071727850435 0.0019453135074072527
ответ 0.4719857904497268 0.0015458049905558739
экземпляр 3.5165082281731497 0.007677965563696833
я 0.009950330853168092 5.431403304131054e-05
час 0.030153038170687457 3.291816394179853e-05
тестирование 1.670681537674819 0.005471664424699188
алексей 2.6692103677859462 0.002913985117670247
эмуляция 3.5165082281731497 0.007677965563696833
представительство 3.5165082281731497 0.0038389827818484166
хабра 0.009950330853168092 3.2588419824786325e-05
полный 1.6193882432872684 0.0017678910952917777
зелёный 3.9219733362813143 0.008563260559566188
производить 1.149384614041533 0.0012547866965518918
количество 0.009950330853168092 1.0862806608262108e-05
синий 3.5165082281731497 0.007677965563696833
делать 0.5546775062948401 0.001211086258285677
время 0.009950330853168092 1.0862806608262108e-05
грейд 3.5165082281731497 0.0038389827818484166
создать 0.6077873316087886 0.0006635232877825203
российский 2.41789593950504 0.010558497552423756
сутки 0.020000666706669435 4.3669577962160334e-05
упаковка 3.9219733362813143 0.008563260559566188
яростанмаш 3.9219733362813143 0.004281630279783094
заяц 3.9219733362813143 0.008563260559566188
спросить 2.8233610476132043 0.003082271886040616
промежуточный 3.9219733362813143 0.004281630279783094
сравнение 3.228826155721369 0.007049838767950587
покупка 2.130213867053259 0.0023255609902328154
обычно 1.0597724553518457 0.004627827315946924
сравнить 3.228826155721369 0.01057475815192588
устройство 2.130213867053259 0.0023255609902328154
карма 0.009950330853168092 1.0862806608262108e-05
заявлять 3.228826155721369 0.0035249193839752935
дать 0.36662527479190044 0.0012007377995367917
самый 1.4370666864933137 0.0015688500944250148
поддержка 0.009950330853168092 2.1725613216524216e-05
наверняка 3.228826155721369 0.007049838767950587
долгий 2.6692103677859462 0.002913985117670247
светло 3.5165082281731497 0.015355931127393667
попасться 3.9219733362813143 0.004281630279783094
источник 1.5240780634829436 0.0016638406806582353
отношение 2.6692103677859462 0.011655940470680987
год 0.3110554236370897 0.0003395801568090499
сайт 0.36662527479190044 0.0012007377995367917
медтехника 3.9219733362813143 0.008563260559566188
вид 0.22067136216882066 0.00024090760062098324
диаграмма 3.9219733362813143 0.004281630279783094
мвтч 3.9219733362813143 0.004281630279783094
ранний 2.130213867053259 0.0023255609902328154
тестировать 2.8233610476132043 0.003082271886040616
энергия 2.6692103677859462 0.014569925588351233
писать 0.7864791203521645 0.0008586016597731053
означать 1.2829160066660557 0.0028011266521092916
часть 0.8539204011476971 0.0037289100486798997
такой 0.6077873316087886 0.0026540931511300813
поиск 0.009950330853168092 1.0862806608262108e-05
смена 2.6692103677859462 0.002913985117670247
партия 3.9219733362813143 0.004281630279783094
отправить 2.6692103677859462 0.002913985117670247
ёмкость 3.005682604407159 0.006562625773814758
перевод 1.3962446919730587 0.0015242845982238631
сравнимый 3.9219733362813143 0.004281630279783094
разряжаться 3.9219733362813143 0.004281630279783094
тонометр 3.9219733362813143 0.004281630279783094
являться 1.2478246868547855 0.0013622540249506392
вернуться 2.5356789751614235 0.002768208488167493
копировать 3.005682604407159 0.003281312886907379
вдохновить 2.41789593950504 0.002639624388105939
лето 2.6692103677859462 0.002913985117670247
мощный 2.41789593950504 0.002639624388105939
лента 3.9219733362813143 0.004281630279783094
голосование 0.009950330853168092 2.1725613216524216e-05
одинаковый 3.5165082281731497 0.0038389827818484166
ом 0.009950330853168092 4.345122643304843e-05
публикация 0.020000666706669435 6.550436694324051e-05
встретить 3.9219733362813143 0.008563260559566188
правда 2.312535423847214 0.0025246019910995783
технический 0.009950330853168092 1.0862806608262108e-05
характеристика 2.41789593950504 0.002639624388105939
нажать 2.130213867053259 0.004651121980465631
иметь 1.213923135179104 0.006626217986785502
сопротивление 3.228826155721369 0.01057475815192588
войти 0.009950330853168092 1.0862806608262108e-05
тот 0.009950330853168092 2.1725613216524216e-05
россия 1.8425317946014783 0.010057487961798462
эксперт 1.3570239788197773 0.001481467225785783
товарищ 3.228826155721369 0.007049838767950587
производитель 1.4796263009121098 0.0032306251111618115
действительность 3.5165082281731497 0.0038389827818484166
работать 0.8309308829229982 0.0009071297848504347
настройка 0.009950330853168092 1.0862806608262108e-05
оказаться 1.670681537674819 0.0018238881415663963
рекомендовать 3.228826155721369 0.007049838767950587
считаться 2.6692103677859462 0.002913985117670247
какой 0.9015484501369516 0.0009842231988394668
больший 2.0501711593797225 0.0022381781215935832
который 0.1153108465109944 0.00037765561084386807
яндекс 0.009950330853168092 1.0862806608262108e-05
мотор 3.228826155721369 0.0035249193839752935
питание 2.312535423847214 0.0075738059732987344
дело 0.36662527479190044 0.0004002459331789306
ещё 1.0597724553518457 0.004627827315946924
новость 3.228826155721369 0.007049838767950587
подобрать 3.9219733362813143 0.008563260559566188
неразбериха 3.9219733362813143 0.008563260559566188
тег 0.009950330853168092 1.0862806608262108e-05
дешёвый 2.6692103677859462 0.005827970235340494
добавить 0.009950330853168092 1.0862806608262108e-05
продажа 2.6692103677859462 0.005827970235340494
вполне 1.7819071727850435 0.0038906270148145053
приходить 3.005682604407159 0.003281312886907379
точно 0.663876798259832 0.0014495126599559651
несколько 0.48798613179616795 0.0010654719034850829
должный 1.4796263009121098 0.0016153125555809058
американский 3.9219733362813143 0.004281630279783094
число 0.5720692490067093 0.0006245297478239184
рейтинг 0.009950330853168092 1.0862806608262108e-05
поддержать 2.5356789751614235 0.005536416976334986
уйти 3.228826155721369 0.0035249193839752935
принадлежать 3.005682604407159 0.003281312886907379
лампа 2.8233610476132043 0.006164543772081232
помощь 0.5897688261061103 0.0006438524302468452
автор 1.2478246868547855 0.0013622540249506392
уровень 0.13778370236305296 0.00015041888904263422
обновить 0.009950330853168092 1.0862806608262108e-05
множество 1.2478246868547855 0.0013622540249506392
многие 1.9070703157390494 0.004163908986329802
тип 0.9015484501369516 0.0009842231988394668
фотон 3.9219733362813143 0.004281630279783094
кнопка 1.6193882432872684 0.0017678910952917777
развеять 3.9219733362813143 0.008563260559566188
найти 1.0597724553518457 0.004627827315946924
ашан 3.9219733362813143 0.004281630279783094
слух 3.9219733362813143 0.004281630279783094
работа 0.061243625240718594 6.685985288288056e-05
отечественный 3.228826155721369 0.0035249193839752935
расследование 2.6692103677859462 0.002913985117670247
прочтение 0.009950330853168092 2.1725613216524216e-05
медведь 3.9219733362813143 0.017126521119132376
следующий 1.670681537674819 0.0018238881415663963
магазин 2.217225244042889 0.002420551576466036
сразу 0.8539204011476971 0.0018644550243399499
эквивалент 3.5165082281731497 0.01151694834554525
соответствовать 2.217225244042889 0.002420551576466036
энергопотребление 3.005682604407159 0.003281312886907379
гораздо 2.217225244042889 0.004841103152932072
назад 0.13778370236305296 0.00030083777808526845
