подобный 3.005682604407159 0.0016642760821745067
самый 1.0887599922250981 0.0015071428463802577
вы 0.009950330853168092 4.683156824580774e-05
работа 0.0404095383378767 0.0001230633781053831
политический 4.61512051684126 0.0012777188584831836
команда 0.9262410627273231 0.0010257376109937132
половина 2.8233610476132043 0.0015633228392099691
похожий 0.020000666706669435 1.661184942414405e-05
сервер 0.36662527479190044 0.00020300402812397587
предел 0.41042789745029334 0.0001136289860050646
проезд 4.61512051684126 0.002555437716966367
получение 1.3962446919730587 0.002705900565839261
детально 2.41789593950504 0.0013388128125720045
уточнять 3.228826155721369 0.000893916432923967
общий 1.5240780634829436 0.002531691135353727
рабочий 1.6193882432872684 0.0008966712310560733
неизвестный 3.9219733362813143 0.0010858176457035752
разброс 2.8233610476132043 0.0015633228392099691
поехать 4.61512051684126 0.0012777188584831836
внимание 1.1186129553747792 0.0018581610554398327
высокоуровневый 4.61512051684126 0.002555437716966367
приложиться 4.61512051684126 0.0012777188584831836
развитие 0.5546775062948401 0.00015356520107830568
бельгия 4.61512051684126 0.0012777188584831836
задумать 4.61512051684126 0.0012777188584831836
здесь 0.8084580270709397 0.002014430300010647
переезд 3.9219733362813143 0.010858176457035755
навык 0.36662527479190044 0.00010150201406198793
причина 1.9070703157390494 0.0021119272599546502
образование 2.6692103677859462 0.00221695213271258
шаблон 0.4719857904497268 0.0001306715920403452
затем 0.9015484501369516 0.0024959813126715163
сотрудник 1.8425317946014783 0.0010202280147295006
столбцы 3.228826155721369 0.000893916432923967
конференция 0.6077873316087886 0.0010096135076557951
положение 1.7819071727850435 0.0004933297820556598
калибровка 3.9219733362813143 0.004343270582814301
мать 0.36662527479190044 0.00020300402812397587
нанимать 4.61512051684126 0.006388594292415919
страна 0.5375830729355401 0.0010418276607277908
чистый 3.005682604407159 0.0008321380410872533
университет 3.005682604407159 0.0016642760821745067
помогать 1.7247487589450947 0.0004775051935063939
сотня 3.5165082281731497 0.0009735626323845929
директор 0.4254657748148339 0.00011779229646036374
двадцать 3.005682604407159 0.0008321380410872533
вещь 3.228826155721369 0.002681749298771901
буквальный 4.61512051684126 0.0012777188584831836
случай 0.5207759546191588 0.0004325381682883379
голландский 4.61512051684126 0.002555437716966367
наш 0.663876798259832 0.0007351902527794374
несущественный 4.61512051684126 0.0012777188584831836
казаться 1.3192836508369303 0.001461000720749646
получиться 1.9070703157390494 0.0010559636299773251
смещаться 3.228826155721369 0.000893916432923967
вообще 1.5705980791178364 0.0039134503632504225
нейросеть 2.312535423847214 0.000640236828307645
пройти 1.213923135179104 0.0010082418066271628
почему 1.5705980791178364 0.003478622545111487
публикация 0.020000666706669435 2.768641570690675e-05
раз 0.009950330853168092 5.509596264212675e-06
ваш 0.6832948841169337 0.0011350413357424148
промышленный 4.61512051684126 0.005110875433932734
спрашивать 3.9219733362813143 0.005429088228517878
собеседование 3.9219733362813143 0.010858176457035755
попытаться 2.312535423847214 0.001920710484922935
анкета 3.9219733362813143 0.0010858176457035752
практически 1.149384614041533 0.000636425589170284
настроить 2.217225244042889 0.0006138497353385628
подробный 0.5375830729355401 0.0019348227984944688
желать 3.5165082281731497 0.0009735626323845929
серия 0.5897688261061103 0.0008164020294935081
поставить 2.0501711593797225 0.0028379999437703803
использовать 0.19627990904466155 0.00010868212017976829
интервьюировать 4.61512051684126 0.0012777188584831836
страховка 3.228826155721369 0.000893916432923967
австралия 4.61512051684126 0.003833156575449551
рассказывать 3.005682604407159 0.0016642760821745067
отладка 3.228826155721369 0.000893916432923967
статья 1.670681537674819 0.0023126820842674684
поведенческий 3.9219733362813143 0.0021716352914071505
момент 0.663876798259832 0.0014703805055588748
одобрение 4.61512051684126 0.002555437716966367
провести 2.0501711593797225 0.001702799966262228
дальнейший 3.5165082281731497 0.0009735626323845929
платформа 0.48798613179616795 0.00013510136539207306
медленно 2.8233610476132043 0.0015633228392099691
накинуть 3.9219733362813143 0.0021716352914071505
департамент 3.9219733362813143 0.0010858176457035752
сайт 1.0887599922250981 0.003315714262036567
близкий 0.5720692490067093 0.00047514057226470875
весь 0.4407332469456224 0.00085413419950702
целиком 2.6692103677859462 0.0014779680884750533
полный 1.5705980791178364 0.0008696556362778717
совместно 3.005682604407159 0.0016642760821745067
практический 0.6261364702769852 0.0001733489674078032
начать 0.19627990904466155 0.00010868212017976829
рекомендация 2.6692103677859462 0.0014779680884750533
профессионал 2.312535423847214 0.000640236828307645
финансирование 3.228826155721369 0.000893916432923967
негативный 4.61512051684126 0.003833156575449551
телефон 2.41789593950504 0.0013388128125720045
выходной 2.6692103677859462 0.0007389840442375267
назвать 2.41789593950504 0.0006694064062860022
происходить 1.2478246868547855 0.00034546641385791403
продумать 4.61512051684126 0.002555437716966367
подходить 2.5356789751614235 0.0014040304402887173
оценивать 3.9219733362813143 0.0010858176457035752
профессия 0.6448286032891376 0.00017852397654738027
наём 0.6448286032891376 0.00035704795309476054
продвигаться 4.61512051684126 0.0012777188584831836
инженер 0.5720692490067093 0.0003167603815098058
ты 0.009950330853168092 5.509596264212675e-06
год 0.10426101032440946 0.00020205622155893306
жить 0.877450898557891 0.00024292660535932752
примерно 1.9760631872260008 0.007659159640410856
говориться 2.6692103677859462 0.0007389840442375267
кейс 1.8425317946014783 0.0005101140073647503
память 1.7247487589450947 0.0004775051935063939
себя 0.6261364702769852 0.0003466979348156064
сделать 0.7864791203521645 0.0017419249620202978
пара 0.6261364702769852 0.0003466979348156064
подразделение 4.61512051684126 0.0012777188584831836
качество 0.25841169015166776 0.00014308509975175402
преодолевать 4.61512051684126 0.002555437716966367
контрольный 3.5165082281731497 0.0009735626323845929
версия 1.8425317946014783 0.0010202280147295006
дизайн 1.7819071727850435 0.0029599786923339595
ожидаться 4.61512051684126 0.0012777188584831836
часть 0.7864791203521645 0.0008709624810101489
хотеть 1.3962446919730587 0.001546228894765292
система 0.6261364702769852 0.0012134427718546224
задача 0.4562374334815876 0.0005052463272221346
поиск 0.009950330853168092 1.9283586924744366e-05
экономика 3.228826155721369 0.001787832865847934
уделяться 3.228826155721369 0.000893916432923967
один 0.08252102368800344 0.00011423176036545328
известно 1.9760631872260008 0.0021883313258316732
создание 1.5240780634829436 0.00042194852255895445
заполнить 2.8233610476132043 0.0031266456784199382
целое 1.5240780634829436 0.0021097426127947728
этап 1.1811333123561132 0.0003270025781716814
перечислить 4.61512051684126 0.0012777188584831836
осмысление 3.9219733362813143 0.0010858176457035752
закопаться 4.61512051684126 0.002555437716966367
роль 0.951558870711613 0.0010537750506219414
жизнь 1.4796263009121098 0.002048209165160728
компания 0.4562374334815876 0.003031477963332808
привет 3.005682604407159 0.0016642760821745067
качественный 0.5546775062948401 0.00015356520107830568
промолчать 4.61512051684126 0.002555437716966367
жилка 4.61512051684126 0.002555437716966367
этот 0.20840126957700633 0.00017309075546262986
база 0.2456726643742379 0.0001360313756225016
свой 0.6077873316087886 0.0016826891794263252
рейтинг 0.009950330853168092 5.509596264212675e-06
показывать 3.5165082281731497 0.0019471252647691858
нажать 2.130213867053259 0.0011795204136507524
войти 0.009950330853168092 2.7547981321063377e-06
обратить 2.41789593950504 0.0013388128125720045
высокий 2.41789593950504 0.0020082192188580067
преимущественно 3.5165082281731497 0.0019471252647691858
принцип 0.3810140122440001 0.00010548560693355484
железно 4.61512051684126 0.002555437716966367
служба 4.61512051684126 0.002555437716966367
будущее 0.5720692490067093 0.0001583801907549029
пласт 3.228826155721369 0.001787832865847934
месяц 1.4796263009121098 0.0008192836660642911
лаборатория 3.5165082281731497 0.0009735626323845929
два 0.4562374334815876 0.0006315579090276684
бывать 2.312535423847214 0.000640236828307645
обучение 0.48798613179616795 0.0009457095577445115
сейчас 1.1186129553747792 0.0012387740369598883
исследовательский 3.9219733362813143 0.0032574529371107263
приходить 3.9219733362813143 0.0010858176457035752
зарубежный 3.5165082281731497 0.0009735626323845929
буква 2.8233610476132043 0.0007816614196049846
взять 2.5356789751614235 0.0021060456604330762
управление 1.6193882432872684 0.00044833561552803664
внутренний 2.6692103677859462 0.00221695213271258
помогатор 4.61512051684126 0.0012777188584831836
некий 4.61512051684126 0.002555437716966367
менеджер 1.9760631872260008 0.0021883313258316732
новый 0.5720692490067093 0.00047514057226470875
канада 4.61512051684126 0.0012777188584831836
горечь 4.61512051684126 0.002555437716966367
быть 0.1607732205877518 0.000801195451433979
отозваться 4.61512051684126 0.0012777188584831836
лестница 4.61512051684126 0.0012777188584831836
несоответствие 3.5165082281731497 0.0019471252647691858
диапазон 2.130213867053259 0.0011795204136507524
поразмышлять 4.61512051684126 0.002555437716966367
виза 3.5165082281731497 0.004867813161922965
рост 0.030153038170687457 8.3480172122612e-06
хороший 0.020000666706669435 3.8760981989669445e-05
подкрепить 4.61512051684126 0.0012777188584831836
другой 0.9015484501369516 0.0017471869188700612
знать 0.3110554236370897 0.0009472894961262422
оптимизация 2.5356789751614235 0.0014040304402887173
мой 0.5207759546191588 0.0010092557260061217
определять 2.41789593950504 0.0006694064062860022
самостоятельно 1.7247487589450947 0.0009550103870127878
работать 0.13778370236305296 0.0003433148729976402
планироваться 4.61512051684126 0.0012777188584831836
несколько 0.48798613179616795 0.0010808109231365845
информационный 3.9219733362813143 0.0010858176457035752
интернет 1.7247487589450947 0.0014325155805191816
стать 0.22067136216882066 0.00024437581635528314
школа 4.61512051684126 0.0012777188584831836
интересный 2.217225244042889 0.002455398941354251
фильтр 2.312535423847214 0.000640236828307645
торговаться 4.61512051684126 0.002555437716966367
запрос 1.0316015783851493 0.00028560398072678553
самоизоляция 4.61512051684126 0.0012777188584831836
реализовать 2.41789593950504 0.0013388128125720045
ключевой 2.8233610476132043 0.0007816614196049846
формат 1.2829160066660557 0.0031966345681047896
тратить 2.6692103677859462 0.0007389840442375267
выложить 3.9219733362813143 0.004343270582814301
лихой 0.6448286032891376 0.00017852397654738027
выдохнуть 4.61512051684126 0.0012777188584831836
любой 1.0597724553518457 0.0008802096805247888
искать 1.9070703157390494 0.0026399090749433135
технический 0.009950330853168092 1.101919252842535e-05
прошлый 2.5356789751614235 0.0007020152201443586
оффера 3.9219733362813143 0.008686541165628602
вытеснить 4.61512051684126 0.0012777188584831836
придумать 3.005682604407159 0.0016642760821745067
курс 0.3810140122440001 0.00031645682080066453
дать 0.5207759546191588 0.00014417938942944597
проводиться 3.228826155721369 0.001787832865847934
скелет 4.61512051684126 0.002555437716966367
рынок 2.217225244042889 0.0012276994706771256
смотреть 1.0887599922250981 0.0009042857078281546
улучшить 2.312535423847214 0.00128047365661529
акция 2.0501711593797225 0.000567599988754076
зарплата 3.5165082281731497 0.00973562632384593
уменьшить 3.5165082281731497 0.0009735626323845929
предложение 3.5165082281731497 0.0029206878971537787
изначально 1.6193882432872684 0.00269001369316822
узнавать 3.9219733362813143 0.0010858176457035752
присущий 4.61512051684126 0.002555437716966367
рассказать 2.41789593950504 0.0006694064062860022
компетенция 0.6448286032891376 0.00035704795309476054
формальность 3.9219733362813143 0.0021716352914071505
лист 0.951558870711613 0.00026344376265548535
слово 0.6261364702769852 0.0001733489674078032
наметить 4.61512051684126 0.002555437716966367
многий 4.61512051684126 0.0012777188584831836
привести 1.7247487589450947 0.0004775051935063939
просить 2.8233610476132043 0.0007816614196049846
приличный 3.9219733362813143 0.0010858176457035752
везде 2.6692103677859462 0.0014779680884750533
попытка 2.41789593950504 0.0020082192188580067
офис 2.6692103677859462 0.0014779680884750533
место 0.13778370236305296 0.0007629219399947561
предпринимательство 3.9219733362813143 0.0010858176457035752
стратегия 2.6692103677859462 0.0007389840442375267
важный 1.3962446919730587 0.001159671671073969
официальный 3.5165082281731497 0.0019471252647691858
решение 0.7030975114131134 0.0009732800545585735
итерация 3.9219733362813143 0.0010858176457035752
проникновение 3.9219733362813143 0.0021716352914071505
участвовать 1.9760631872260008 0.0005470828314579183
послать 2.8233610476132043 0.002344984258814954
программистский 4.61512051684126 0.002555437716966367
расти 3.005682604407159 0.0016642760821745067
первый 0.8309308829229982 0.0006901419293380384
приглашение 3.228826155721369 0.002681749298771901
удовлетворить 3.9219733362813143 0.0021716352914071505
знание 1.7247487589450947 0.0004775051935063939
заполнять 3.5165082281731497 0.0009735626323845929
алгоритмический 4.61512051684126 0.0012777188584831836
мир 0.4719857904497268 0.0005226863681613808
последний 2.312535423847214 0.000640236828307645
посмотреть 1.6193882432872684 0.00134500684658411
обоснованность 4.61512051684126 0.002555437716966367
облачный 0.6077873316087886 0.000336537835885265
нечто 3.5165082281731497 0.0019471252647691858
опять 3.228826155721369 0.003575665731695868
ресурс 1.0316015783851493 0.00028560398072678553
быстрый 2.5356789751614235 0.0028080608805774346
обрабатывать 2.0501711593797225 0.001702799966262228
язык 0.009950330853168092 2.4793183188957037e-05
либеральный 4.61512051684126 0.0012777188584831836
получить 0.7030975114131134 0.0009732800545585735
видеть 1.0887599922250981 0.0003014285692760515
программировать 3.5165082281731497 0.0009735626323845929
побудить 4.61512051684126 0.0012777188584831836
какой 0.4719857904497268 0.0005226863681613808
карьера 0.5375830729355401 0.00044649756888333895
рассчитать 3.228826155721369 0.000893916432923967
ретроспектива 3.5165082281731497 0.0009735626323845929
июнь 0.6448286032891376 0.00017852397654738027
максимально 2.130213867053259 0.0011795204136507524
поговорить 2.6692103677859462 0.00221695213271258
никак 1.4796263009121098 0.0008192836660642911
проживание 4.61512051684126 0.002555437716966367
собеседовать 3.9219733362813143 0.0010858176457035752
переобучение 4.61512051684126 0.002555437716966367
десятка 3.005682604407159 0.0008321380410872533
разобраться 2.130213867053259 0.0011795204136507524
тест 0.9775343571148737 0.0008119056122216559
грант 0.6448286032891376 0.00017852397654738027
уровень 0.1264841471091197 0.0006303196699790018
отличие 2.217225244042889 0.002455398941354251
урок 0.5546775062948401 0.0009213912064698341
второй 1.004202604197035 0.0013900921985008793
возникнуть 3.005682604407159 0.0016642760821745067
редко 2.8233610476132043 0.0031266456784199382
увидеть 1.3962446919730587 0.000386557223691323
отвечать 2.41789593950504 0.004016438437716013
должный 0.41042789745029334 0.0002272579720101292
такой 0.48798613179616795 0.0008106081923524384
следовать 1.3570239788197773 0.00037569877597446767
количество 0.009950330853168092 1.9283586924744366e-05
емейл 4.61512051684126 0.0012777188584831836
сверху 3.5165082281731497 0.0019471252647691858
флаг 2.217225244042889 0.0012276994706771256
мазка 4.61512051684126 0.0012777188584831836
делать 0.4719857904497268 0.0003920147761210356
проект 0.6261364702769852 0.0003466979348156064
возражать 4.61512051684126 0.0012777188584831836
европа 4.61512051684126 0.0012777188584831836
понятный 2.41789593950504 0.0006694064062860022
прояснить 4.61512051684126 0.002555437716966367
пример 0.25841169015166776 0.00014308509975175402
низкоуровневый 4.61512051684126 0.0012777188584831836
достаточно 0.9775343571148737 0.0016238112244433118
интеграция 1.9070703157390494 0.0005279818149886626
начало 0.36662527479190044 0.00030450604218596383
обычно 0.877450898557891 0.005101458712545878
карма 0.009950330853168092 2.7547981321063377e-06
необходимый 2.312535423847214 0.000640236828307645
деталь 2.130213867053259 0.0011795204136507524
вырождаться 4.61512051684126 0.0012777188584831836
закрытие 3.005682604407159 0.0016642760821745067
москва 0.6261364702769852 0.0005200469022234096
вид 0.22067136216882066 0.00012218790817764157
входить 4.61512051684126 0.0012777188584831836
ранний 2.130213867053259 0.0011795204136507524
компилятор 2.6692103677859462 0.0014779680884750533
тема 0.3956128116651528 0.00032858206948932955
важно 1.0316015783851493 0.0019992278650874987
ряд 0.663876798259832 0.0005513926895845781
найтись 3.5165082281731497 0.0009735626323845929
видение 3.9219733362813143 0.0021716352914071505
желание 2.6692103677859462 0.0014779680884750533
кадровый 4.61512051684126 0.0012777188584831836
пока 0.6261364702769852 0.0003466979348156064
никакой 2.6692103677859462 0.00221695213271258
вправо 0.6448286032891376 0.00017852397654738027
голосование 0.009950330853168092 5.509596264212675e-06
заявить 3.9219733362813143 0.0032574529371107263
изложить 4.61512051684126 0.002555437716966367
дть 0.4562374334815876 0.00012631158180553365
тренировка 0.6448286032891376 0.00017852397654738027
гипотетический 4.61512051684126 0.0012777188584831836
вводить 2.8233610476132043 0.0015633228392099691
помочь 1.8425317946014783 0.0030606840441885024
апрель 0.6261364702769852 0.0001733489674078032
интервьюер 4.61512051684126 0.002555437716966367
подход 0.8539204011476971 0.001418472427155643
поделиться 2.312535423847214 0.00128047365661529
поделать 4.61512051684126 0.0012777188584831836
собеседник 4.61512051684126 0.0012777188584831836
последующий 4.61512051684126 0.002555437716966367
человек 0.951558870711613 0.0010537750506219414
больший 1.5705980791178364 0.0008696556362778717
вариант 1.213923135179104 0.00033608060220905426
настройка 0.009950330853168092 2.7547981321063377e-06
шероховатость 4.61512051684126 0.0012777188584831836
попадаться 4.61512051684126 0.0012777188584831836
цифра 3.005682604407159 0.0008321380410872533
развернуть 4.61512051684126 0.0012777188584831836
применять 1.9760631872260008 0.0005470828314579183
сторона 1.213923135179104 0.0010082418066271628
академический 4.61512051684126 0.005110875433932734
возвращение 3.9219733362813143 0.0010858176457035752
порядок 1.9760631872260008 0.0010941656629158366
друг 0.297632403304949 0.0007416089783345905
мясо 4.61512051684126 0.0012777188584831836
поменяться 4.61512051684126 0.0012777188584831836
шанс 2.312535423847214 0.00128047365661529
культура 2.8233610476132043 0.0007816614196049846
заоверфититься 4.61512051684126 0.002555437716966367
недостоверный 4.61512051684126 0.0012777188584831836
банально 3.228826155721369 0.001787832865847934
уверенный 1.9760631872260008 0.0005470828314579183
собеседоваться 4.61512051684126 0.0012777188584831836
четверг 0.6448286032891376 0.00017852397654738027
реальный 2.312535423847214 0.00128047365661529
сеть 1.670681537674819 0.0009250728337069872
будущий 3.5165082281731497 0.0009735626323845929
соотечественник 4.61512051684126 0.0012777188584831836
легко 1.149384614041533 0.000636425589170284
данные 0.09333193979221913 7.751822241878665e-05
февраль 0.5546775062948401 0.0016892172118613627
устраивать 3.5165082281731497 0.0009735626323845929
широко 1.9760631872260008 0.0010941656629158366
никто 2.217225244042889 0.003683098412031377
сообразить 4.61512051684126 0.0012777188584831836
тег 0.009950330853168092 2.7547981321063377e-06
тарелка 4.61512051684126 0.0012777188584831836
краевой 4.61512051684126 0.0012777188584831836
стоимость 2.0501711593797225 0.001702799966262228
образ 0.5042466526679482 0.0001396031707275604
остановиться 3.5165082281731497 0.0009735626323845929
руководитель 2.8233610476132043 0.0015633228392099691
точно 0.663876798259832 0.0003675951263897187
стресс 3.5165082281731497 0.0019471252647691858
течение 1.9760631872260008 0.0010941656629158366
править 1.8425317946014783 0.0010202280147295006
посещаемость 4.61512051684126 0.002555437716966367
получать 1.9070703157390494 0.0010559636299773251
финансовый 3.5165082281731497 0.0009735626323845929
профессиональный 4.61512051684126 0.002555437716966367
влево 0.6261364702769852 0.0001733489674078032
копиться 3.5165082281731497 0.0009735626323845929
природа 4.61512051684126 0.0012777188584831836
наиболее 1.7247487589450947 0.0009550103870127878
который 0.1264841471091197 0.0007353729483088355
урезание 4.61512051684126 0.002555437716966367
реклама 3.005682604407159 0.0008321380410872533
веха 3.5165082281731497 0.0009735626323845929
переключиться 3.5165082281731497 0.0009735626323845929
говорить 2.0501711593797225 0.0028379999437703803
заранее 2.41789593950504 0.0006694064062860022
ещё 0.8309308829229982 0.0006901419293380384
реалия 4.61512051684126 0.0012777188584831836
честно 3.005682604407159 0.0016642760821745067
неделя 2.5356789751614235 0.0021060456604330762
многие 1.9070703157390494 0.0010559636299773251
прийтись 1.9760631872260008 0.0010941656629158366
кнопка 1.6193882432872684 0.00044833561552803664
обладать 3.228826155721369 0.000893916432923967
известность 4.61512051684126 0.002555437716966367
скрининг 4.61512051684126 0.002555437716966367
семейный 3.5165082281731497 0.0009735626323845929
сменить 3.9219733362813143 0.0021716352914071505
почта 2.217225244042889 0.0012276994706771256
потенциальный 4.61512051684126 0.0012777188584831836
визуализация 3.9219733362813143 0.0010858176457035752
март 0.5207759546191588 0.0004325381682883379
вчера 2.0501711593797225 0.001135199977508152
прекращение 4.61512051684126 0.0012777188584831836
опыт 0.8309308829229982 0.0032206623369108456
вместе 1.670681537674819 0.0009250728337069872
добавить 0.009950330853168092 1.377399066053169e-05
прочтение 0.009950330853168092 5.509596264212675e-06
пост 0.13778370236305296 7.62921939994756e-05
свобода 3.9219733362813143 0.0010858176457035752
гораздо 2.217225244042889 0.0012276994706771256
цифровой 3.228826155721369 0.000893916432923967
правильный 3.005682604407159 0.0008321380410872533
сильно 1.5705980791178364 0.0008696556362778717
осилить 4.61512051684126 0.002555437716966367
календарь 0.5720692490067093 0.002217322670568641
мусор 0.5375830729355401 0.00014883252296111297
собрать 2.312535423847214 0.00128047365661529
порекомендовать 4.61512051684126 0.003833156575449551
переехать 3.9219733362813143 0.0032574529371107263
область 1.670681537674819 0.0004625364168534936
вопрос 0.7864791203521645 0.001959665582272835
пытаться 1.7819071727850435 0.0009866595641113197
разный 0.951558870711613 0.0021075501012438828
личный 2.5356789751614235 0.0042120913208661525
удобно 1.7819071727850435 0.0009866595641113197
автоматизированный 3.9219733362813143 0.0010858176457035752
становиться 1.2478246868547855 0.00034546641385791403
понимать 0.5897688261061103 0.0006531216235948064
заметить 3.9219733362813143 0.0021716352914071505
разработать 3.228826155721369 0.001787832865847934
тур 0.5546775062948401 0.00030713040215661137
климат 3.9219733362813143 0.0010858176457035752
прикладной 3.5165082281731497 0.0019471252647691858
название 1.8425317946014783 0.0015303420220942512
способность 2.6692103677859462 0.0014779680884750533
период 1.5705980791178364 0.0004348278181389359
менее 1.3962446919730587 0.000773114447382646
среда 2.6692103677859462 0.0014779680884750533
разработка 0.877450898557891 0.00048585321071865505
разрабатывать 0.6261364702769852 0.0001733489674078032
интегрировать 3.9219733362813143 0.0010858176457035752
комбинация 3.5165082281731497 0.0009735626323845929
новомодный 4.61512051684126 0.0012777188584831836
огромный 2.8233610476132043 0.002344984258814954
занятие 0.6261364702769852 0.0001733489674078032
кандидат 2.8233610476132043 0.00703495277644486
блокнот 4.61512051684126 0.0012777188584831836
долгий 3.005682604407159 0.0008321380410872533
зависимость 1.213923135179104 0.00033608060220905426
приводить 2.130213867053259 0.0005897602068253762
глава 4.61512051684126 0.0012777188584831836
доходить 3.9219733362813143 0.0010858176457035752
результат 0.8084580270709397 0.00044765117778014377
занимать 2.41789593950504 0.0013388128125720045
ссылка 1.5705980791178364 0.0008696556362778717
решить 1.3570239788197773 0.0007513975519489353
нуль 3.9219733362813143 0.0010858176457035752
непонятно 3.9219733362813143 0.0021716352914071505
показать 1.9070703157390494 0.0010559636299773251
пессимистичный 4.61512051684126 0.0012777188584831836
вакансия 1.2829160066660557 0.0007103632373566199
отказ 2.130213867053259 0.0005897602068253762
логика 2.5356789751614235 0.0014040304402887173
формулировать 4.61512051684126 0.0012777188584831836
начинать 2.41789593950504 0.0006694064062860022
дата 0.6448286032891376 0.002320811695115944
одинаковый 4.61512051684126 0.0012777188584831836
описать 1.213923135179104 0.00033608060220905426
ограничить 2.6692103677859462 0.0007389840442375267
небольшой 1.8425317946014783 0.0010202280147295006
хабра 0.009950330853168092 1.101919252842535e-05
модуль 2.312535423847214 0.000640236828307645
звать 1.6193882432872684 0.00044833561552803664
рука 3.005682604407159 0.0008321380410872533
бизнес 1.3570239788197773 0.0007513975519489353
очевидный 2.217225244042889 0.0018415492060156885
завысить 4.61512051684126 0.0012777188584831836
долго 2.0501711593797225 0.003405599932524456
промышленно 3.9219733362813143 0.0021716352914071505
мочь 0.3246610756928683 0.0006291881311877292
назначить 4.61512051684126 0.005110875433932734
проверка 1.9760631872260008 0.0021883313258316732
таковой 3.005682604407159 0.0008321380410872533
попробовать 1.5705980791178364 0.0004348278181389359
услуга 3.5165082281731497 0.0009735626323845929
вести 0.3810140122440001 0.00031645682080066453
выгореть 4.61512051684126 0.0012777188584831836
план 0.9262410627273231 0.0002564344027484283
информация 1.3570239788197773 0.0030055902077957414
прикипеть 4.61512051684126 0.002555437716966367
цикл 1.6193882432872684 0.00044833561552803664
поддержка 0.009950330853168092 5.509596264212675e-06
построение 0.5720692490067093 0.0001583801907549029
отношение 2.6692103677859462 0.0014779680884750533
подготовка 2.8233610476132043 0.0007816614196049846
форма 0.3524406397999441 9.757492796233226e-05
мотивация 3.9219733362813143 0.0032574529371107263
опасно 1.213923135179104 0.0006721612044181085
рассказ 1.4370666864933137 0.0003978589940457679
яндекс 0.009950330853168092 5.509596264212675e-06
критерий 3.005682604407159 0.0024964141232617604
левый 3.9219733362813143 0.0010858176457035752
перейти 2.217225244042889 0.0006138497353385628
писать 0.7649729151312009 0.00021178652135415307
подойти 3.5165082281731497 0.0009735626323845929
прохождение 2.312535423847214 0.00128047365661529
ждать 2.130213867053259 0.0011795204136507524
градус 3.5165082281731497 0.0009735626323845929
пользоваться 1.0597724553518457 0.00029340322684159626
фронтенд 3.005682604407159 0.0016642760821745067
таргетированный 4.61512051684126 0.0012777188584831836
налог 1.3192836508369303 0.0003652501801874115
функция 1.7819071727850435 0.0009866595641113197
находить 1.9760631872260008 0.0005470828314579183
семья 4.61512051684126 0.002555437716966367
список 1.5240780634829436 0.00042194852255895445
сходу 4.61512051684126 0.002555437716966367
комбинаторный 4.61512051684126 0.0012777188584831836
исследование 2.130213867053259 0.0017692806204761286
оценка 2.8233610476132043 0.0007816614196049846
английский 3.9219733362813143 0.0010858176457035752
получаться 4.61512051684126 0.003833156575449551
итог 1.1811333123561132 0.0019620154690300883
деньга 2.217225244042889 0.0012276994706771256
технологический 3.5165082281731497 0.0009735626323845929
ощущать 4.61512051684126 0.0012777188584831836
помощник 2.41789593950504 0.0006694064062860022
кратко 2.217225244042889 0.0012276994706771256
примерный 4.61512051684126 0.0012777188584831836
тот 0.009950330853168092 5.509596264212675e-06
индустрия 0.5720692490067093 0.00047514057226470875
учитывать 2.0501711593797225 0.001135199977508152
немного 1.3962446919730587 0.005411801131678522
радовать 3.005682604407159 0.0008321380410872533
коррелировать 4.61512051684126 0.0012777188584831836
поле 0.8084580270709397 0.00022382558889007188
структурировать 4.61512051684126 0.002555437716966367
глубокий 3.228826155721369 0.000893916432923967
поверить 3.5165082281731497 0.0009735626323845929
детальный 4.61512051684126 0.0012777188584831836
продвинуться 4.61512051684126 0.0012777188584831836
проходить 2.8233610476132043 0.0007816614196049846
сложно 0.1153108465109944 6.384875222092712e-05
выбирать 2.8233610476132043 0.0007816614196049846
необходимо 0.6077873316087886 0.000336537835885265
оно 0.1607732205877518 8.902171682599766e-05
ручной 3.9219733362813143 0.0010858176457035752
россия 1.8425317946014783 0.0010202280147295006
состояться 4.61512051684126 0.0012777188584831836
гибкость 3.005682604407159 0.0008321380410872533
постараться 3.5165082281731497 0.0019471252647691858
искусственный 0.5207759546191588 0.00014417938942944597
россиянин 3.9219733362813143 0.0010858176457035752
напоминать 3.5165082281731497 0.0009735626323845929
готовый 0.7439195059333684 0.0004119155625323192
выклянчивание 4.61512051684126 0.002555437716966367
незнание 4.61512051684126 0.0012777188584831836
исключение 2.312535423847214 0.000640236828307645
минус 2.8233610476132043 0.0015633228392099691
далёкий 1.3192836508369303 0.0003652501801874115
разбивка 4.61512051684126 0.0012777188584831836
медиана 4.61512051684126 0.0012777188584831836
европейский 4.61512051684126 0.0012777188584831836
средний 4.61512051684126 0.0012777188584831836
разработчик 0.3246610756928683 0.00017976803748220835
угол 2.41789593950504 0.0006694064062860022
каждый 0.6077873316087886 0.0010096135076557951
бесполезный 3.9219733362813143 0.0010858176457035752
пожить 3.5165082281731497 0.0009735626323845929
технология 2.312535423847214 0.000640236828307645
александр 3.005682604407159 0.0016642760821745067
десяток 3.5165082281731497 0.0019471252647691858
сын 4.61512051684126 0.0012777188584831836
размышление 3.9219733362813143 0.0010858176457035752
зависеть 3.5165082281731497 0.0019471252647691858
слушать 3.9219733362813143 0.0021716352914071505
взвешивать 4.61512051684126 0.0012777188584831836
они 0.061243625240718594 5.086679837268986e-05
инсайт 4.61512051684126 0.0012777188584831836
повлиять 2.8233610476132043 0.0015633228392099691
целенаправленно 4.61512051684126 0.002555437716966367
тип 0.9015484501369516 0.0007487943938014549
встреча 0.5042466526679482 0.0001396031707275604
изучить 1.5240780634829436 0.00042194852255895445
практика 1.4796263009121098 0.0004096418330321456
обсудить 3.9219733362813143 0.0021716352914071505
лицо 1.5240780634829436 0.00042194852255895445
время 0.009950330853168092 5.234116451002042e-05
интринсик 4.61512051684126 0.0012777188584831836
сначала 2.217225244042889 0.0012276994706771256
найти 1.0597724553518457 0.0005868064536831925
платить 2.8233610476132043 0.0007816614196049846
конкурс 0.6448286032891376 0.00017852397654738027
успешный 2.5356789751614235 0.0007020152201443586
новичок 3.228826155721369 0.000893916432923967
сообщество 2.130213867053259 0.0011795204136507524
объяснить 3.228826155721369 0.003575665731695868
сразу 0.8539204011476971 0.0004728241423852143
изложение 4.61512051684126 0.0012777188584831836
дом 0.4254657748148339 0.00011779229646036374
комментарий 2.6692103677859462 0.0007389840442375267
выслать 3.9219733362813143 0.0021716352914071505
выяснить 2.6692103677859462 0.0007389840442375267
дело 1.4796263009121098 0.0004096418330321456
надрессировать 4.61512051684126 0.002555437716966367
зачастую 3.005682604407159 0.0016642760821745067
поток 1.8425317946014783 0.0010202280147295006
стремиться 3.9219733362813143 0.0010858176457035752
просмотр 0.009950330853168092 2.7547981321063377e-06
далее 0.009950330853168092 2.7547981321063377e-06
регион 2.5356789751614235 0.0007020152201443586
ответ 0.4719857904497268 0.0001306715920403452
мытарство 4.61512051684126 0.0012777188584831836
написать 1.9070703157390494 0.0021119272599546502
теперь 0.8084580270709397 0.00044765117778014377
дзен 0.009950330853168092 2.7547981321063377e-06
насколько 1.9070703157390494 0.0010559636299773251
девять 0.6261364702769852 0.0001733489674078032
жирный 4.61512051684126 0.002555437716966367
автор 1.2478246868547855 0.00034546641385791403
маленький 1.0887599922250981 0.0009042857078281546
манера 4.61512051684126 0.0012777188584831836
перекос 3.5165082281731497 0.0009735626323845929
решиться 4.61512051684126 0.0012777188584831836
передавать 1.9760631872260008 0.0005470828314579183
совершенно 2.312535423847214 0.006402368283076451
полезный 1.9760631872260008 0.0005470828314579183
комнатный 4.61512051684126 0.0012777188584831836
добираться 4.61512051684126 0.0012777188584831836
американец 3.9219733362813143 0.0010858176457035752
ошибиться 3.9219733362813143 0.0010858176457035752
сам 0.19627990904466155 0.00010868212017976829
поэтому 0.5042466526679482 0.000977222195092923
ожидание 3.005682604407159 0.0008321380410872533
зарабатывать 3.9219733362813143 0.0010858176457035752
сработать 3.5165082281731497 0.0009735626323845929
талант 3.9219733362813143 0.0010858176457035752
незамедлительно 3.9219733362813143 0.0021716352914071505
фидбэк 3.9219733362813143 0.0021716352914071505
взгляд 1.9070703157390494 0.0010559636299773251
всеохватывающий 4.61512051684126 0.0012777188584831836
стабильный 3.9219733362813143 0.0010858176457035752
твой 3.5165082281731497 0.0009735626323845929
модно 4.61512051684126 0.002555437716966367
увеличение 3.228826155721369 0.001787832865847934
исследователь 3.5165082281731497 0.0009735626323845929
жена 3.005682604407159 0.0016642760821745067
айти 1.0316015783851493 0.00028560398072678553
совет 2.0501711593797225 0.001135199977508152
внимательно 3.9219733362813143 0.0021716352914071505
рекрутинговый 4.61512051684126 0.0012777188584831836
алгоритм 0.5546775062948401 0.00046069560323491705
надеяться 2.6692103677859462 0.0007389840442375267
расстраиваться 4.61512051684126 0.002555437716966367
базовый 2.5356789751614235 0.0007020152201443586
сутки 0.020000666706669435 1.1074566282762699e-05
повальный 4.61512051684126 0.0012777188584831836
аренда 3.228826155721369 0.000893916432923967
заложить 4.61512051684126 0.0012777188584831836
сформулировать 4.61512051684126 0.002555437716966367
так 0.009950330853168092 4.683156824580774e-05
высылать 4.61512051684126 0.0012777188584831836
бонус 3.9219733362813143 0.0021716352914071505
иначе 2.0501711593797225 0.001135199977508152
согласиться 3.5165082281731497 0.0009735626323845929
процесс 0.5207759546191588 0.00014417938942944597
многое 2.312535423847214 0.00256094731323058
атомарный 4.61512051684126 0.0012777188584831836
заканчиваться 3.9219733362813143 0.0010858176457035752
далеко 2.130213867053259 0.0011795204136507524
сумма 1.9070703157390494 0.0005279818149886626
путь 1.670681537674819 0.0009250728337069872
оставить 1.5240780634829436 0.00042194852255895445
сэкономить 2.41789593950504 0.0006694064062860022
рубеж 2.41789593950504 0.0006694064062860022
представлять 3.5165082281731497 0.0019471252647691858
замечание 3.9219733362813143 0.0021716352914071505
повысить 2.6692103677859462 0.0007389840442375267
означать 1.2829160066660557 0.00035518161867830996
выбрать 1.5705980791178364 0.0004348278181389359
всякий 3.005682604407159 0.0008321380410872533
гугл 2.8233610476132043 0.0007816614196049846
препятствие 3.228826155721369 0.000893916432923967
устаревший 3.9219733362813143 0.0010858176457035752
крайне 1.670681537674819 0.0009250728337069872
вначале 4.61512051684126 0.002555437716966367
администратор 0.5375830729355401 0.00014883252296111297
разумный 3.5165082281731497 0.0009735626323845929
грабли 4.61512051684126 0.002555437716966367
составить 3.228826155721369 0.000893916432923967
конец 1.7247487589450947 0.0004775051935063939
инертность 4.61512051684126 0.002555437716966367
код 0.6077873316087886 0.000336537835885265
прорешать 4.61512051684126 0.002555437716966367
нужно 0.1607732205877518 0.000534130300955986
запуск 0.297632403304949 0.00016480199518546456
ясно 2.8233610476132043 0.0031266456784199382
оба 0.009950330853168092 2.7547981321063377e-06
грань 0.20840126957700633 5.7696918487543276e-05
число 1.4796263009121098 0.0008192836660642911
прикуп 3.5165082281731497 0.0019471252647691858
смочь 2.0501711593797225 0.000567599988754076
эмиграция 4.61512051684126 0.010221750867865469
отзыв 2.5356789751614235 0.0007020152201443586
машинный 2.8233610476132043 0.0007816614196049846
пресловутый 4.61512051684126 0.002555437716966367
сборщик 0.6077873316087886 0.000336537835885265
ставка 3.228826155721369 0.001787832865847934
вверх 3.228826155721369 0.001787832865847934
посвятить 4.61512051684126 0.0012777188584831836
обозначить 4.61512051684126 0.002555437716966367
звонок 4.61512051684126 0.002555437716966367
известный 3.228826155721369 0.001787832865847934
одновременно 2.312535423847214 0.00256094731323058
аккуратно 3.005682604407159 0.0016642760821745067
привносить 4.61512051684126 0.002555437716966367
интеллект 0.5207759546191588 0.00014417938942944597
встроить 4.61512051684126 0.0012777188584831836
социальный 3.9219733362813143 0.0010858176457035752
перелопатить 4.61512051684126 0.002555437716966367
собираться 2.6692103677859462 0.0007389840442375267
классический 4.61512051684126 0.0012777188584831836
заявка 3.9219733362813143 0.0021716352914071505
квартира 4.61512051684126 0.0012777188584831836
кто 0.030153038170687457 2.5044051636783604e-05
подобие 3.228826155721369 0.001787832865847934
институт 3.5165082281731497 0.0009735626323845929
рассмотрение 3.228826155721369 0.000893916432923967
пенсия 4.61512051684126 0.0012777188584831836
пожелание 3.9219733362813143 0.0010858176457035752
микроклимат 4.61512051684126 0.002555437716966367
знакомый 4.61512051684126 0.0012777188584831836
позиция 2.41789593950504 0.0006694064062860022
забраковать 4.61512051684126 0.0012777188584831836
наступать 4.61512051684126 0.002555437716966367
ускорить 4.61512051684126 0.002555437716966367
остаться 2.312535423847214 0.000640236828307645
крупный 3.005682604407159 0.0008321380410872533
оплачиваться 4.61512051684126 0.0012777188584831836
ведущий 2.8233610476132043 0.0007816614196049846
обновить 0.009950330853168092 2.7547981321063377e-06
покупка 2.0501711593797225 0.000567599988754076
подруга 4.61512051684126 0.0012777188584831836
рекрутер 4.61512051684126 0.0012777188584831836
алкоголик 4.61512051684126 0.002555437716966367
работник 3.9219733362813143 0.0010858176457035752
карьерный 4.61512051684126 0.002555437716966367
таблица 1.7247487589450947 0.0004775051935063939
поначалу 4.61512051684126 0.002555437716966367
операционный 0.5897688261061103 0.0001632804058987016
сглаживать 4.61512051684126 0.0012777188584831836
робот 3.5165082281731497 0.0009735626323845929
враг 3.9219733362813143 0.0021716352914071505
мировой 3.9219733362813143 0.0010858176457035752
очень 0.7864791203521645 0.0017419249620202978
