первый 1.0887599922250981 0.0007990899025505307
получить 0.877450898557891 0.0019320019784760905
снова 0.7864791203521645 0.0005772323819098456
код 0.5720692490067093 0.0018894030242423427
нужный 1.3570239788197773 0.0009959809018860752
функционировать 4.61512051684126 0.0016936222080151412
библиотека 2.217225244042889 0.0040683032000786955
работа 0.061243625240718594 0.0001573230740128551
поле 0.8539204011476971 0.001253461139299372
календарь 0.5897688261061103 0.002813576051148416
загрузить 2.6692103677859462 0.008815740664247161
мусор 0.5375830729355401 0.00019727819190295048
похожий 0.020000666706669435 7.339694204282362e-06
применить 2.41789593950504 0.0017746025244073688
создать 0.5897688261061103 0.001082144635057083
сервер 0.36662527479190044 0.003363534631118353
минута 2.0501711593797225 0.0007523563887632009
столбец 2.8233610476132043 0.0010360957972892493
помочь 1.3570239788197773 0.0004979904509430376
уточнить 3.9219733362813143 0.0028785125403899556
соответствие 2.6692103677859462 0.002938580221415721
файл 0.9775343571148737 0.013990399973387182
импорт 2.217225244042889 0.006509285120125913
место 0.25841169015166776 0.0014224496705596392
популярный 2.41789593950504 0.0017746025244073688
процесс 0.5207759546191588 0.0009555522103103832
товар 1.9070703157390494 0.009097950130131245
цена 1.7819071727850435 0.0013078217781908577
просмотр 0.009950330853168092 3.65149756079563e-06
этот 0.5042466526679482 0.001295312502266289
понимать 0.5897688261061103 0.0004328578540228332
развитие 0.5546775062948401 0.00020355137845682206
краткий 3.5165082281731497 0.0012904617351094127
загрузка 1.7819071727850435 0.0026156435563817154
еденица 4.61512051684126 0.0033872444160302825
представлять 1.8425317946014783 0.0006761584567344874
отсутствовать 4.61512051684126 0.0016936222080151412
запрос 1.0316015783851493 0.0026499857059435025
название 1.7819071727850435 0.0013078217781908577
мы 0.030153038170687457 0.0003540907234722931
проходить 1.9070703157390494 0.0006998423177024034
значение 1.149384614041533 0.00210896259457162
один 0.3384543978252041 0.00024840689748638833
подключиться 3.5165082281731497 0.012904617351094128
навык 0.36662527479190044 0.0001345413852447341
успешно 1.5705980791178364 0.0011527325351323571
шаблон 0.4719857904497268 0.00017320579466045021
смочь 1.3192836508369303 0.0009682815785959122
извлечь 2.6692103677859462 0.001959053480943814
затем 1.004202604197035 0.0007370294342730533
многофункциональный 3.9219733362813143 0.0028785125403899556
метод 1.0597724553518457 0.0019445366153244877
теперь 0.8084580270709397 0.001780091068780051
магазин 2.217225244042889 0.0008136606400157391
запускать 2.0501711593797225 0.0007523563887632009
облачный 0.6077873316087886 0.0004460824452174595
дзен 0.009950330853168092 3.65149756079563e-06
интернет 1.7247487589450947 0.001265870648767042
конференция 0.6077873316087886 0.0013382473356523788
девять 0.6261364702769852 0.0002297748514777927
ссылка 1.4796263009121098 0.0010859642575501724
пустой 4.61512051684126 0.0016936222080151412
существовать 1.670681537674819 0.0006130941422659886
убедиться 3.005682604407159 0.0022060055812162635
необходимый 0.4719857904497268 0.0006928231786418009
платформа 0.4719857904497268 0.0005196173839813507
пользователь 0.36662527479190044 0.0002690827704894682
разрабатывать 0.6261364702769852 0.0002297748514777927
изображение 2.0501711593797225 0.0030094255550528037
идентификатор 2.6692103677859462 0.003918106961887628
сделать 0.7864791203521645 0.0008658485728647683
разработка 1.3192836508369303 0.0004841407892979561
папка 2.5356789751614235 0.0009305243945546508
наш 0.663876798259832 0.00414161672308886
подобный 2.6692103677859462 0.000979526740471907
весь 1.3192836508369303 0.0014524223678938685
директор 0.4254657748148339 0.0001561342292898473
занятие 0.6261364702769852 0.0002297748514777927
автоматически 1.4796263009121098 0.0010859642575501724
сохранить 2.5356789751614235 0.002791573183663953
модуль 2.312535423847214 0.002545910558363905
язык 0.009950330853168092 7.30299512159126e-06
случай 0.5546775062948401 0.00040710275691364413
разделитель 4.61512051684126 0.0033872444160302825
готовый 1.3962446919730587 0.0005123833732011224
подключение 1.7819071727850435 0.0026156435563817154
настройка 0.009950330853168092 2.556048292556941e-05
использовать 0.14921239818667575 0.0010403800240538859
запустить 1.9070703157390494 0.0006998423177024034
вариант 1.213923135179104 0.00089095275976448
обновить 0.009950330853168092 1.460599024318252e-05
бинарный 4.61512051684126 0.0016936222080151412
последний 2.6692103677859462 0.001959053480943814
июнь 0.6448286032891376 0.00023663434983087618
должный 0.3956128116651528 0.0002903580269102039
информация 0.877450898557891 0.0009660009892380453
закрыть 3.005682604407159 0.0022060055812162635
параметр 1.149384614041533 0.001265377556742972
этап 1.1811333123561132 0.0017337736695135606
поэтому 0.7649729151312009 0.0005614480111054685
настроить 2.217225244042889 0.0008136606400157391
столбцы 3.228826155721369 0.0011848903323748142
понадобиться 2.41789593950504 0.0026619037866110534
подробный 0.5375830729355401 0.002564616494738356
серия 0.6077873316087886 0.0006691236678261894
вакансия 1.2829160066660557 0.0018831794593263203
установить 1.8425317946014783 0.0006761584567344874
измерение 2.6692103677859462 0.001959053480943814
нажать 2.0501711593797225 0.0007523563887632009
путь 1.6193882432872684 0.0005942709149678049
грант 0.6448286032891376 0.00023663434983087618
дата 0.6448286032891376 0.0030762465478013905
экспорт 2.8233610476132043 0.004144383189156997
час 0.030153038170687457 1.1065335108509159e-05
сначала 1.6193882432872684 0.0005942709149678049
урок 0.5546775062948401 0.0012213082707409324
преобразование 3.005682604407159 0.004412011162432527
данные 0.09333193979221913 0.00099325734090802
давать 0.8309308829229982 0.0003049287643754122
хабра 0.009950330853168092 1.0954492682386891e-05
простой 1.6193882432872684 0.001782812744903415
количество 0.009950330853168092 3.65149756079563e-06
хостинг 2.312535423847214 0.0008486368527879683
выгрузка 4.61512051684126 0.010161733248090847
база 0.3110554236370897 0.0012556365724799951
сайт 1.0887599922250981 0.0035959045614773885
создание 1.3570239788197773 0.0009959809018860752
время 0.009950330853168092 4.746946829034319e-05
практический 0.6261364702769852 0.0002297748514777927
мочь 0.3384543978252041 0.0008694241412023591
дополнительный 2.41789593950504 0.0008873012622036844
февраль 0.5546775062948401 0.0018319624061113988
компактный 4.61512051684126 0.0016936222080151412
правило 1.9760631872260008 0.0014503216053034869
извлечение 2.41789593950504 0.0026619037866110534
позволять 0.9262410627273231 0.0010197149314429246
дальнейший 3.9219733362813143 0.0014392562701949778
предоставляться 3.5165082281731497 0.0012904617351094127
сутки 0.020000666706669435 1.4679388408564724e-05
пример 0.25841169015166776 0.00018965995607461854
начать 1.670681537674819 0.001839282426797966
достаточно 0.9775343571148737 0.0007174564088916505
открывать 2.130213867053259 0.0007817298594690858
реализация 1.9070703157390494 0.0006998423177024034
группа 1.5240780634829436 0.001677884106586727
профессия 0.6448286032891376 0.00023663434983087618
карма 0.009950330853168092 3.65149756079563e-06
автоматизировать 2.6692103677859462 0.001959053480943814
задача 0.4562374334815876 0.0013394126487532847
закрывать 2.41789593950504 0.0008873012622036844
наём 0.6448286032891376 0.00023663434983087618
программа 1.5705980791178364 0.0023054650702647142
каждый 0.9262410627273231 0.0003399049771476415
выгрузить 4.61512051684126 0.005080866624045424
описание 2.6692103677859462 0.003918106961887628
поддержка 0.009950330853168092 7.30299512159126e-06
инженер 0.5720692490067093 0.0004198673387205206
построение 0.5720692490067093 0.0002099336693602603
использование 0.9015484501369516 0.0019850608076409947
категория 3.005682604407159 0.0011030027906081318
соединение 3.005682604407159 0.0022060055812162635
москва 0.6261364702769852 0.0006893245544333782
яндекс 0.009950330853168092 7.30299512159126e-06
карьера 0.6077873316087886 0.00022304122260872976
быть 0.36662527479190044 0.0005381655409789364
такой 0.5897688261061103 0.0004328578540228332
символ 2.217225244042889 0.0016273212800314782
равный 3.005682604407159 0.0011030027906081318
сохранять 2.6692103677859462 0.002938580221415721
поиск 0.009950330853168092 3.65149756079563e-06
алгоритм 0.5546775062948401 0.00020355137845682206
решение 1.2478246868547855 0.000915834632553971
имя 1.8425317946014783 0.0006761584567344874
чтение 0.009950330853168092 3.65149756079563e-06
выполнять 1.670681537674819 0.0006130941422659886
микроинвест 4.61512051684126 0.0016936222080151412
рыбный 4.61512051684126 0.0016936222080151412
функция 1.4796263009121098 0.0016289463863252587
администратор 0.5375830729355401 0.00019727819190295048
компетенция 0.6448286032891376 0.00023663434983087618
перейти 2.5356789751614235 0.0018610487891093017
вправо 0.6448286032891376 0.00023663434983087618
голосование 0.009950330853168092 7.30299512159126e-06
публикация 0.020000666706669435 7.339694204282362e-06
качественный 0.5546775062948401 0.00020355137845682206
который 0.10426101032440946 0.0004591310546396013
дть 0.4562374334815876 0.0001674265810941606
тренировка 0.6448286032891376 0.00023663434983087618
разместить 2.8233610476132043 0.0020721915945784986
решить 1.6193882432872684 0.0005942709149678049
технический 0.009950330853168092 3.65149756079563e-06
связь 0.9775343571148737 0.00035872820444582523
говорить 1.5240780634829436 0.0005592947021955757
инструмент 0.9775343571148737 0.00035872820444582523
подключаться 3.5165082281731497 0.0012904617351094127
апрель 0.6261364702769852 0.0002297748514777927
войти 0.009950330853168092 3.65149756079563e-06
шаг 1.1811333123561132 0.002600660504270341
нужно 0.1607732205877518 0.0008259908580655137
запуск 0.297632403304949 0.0003276687008861824
принцип 0.3810140122440001 0.00013982165586935784
определить 1.9070703157390494 0.0006998423177024034
будущее 0.5720692490067093 0.0002099336693602603
удалять 2.6692103677859462 0.000979526740471907
наименование 3.5165082281731497 0.0025809234702188254
надеяться 2.312535423847214 0.0008486368527879683
грань 0.20840126957700633 7.647753012000232e-05
второй 1.670681537674819 0.0012261882845319772
извлекать 4.61512051684126 0.006774488832060565
устанавливать 2.130213867053259 0.0015634597189381717
обучение 0.5207759546191588 0.00038222088412415324
взаимодействовать 2.5356789751614235 0.0037220975782186034
совпадать 4.61512051684126 0.0033872444160302825
попросить 3.228826155721369 0.0011848903323748142
индустрия 0.5720692490067093 0.0002099336693602603
сборщик 0.6077873316087886 0.0004460824452174595
комментировать 1.1186129553747792 0.00041050016711001073
индекс 2.130213867053259 0.0015634597189381717
умолчание 2.0501711593797225 0.0007523563887632009
небольшой 1.670681537674819 0.0006130941422659886
указывать 2.130213867053259 0.0007817298594690858
подгруппа 4.61512051684126 0.010161733248090847
нет 0.3810140122440001 0.0005592866234774313
дело 1.5705980791178364 0.0005763662675661786
интеллект 0.5207759546191588 0.00019111044206207662
хороший 0.020000666706669435 7.339694204282362e-06
планировщик 4.61512051684126 0.0016936222080151412
четверг 0.6448286032891376 0.00023663434983087618
знать 0.3246610756928683 0.0002382833583066923
режим 1.5240780634829436 0.0005592947021955757
недопустимый 4.61512051684126 0.0033872444160302825
искусственный 0.5207759546191588 0.00019111044206207662
исходный 2.312535423847214 0.0008486368527879683
часть 0.7864791203521645 0.0005772323819098456
тег 0.009950330853168092 3.65149756079563e-06
нарушить 3.5165082281731497 0.0025809234702188254
добавить 0.009950330853168092 7.30299512159126e-06
работать 0.1607732205877518 0.00017699804101403867
несколько 0.48798613179616795 0.00035815495911645354
загружать 2.41789593950504 0.0017746025244073688
разработчик 0.3246610756928683 0.000833991754073423
таблица 2.0501711593797225 0.0007523563887632009
следующий 1.7247487589450947 0.000632935324383521
разделить 2.312535423847214 0.0008486368527879683
рейтинг 0.009950330853168092 3.65149756079563e-06
влево 0.6261364702769852 0.0002297748514777927
опустить 2.6692103677859462 0.000979526740471907
конфигурационный 4.61512051684126 0.0033872444160302825
формат 1.2829160066660557 0.0009415897296631601
лихой 0.6448286032891376 0.00023663434983087618
расписание 3.5165082281731497 0.0012904617351094127
записывать 2.312535423847214 0.0008486368527879683
помощь 0.5897688261061103 0.0006492867810342499
уровень 0.13778370236305296 5.0562826555248794e-05
близкий 0.6448286032891376 0.00023663434983087618
ждать 1.9070703157390494 0.0006998423177024034
статья 0.7439195059333684 0.00027299798382875905
поступить 4.61512051684126 0.0016936222080151412
набор 1.6193882432872684 0.0005942709149678049
столкнуться 3.005682604407159 0.0011030027906081318
туда 2.217225244042889 0.0016273212800314782
встреча 0.5042466526679482 0.00018504464318089842
строка 1.8425317946014783 0.0013523169134689748
содержать 1.7247487589450947 0.000632935324383521
широкий 2.6692103677859462 0.000979526740471907
начало 0.4719857904497268 0.00017320579466045021
уникальный 3.005682604407159 0.0011030027906081318
альтернативный 4.61512051684126 0.0016936222080151412
март 0.5207759546191588 0.00057333132618623
конкурс 0.6448286032891376 0.00023663434983087618
наличие 1.670681537674819 0.0012261882845319772
вместе 1.670681537674819 0.0024523765690639544
большинство 1.7247487589450947 0.000632935324383521
заменить 2.0501711593797225 0.0015047127775264018
операционный 0.5897688261061103 0.0002164289270114166
вид 0.22067136216882066 8.098031639222777e-05
прочтение 0.009950330853168092 7.30299512159126e-06
создавать 1.213923135179104 0.00044547637988224
рассказать 2.0501711593797225 0.0007523563887632009
вывод 0.9775343571148737 0.0007174564088916505
никакой 1.8425317946014783 0.0006761584567344874
назад 0.13778370236305296 0.00010112565311049759
