крипта 2.8233610476132043 0.0017173729000080319
использовать 0.09333193979221913 0.0007947975408096519
сильно 1.5705980791178364 0.001910703259267441
годовой 3.005682604407159 0.0018282740902719947
самый 1.3570239788197773 0.0016508807528221136
программирование 2.130213867053259 0.0012957505274046588
вы 0.009950330853168092 2.421005073763526e-05
язык 0.009950330853168092 1.8157538053226443e-05
календарь 0.5897688261061103 0.004663622104245398
еда 0.09333193979221913 0.0003406275174898508
рисковать 3.005682604407159 0.0036565481805439894
начать 1.4796263009121098 0.0018000319962434427
отписать 3.9219733362813143 0.007156885650148384
мусор 0.5375830729355401 0.00032699700300215336
понятный 2.312535423847214 0.0028133034353372433
показаться 2.0501711593797225 0.0024941254980288597
похожий 0.020000666706669435 1.216585566099114e-05
третий 3.005682604407159 0.0036565481805439894
новый 0.9015484501369516 0.0005483871351198002
сервер 0.36662527479190044 0.000669024224072811
оказаться 1.3962446919730587 0.0025478917736734647
гугл 3.228826155721369 0.001964006177446088
решение 0.7864791203521645 0.0009567872510366965
вывод 0.9775343571148737 0.0005946072731842297
программа 1.2478246868547855 0.000759017449425052
подсесть 3.9219733362813143 0.002385628550049461
пояснение 3.9219733362813143 0.004771257100098922
надпись 3.5165082281731497 0.00427799054522281
ресурс 1.0316015783851493 0.002509979509452918
место 0.25841169015166776 0.002043401442805159
человек 1.3962446919730587 0.004246486289455775
гневный 3.9219733362813143 0.002385628550049461
просмотр 0.009950330853168092 6.052512684408815e-06
категория 2.8233610476132043 0.018891101900088348
понимать 0.5897688261061103 0.0007174803237300611
технический 0.009950330853168092 2.421005073763526e-05
хватать 2.6692103677859462 0.0032472145593502996
развитие 0.5546775062948401 0.00033739507682167895
являться 0.6261364702769852 0.0003808615999251735
гулять 3.5165082281731497 0.00427799054522281
хранение 1.0597724553518457 0.0012892608945886202
первый 1.213923135179104 0.0022151882028815764
бесплатный 3.005682604407159 0.0036565481805439894
период 1.5705980791178364 0.004776758148168602
ошибка 1.6193882432872684 0.0009850293450652484
баланс 2.8233610476132043 0.013738983200064255
буква 2.312535423847214 0.0014066517176686217
подкатегория 3.9219733362813143 0.004771257100098922
записывать 3.005682604407159 0.0036565481805439894
наличка 3.9219733362813143 0.007156885650148384
база 0.4254657748148339 0.0007763973992971421
навык 0.36662527479190044 0.00022300807469093702
очередь 2.6692103677859462 0.0032472145593502996
шаблон 0.4719857904497268 0.00028709597959229125
что 0.009950330853168092 6.657763952849697e-05
писать 0.8084580270709397 0.0024588139509456805
карточка 3.5165082281731497 0.002138995272611405
ваш 0.7030975114131134 0.0008553497705755638
затем 1.004202604197035 0.0012216576693394588
банк 1.9070703157390494 0.002320036880461131
утилита 2.6692103677859462 0.0032472145593502996
учёт 2.6692103677859462 0.0032472145593502996
обязательно 1.5705980791178364 0.001910703259267441
облачный 0.6077873316087886 0.0007394006467260203
остальной 2.217225244042889 0.0026973543114876997
дзен 0.009950330853168092 6.052512684408815e-06
конференция 0.6077873316087886 0.0022182019401780608
девять 0.6261364702769852 0.0003808615999251735
комментарий 1.5240780634829436 0.0037082191325619068
разрабатывать 0.6261364702769852 0.0003808615999251735
терминал 1.9760631872260008 0.0012019849070717768
запятая 3.9219733362813143 0.002385628550049461
знание 2.8233610476132043 0.0017173729000080319
читать 1.1186129553747792 0.004762950539916943
парсер 3.9219733362813143 0.002385628550049461
мочь 0.08252102368800344 0.00025097634941606886
директор 0.4254657748148339 0.0002587991330990474
привести 1.9760631872260008 0.0024039698141435535
занятие 0.6261364702769852 0.0003808615999251735
счёт 2.217225244042889 0.0026973543114876997
суть 1.5705980791178364 0.001910703259267441
быть 0.3524406397999441 0.00021437995121651102
месячный 3.5165082281731497 0.002138995272611405
курс 0.3810140122440001 0.00023176034808029204
заря 1.4796263009121098 0.0009000159981217213
торт 3.9219733362813143 0.002385628550049461
подозрительно 2.6692103677859462 0.0032472145593502996
треть 0.951558870711613 0.0005788070989730007
файл 0.9775343571148737 0.008324501824579217
остаться 3.228826155721369 0.001964006177446088
видеть 1.3570239788197773 0.0033017615056442273
идеология 2.8233610476132043 0.0017173729000080319
двоеточие 3.9219733362813143 0.004771257100098922
купить 1.9070703157390494 0.0011600184402305654
вишенка 3.9219733362813143 0.002385628550049461
судить 2.6692103677859462 0.0016236072796751498
модифицирование 3.9219733362813143 0.002385628550049461
мой 0.6261364702769852 0.0003808615999251735
автозаполнение 3.9219733362813143 0.002385628550049461
июнь 0.6448286032891376 0.00039223151051650704
резервный 3.228826155721369 0.001964006177446088
разный 1.3570239788197773 0.0024763211292331702
нуль 2.5356789751614235 0.001542383804842715
процент 2.5356789751614235 0.001542383804842715
информация 0.9775343571148737 0.0005946072731842297
минимум 1.8425317946014783 0.002241522864478684
сводка 3.5165082281731497 0.014972966908279834
практически 1.149384614041533 0.0027965562385438756
подробный 0.5375830729355401 0.004577958042030147
уметь 1.8425317946014783 0.002241522864478684
серия 0.6077873316087886 0.0011091009700890304
полноценный 3.228826155721369 0.003928012354892176
напороться 3.9219733362813143 0.002385628550049461
плагин 2.6692103677859462 0.0162360727967515
день 1.6193882432872684 0.001970058690130497
официальный 3.005682604407159 0.0018282740902719947
грант 0.6448286032891376 0.00039223151051650704
дата 0.6448286032891376 0.005099009636714592
взгляд 1.9070703157390494 0.002320036880461131
окончание 3.9219733362813143 0.004771257100098922
статья 0.7030975114131134 0.0017106995411511276
задавать 2.8233610476132043 0.0034347458000160637
потому 1.213923135179104 0.0007383960676271923
хотеть 2.217225244042889 0.004046031467231549
деньга 1.9760631872260008 0.0024039698141435535
урок 0.5546775062948401 0.0020243704609300734
хороший 0.020000666706669435 2.433171132198228e-05
я 0.009950330853168092 2.421005073763526e-05
данные 0.09333193979221913 0.0005109412762347763
нормальный 3.228826155721369 0.001964006177446088
час 0.030153038170687457 1.8341264094092128e-05
чтение 0.009950330853168092 6.052512684408815e-06
платформа 0.48798613179616795 0.0002968285473212701
алексей 2.6692103677859462 0.0016236072796751498
общий 1.670681537674819 0.0030486889373628084
хабра 0.009950330853168092 1.8157538053226443e-05
работать 0.10426101032440946 0.00019025731811023622
клиент 1.3570239788197773 0.0008254403764110568
такой 0.7649729151312009 0.00046531199217226334
количество 0.009950330853168092 6.052512684408815e-06
помножиться 3.9219733362813143 0.002385628550049461
получить 0.951558870711613 0.0028940354948650032
копия 2.41789593950504 0.0014707396225699758
сайт 1.0887599922250981 0.0013245255379867374
очередной 3.228826155721369 0.001964006177446088
весь 0.5897688261061103 0.0007174803237300611
делать 0.5546775062948401 0.0006747901536433579
гамбургер 3.9219733362813143 0.004771257100098922
время 0.009950330853168092 7.86826648973146e-05
ведение 0.9775343571148737 0.002973036365921149
редактирование 3.9219733362813143 0.002385628550049461
практический 0.6261364702769852 0.0003808615999251735
февраль 0.5546775062948401 0.0030365556913951102
выделить 2.312535423847214 0.0014066517176686217
должный 0.4407332469456224 0.00026808591663359026
позволять 0.9262410627273231 0.0005634069724618754
действие 1.9760631872260008 0.0012019849070717768
сутки 0.020000666706669435 2.433171132198228e-05
храниться 2.0501711593797225 0.0012470627490144299
писаться 3.9219733362813143 0.002385628550049461
лайфхак 3.5165082281731497 0.00427799054522281
следующий 1.9760631872260008 0.0012019849070717768
влипнуть 3.9219733362813143 0.002385628550049461
русский 2.8233610476132043 0.0017173729000080319
оставаться 2.312535423847214 0.0014066517176686217
расход 2.312535423847214 0.008439910306011728
наткнуться 3.5165082281731497 0.00427799054522281
слово 1.8425317946014783 0.001120761432239342
строчка 3.228826155721369 0.005892018532338264
скоро 1.4370666864933137 0.0017482563096025716
обед 3.005682604407159 0.005484822270815984
открыть 1.3192836508369303 0.0008024839725285464
вопрос 0.7864791203521645 0.0009567872510366965
бинарный 3.5165082281731497 0.002138995272611405
человеко 3.228826155721369 0.003928012354892176
трэш 3.9219733362813143 0.009542514200197845
вести 0.8084580270709397 0.0014752883705674083
профессия 0.6448286032891376 0.00039223151051650704
карма 0.009950330853168092 6.052512684408815e-06
платный 2.5356789751614235 0.001542383804842715
наём 0.6448286032891376 0.00039223151051650704
поддержка 0.009950330853168092 1.8157538053226443e-05
инженер 0.5720692490067093 0.0006959479914923471
ссылка 1.8425317946014783 0.001120761432239342
построение 0.5720692490067093 0.00034797399574617357
данный 0.9015484501369516 0.0005483871351198002
формат 1.2829160066660557 0.013266163085962863
сам 0.19627990904466155 0.00023878334433657125
веб 0.3524406397999441 0.00042875990243302205
полезный 2.130213867053259 0.0025915010548093176
рекомендовать 2.217225244042889 0.0013486771557438498
москва 0.6261364702769852 0.0011425847997755204
приложение 1.3570239788197773 0.0008254403764110568
яндекс 0.009950330853168092 1.210502536881763e-05
понравиться 3.005682604407159 0.0018282740902719947
пустой 3.9219733362813143 0.002385628550049461
карьера 0.6077873316087886 0.00036970032336301013
удобный 3.9219733362813143 0.004771257100098922
список 1.670681537674819 0.0020324592915752057
ввод 1.3192836508369303 0.0008024839725285464
тема 0.4407332469456224 0.00026808591663359026
обрабатывать 1.7247487589450947 0.0010491172499666026
различный 1.3192836508369303 0.0008024839725285464
генерация 1.670681537674819 0.0010162296457876029
давно 1.3192836508369303 0.0016049679450570928
транзакция 3.005682604407159 0.0036565481805439894
пользоваться 1.0597724553518457 0.0006446304472943101
он 0.009950330853168092 2.421005073763526e-05
поиск 0.009950330853168092 6.052512684408815e-06
алгоритм 0.5546775062948401 0.00033739507682167895
конец 0.9262410627273231 0.0005634069724618754
нужный 2.312535423847214 0.0028133034353372433
готовый 2.130213867053259 0.0012957505274046588
появиться 3.228826155721369 0.001964006177446088
полный 1.9070703157390494 0.002320036880461131
понятно 1.7819071727850435 0.0010838851415967419
пока 0.6261364702769852 0.000761723199850347
пример 0.25841169015166776 0.0001571847263696276
чизбургер 3.9219733362813143 0.004771257100098922
целое 1.5240780634829436 0.0009270547831404767
администратор 0.5375830729355401 0.00032699700300215336
перейти 2.41789593950504 0.004412218867709927
компетенция 0.6448286032891376 0.00039223151051650704
отдельно 1.8425317946014783 0.002241522864478684
документация 2.41789593950504 0.0014707396225699758
вправо 0.6448286032891376 0.00039223151051650704
голосование 0.009950330853168092 1.210502536881763e-05
публикация 0.020000666706669435 1.216585566099114e-05
качественный 0.5546775062948401 0.00033739507682167895
дть 0.4562374334815876 0.00027751668703259586
тренировка 0.6448286032891376 0.00039223151051650704
функционал 1.0887599922250981 0.0006622627689933687
получиться 2.130213867053259 0.0012957505274046588
детальный 3.9219733362813143 0.002385628550049461
привязать 3.5165082281731497 0.00427799054522281
браться 1.8425317946014783 0.001120761432239342
этот 0.3246610756928683 0.0005924472184176429
абсолютно 2.130213867053259 0.0025915010548093176
софт 2.41789593950504 0.005882958490279903
получатель 3.9219733362813143 0.002385628550049461
более 0.27131509498757567 0.0004951005382984957
репозиторий 2.41789593950504 0.004412218867709927
валюта 3.228826155721369 0.003928012354892176
апрель 0.6261364702769852 0.0003808615999251735
войти 0.009950330853168092 6.052512684408815e-06
нужно 0.1607732205877518 0.0001955878595958051
запуск 0.297632403304949 0.0003620832156994513
редактор 2.312535423847214 0.0028133034353372433
принцип 0.3810140122440001 0.00023176034808029204
будущее 0.48798613179616795 0.0005936570946425402
забавно 3.9219733362813143 0.002385628550049461
месяц 1.4796263009121098 0.0018000319962434427
продукт 1.1811333123561132 0.0007184509199246431
грань 0.20840126957700633 0.00012676476251642722
число 1.4796263009121098 0.0018000319962434427
вырасти 3.5165082281731497 0.002138995272611405
картинка 2.8233610476132043 0.006869491600032127
команда 1.149384614041533 0.0013982781192719378
погружаться 3.9219733362813143 0.002385628550049461
точка 1.1186129553747792 0.0006804215057024204
рисовать 3.9219733362813143 0.002385628550049461
сумма 2.130213867053259 0.0025915010548093176
отступ 3.005682604407159 0.0018282740902719947
обучение 0.5207759546191588 0.0006335473900476384
расплачиваться 3.9219733362813143 0.002385628550049461
индустрия 0.5720692490067093 0.00034797399574617357
настройка 0.009950330853168092 6.052512684408815e-06
поддерживать 2.130213867053259 0.0012957505274046588
идея 2.8233610476132043 0.0034347458000160637
можно 0.05077232537342314 0.00030883409594539623
свой 0.3810140122440001 0.00023176034808029204
сборщик 0.6077873316087886 0.0007394006467260203
обычный 2.41789593950504 0.0029414792451399516
дважды 3.5165082281731497 0.002138995272611405
график 2.41789593950504 0.0029414792451399516
умный 3.228826155721369 0.001964006177446088
объединять 2.8233610476132043 0.0017173729000080319
менеджер 1.9760631872260008 0.0024039698141435535
валидный 3.9219733362813143 0.002385628550049461
любой 1.5240780634829436 0.0027811643494214298
появление 1.7819071727850435 0.0010838851415967419
который 0.1153108465109944 0.0004909829231003411
шпаргалка 3.9219733362813143 0.004771257100098922
ещё 1.0597724553518457 0.005801674025648791
дело 0.36662527479190044 0.00044601614938187404
конкретный 2.41789593950504 0.004412218867709927
мобильный 3.5165082281731497 0.002138995272611405
интеллект 0.5207759546191588 0.0003167736950238192
финансы 1.9070703157390494 0.016240258163227914
написать 1.213923135179104 0.0014767921352543845
четверг 0.6448286032891376 0.00039223151051650704
знать 0.297632403304949 0.000543124823549177
почитать 2.41789593950504 0.0029414792451399516
легко 1.149384614041533 0.0013982781192719378
командный 3.228826155721369 0.001964006177446088
потратить 3.228826155721369 0.003928012354892176
искусственный 0.5207759546191588 0.0003167736950238192
исходный 2.312535423847214 0.0028133034353372433
короткий 3.9219733362813143 0.002385628550049461
тег 0.009950330853168092 6.052512684408815e-06
англоязычный 3.9219733362813143 0.004771257100098922
добавить 0.009950330853168092 6.052512684408815e-06
стать 0.22067136216882066 0.00040268496746135153
кто 0.030153038170687457 5.502379228227638e-05
заключение 1.670681537674819 0.0010162296457876029
интернет 1.7247487589450947 0.0031473517498998077
предыстория 3.5165082281731497 0.002138995272611405
инструмент 0.9775343571148737 0.0005946072731842297
каждый 1.0597724553518457 0.0012892608945886202
браузер 1.9070703157390494 0.0011600184402305654
указываться 3.228826155721369 0.001964006177446088
изучать 2.8233610476132043 0.0034347458000160637
далёкий 1.3192836508369303 0.0008024839725285464
сортировать 3.9219733362813143 0.004771257100098922
разработчик 0.3246610756928683 0.0001974824061392143
какой 0.5720692490067093 0.0006959479914923471
читабельный 3.9219733362813143 0.002385628550049461
рейтинг 0.009950330853168092 6.052512684408815e-06
влево 0.6261364702769852 0.0003808615999251735
идти 2.130213867053259 0.0012957505274046588
назвать 2.6692103677859462 0.0016236072796751498
углубиться 3.9219733362813143 0.004771257100098922
лихой 0.6448286032891376 0.00039223151051650704
стабильный 3.5165082281731497 0.002138995272611405
нюанс 3.005682604407159 0.0018282740902719947
пробел 3.005682604407159 0.0018282740902719947
гик 1.7819071727850435 0.0021677702831934837
многие 1.670681537674819 0.0010162296457876029
экспорт 2.8233610476132043 0.0034347458000160637
финансовый 2.5356789751614235 0.001542383804842715
уровень 0.13778370236305296 8.381003793373051e-05
близкий 0.6448286032891376 0.00039223151051650704
обновить 0.009950330853168092 6.052512684408815e-06
прекрасный 2.8233610476132043 0.0017173729000080319
безумный 3.9219733362813143 0.002385628550049461
увидеть 1.6193882432872684 0.001970058690130497
ковалёв 3.9219733362813143 0.002385628550049461
встреча 0.5042466526679482 0.00030671937510215827
смотреть 1.1186129553747792 0.0013608430114048409
инфраструктура 2.217225244042889 0.0013486771557438498
строка 1.4370666864933137 0.0008741281548012858
включать 2.130213867053259 0.0025915010548093176
подобный 2.130213867053259 0.0012957505274046588
начало 0.4719857904497268 0.00028709597959229125
аналог 1.4796263009121098 0.0018000319962434427
изначально 1.6193882432872684 0.0009850293450652484
изучение 2.8233610476132043 0.0017173729000080319
март 0.5207759546191588 0.0009503210850714576
найти 1.0597724553518457 0.0025785217891772403
конкурс 0.6448286032891376 0.00039223151051650704
операционный 0.5897688261061103 0.00035874016186503057
вытаскивать 3.9219733362813143 0.004771257100098922
альтернатива 3.9219733362813143 0.002385628550049461
вид 0.22067136216882066 0.00013422832248711719
прочтение 0.009950330853168092 1.210502536881763e-05
пост 0.13778370236305296 0.00016762007586746102
очень 0.7864791203521645 0.001913574502073393
подогнать 3.9219733362813143 0.004771257100098922
случай 0.5546775062948401 0.0006747901536433579
простой 0.17246926035094298 0.00010490830921590206
фишка 3.5165082281731497 0.002138995272611405
подкорректировать 3.9219733362813143 0.004771257100098922
выдавать 3.005682604407159 0.0036565481805439894
назад 0.13778370236305296 0.00016762007586746102
прочитать 3.005682604407159 0.0036565481805439894
