турнир 4.61512051684126 0.010168663398768906
попытка 2.6692103677859462 0.0016803338796260285
использовать 0.08252102368800344 0.0001298725585269176
получать 1.2478246868547855 0.002749377654385741
компания 0.48798613179616795 0.0003071993275392936
ключ 0.22067136216882066 0.0002083771125295757
заполняться 3.5165082281731497 0.0011068644092455616
вывестись 4.61512051684126 0.0014526661998241295
флаг 2.217225244042889 0.011166384609595915
самый 1.3570239788197773 0.0004271400625809812
код 0.6077873316087886 0.002869628572279455
дать 0.009950330853168092 1.5659947833125734e-05
программный 1.9070703157390494 0.000600273942631114
специалист 1.6193882432872684 0.0010194449123621457
уверенный 4.61512051684126 0.0014526661998241295
календарь 0.5897688261061103 0.0001856370242701008
координата 4.61512051684126 0.010168663398768906
изменение 2.130213867053259 0.0013410222644339054
похожий 0.020000666706669435 6.295456942609202e-06
примечание 4.61512051684126 0.0014526661998241295
целый 2.6692103677859462 0.0016803338796260285
привести 1.9070703157390494 0.000600273942631114
тестировать 3.005682604407159 0.0009460757332096818
вывод 0.9775343571148737 0.0009230730473228269
способ 0.5897688261061103 0.0007425480970804032
ошибка 2.0501711593797225 0.0006453167010952856
генерировать 2.130213867053259 0.0006705111322169527
пароль 2.312535423847214 0.004367394568172265
сервер 0.36662527479190044 0.00011539983468426201
разный 2.8233610476132043 0.0008886877707312572
всерьёз 4.61512051684126 0.0014526661998241295
игра 1.149384614041533 0.0018089150362630357
единица 2.5356789751614235 0.000798136284281216
процесс 0.5207759546191588 0.00016392066560250515
находиться 1.3570239788197773 0.0008542801251619624
решить 1.3570239788197773 0.003844260563228831
меняться 2.0501711593797225 0.0006453167010952856
внимание 1.1186129553747792 0.0014083889900847078
материал 1.9070703157390494 0.001200547885262228
использоваться 1.213923135179104 0.0011462919123504287
просмотр 0.009950330853168092 3.131989566625147e-06
советовать 3.9219733362813143 0.001234489561309825
информационный 2.41789593950504 0.003044250474667976
являться 0.6261364702769852 0.00019708418957412185
создать 1.0887599922250981 0.0003427006585536979
перемещаться 3.5165082281731497 0.0011068644092455616
добавляться 3.9219733362813143 0.001234489561309825
уровень 0.13778370236305296 8.673824511366254e-05
нагрузка 2.8233610476132043 0.0008886877707312572
удовлетворить 3.9219733362813143 0.0049379582452393
константа 2.8233610476132043 0.0008886877707312572
ответ 0.4719857904497268 0.000594253434623515
запрос 1.0316015783851493 0.006494186832767701
переменный 2.5356789751614235 0.001596272568562432
мы 0.030153038170687457 3.796416515037766e-05
вызвать 3.228826155721369 0.0020326258455910413
букет 4.61512051684126 0.002905332399648259
страница 2.130213867053259 0.002682044528867811
следовать 1.3570239788197773 0.0008542801251619624
взлом 2.6692103677859462 0.0016803338796260285
мочь 1.004202604197035 0.0006321703520283507
шаг 1.1186129553747792 0.004225166970254123
ваш 0.7030975114131134 0.0004426172561618592
затем 1.004202604197035 0.0006321703520283507
ввести 1.5240780634829436 0.003837779196683522
полотно 4.61512051684126 0.002905332399648259
выполнение 1.2478246868547855 0.0007855364726816402
ответить 2.5356789751614235 0.000798136284281216
теперь 0.8084580270709397 0.00025447215205254633
бизнес 1.3570239788197773 0.0004271400625809812
вернуть 1.3570239788197773 0.0017085602503239248
обязательно 1.5705980791178364 0.000988730298468893
остальной 2.312535423847214 0.0007278990946953774
дзен 0.009950330853168092 3.131989566625147e-06
насколько 1.9070703157390494 0.001200547885262228
избежать 2.312535423847214 0.0014557981893907547
вариант 1.149384614041533 0.004703179094283893
столбец 2.5356789751614235 0.000798136284281216
комментарий 1.5705980791178364 0.000988730298468893
пять 1.7247487589450947 0.0005428859801526896
рассказывать 2.8233610476132043 0.0008886877707312572
действительный 3.5165082281731497 0.0011068644092455616
кнопка 2.5356789751614235 0.000798136284281216
безопасность 1.3570239788197773 0.0034171205006478496
назначать 3.5165082281731497 0.0011068644092455616
быстрый 2.5356789751614235 0.000798136284281216
падать 3.5165082281731497 0.0011068644092455616
сделать 0.9015484501369516 0.0011350940511639302
расположить 3.9219733362813143 0.001234489561309825
выполнять 1.7247487589450947 0.0005428859801526896
наш 0.663876798259832 0.0004179268481333535
недоставать 4.61512051684126 0.0014526661998241295
заинтересовать 3.5165082281731497 0.0011068644092455616
язык 0.009950330853168092 6.263979133250294e-06
проверка 1.0316015783851493 0.002272965391468695
приложение 1.4796263009121098 0.00046573065814041855
история 2.0501711593797225 0.0006453167010952856
блог 0.6448286032891376 0.00040593553874040765
предел 0.41042789745029334 0.00012918725132209422
кусок 3.5165082281731497 0.0011068644092455616
файл 0.9775343571148737 0.003384601173517032
игрок 2.6692103677859462 0.003360667759252057
текст 1.004202604197035 0.0012643407040567015
иметь 1.670681537674819 0.0010517353085771602
строка 1.0316015783851493 0.0003247093416383851
скрипт 2.0501711593797225 0.0012906334021905712
очко 2.312535423847214 0.0029115963787815094
запретить 2.6692103677859462 0.0008401669398130142
условие 1.2478246868547855 0.0019638411817041006
задать 2.6692103677859462 0.0016803338796260285
требоваться 1.1811333123561132 0.0007435526045679025
восклицательный 4.61512051684126 0.002905332399648259
вид 0.22067136216882066 0.0002778361500394343
обращаться 1.8425317946014783 0.0005799596457669116
значение 0.9262410627273231 0.005247824718001831
перезагружать 3.5165082281731497 0.0011068644092455616
ссылка 1.670681537674819 0.0015776029628657403
третий 2.5356789751614235 0.000798136284281216
попрактиковаться 4.61512051684126 0.002905332399648259
необходимый 1.4796263009121098 0.00046573065814041855
шаблонизатор 4.61512051684126 0.004357998599472389
хотеть 1.3570239788197773 0.0004271400625809812
массив 1.5705980791178364 0.004943651492344464
понятно 1.9070703157390494 0.002401095770524456
пример 0.25841169015166776 0.0002440148160072406
пара 0.7649729151312009 0.0004815693516721441
выбрать 1.670681537674819 0.0015776029628657403
кодировка 4.61512051684126 0.0014526661998241295
час 0.030153038170687457 2.8473123862783247e-05
запрашивать 3.5165082281731497 0.0011068644092455616
пользователь 0.7649729151312009 0.0016854927308525042
последний 1.8425317946014783 0.0005799596457669116
хабра 0.009950330853168092 1.2527958266500588e-05
доступ 0.7030975114131134 0.0004426172561618592
такой 0.3110554236370897 0.0005874512249992252
количество 0.009950330853168092 9.395968699875442e-06
мероприятие 3.228826155721369 0.0010163129227955207
выигрыш 4.61512051684126 0.002905332399648259
получить 0.8539204011476971 0.0034941659474095254
сохраняться 3.5165082281731497 0.0022137288184911233
сайт 0.36662527479190044 0.00046159933873704805
идти 1.3570239788197773 0.002135700312904906
возможный 3.228826155721369 0.0010163129227955207
случайный 3.9219733362813143 0.0037034686839294752
получаться 2.312535423847214 0.0007278990946953774
время 0.009950330853168092 3.131989566625147e-06
февраль 0.5546775062948401 0.00017459159782651562
создаваться 2.6692103677859462 0.0016803338796260285
должный 0.4407332469456224 0.0005549049379233521
мысль 3.005682604407159 0.0018921514664193635
кубик 4.61512051684126 0.0072633309991206475
кибербезопасность 4.61512051684126 0.002905332399648259
навигация 4.61512051684126 0.0014526661998241295
содержаться 2.8233610476132043 0.0017773755414625145
далее 1.3962446919730587 0.0026369115995714047
понятный 2.41789593950504 0.000761062618666994
результат 0.8084580270709397 0.0030536658246305562
пойти 3.5165082281731497 0.0011068644092455616
сутки 0.020000666706669435 1.2590913885218404e-05
интересный 3.9219733362813143 0.0037034686839294752
наблюдение 3.5165082281731497 0.0022137288184911233
добавлять 1.4796263009121098 0.0009314613162808371
объект 1.3570239788197773 0.0012814201877429437
инженер 0.5546775062948401 0.00017459159782651562
утечка 2.6692103677859462 0.0008401669398130142
решать 1.670681537674819 0.0010517353085771602
видеть 0.877450898557891 0.0016571310643208519
эмоция 3.9219733362813143 0.001234489561309825
происходить 1.2478246868547855 0.0007855364726816402
приложить 3.228826155721369 0.0010163129227955207
прошлый 3.005682604407159 0.0009460757332096818
бояться 4.61512051684126 0.002905332399648259
пробел 3.005682604407159 0.0009460757332096818
прописать 3.005682604407159 0.0009460757332096818
длительность 3.5165082281731497 0.0011068644092455616
вопрос 0.7864791203521645 0.0004951080392522282
передавать 1.9070703157390494 0.000600273942631114
оказаться 1.6193882432872684 0.0005097224561810728
администратор 0.5375830729355401 0.000507632741204476
карма 0.009950330853168092 3.131989566625147e-06
задача 0.4562374334815876 0.0030157337435043558
подарить 4.61512051684126 0.0014526661998241295
админ 0.4719857904497268 0.00014856335865587875
захватить 4.61512051684126 0.005810664799296518
поддержка 0.009950330853168092 6.263979133250294e-06
технический 0.009950330853168092 3.131989566625147e-06
готовый 1.7819071727850435 0.0011217545941360047
формат 1.2829160066660557 0.0004038136627844053
веб 0.3524406397999441 0.00022187009115514267
встречаться 3.5165082281731497 0.0011068644092455616
влево 4.61512051684126 0.005810664799296518
набрать 3.228826155721369 0.004065251691182083
форма 0.3384543978252041 0.0003195981093722418
числовой 4.61512051684126 0.0014526661998241295
двигаться 2.6692103677859462 0.0016803338796260285
частый 1.7819071727850435 0.0005608772970680023
вниз 2.8233610476132043 0.0017773755414625145
функция 1.4796263009121098 0.0013971919744212558
нравиться 2.6692103677859462 0.0016803338796260285
ввод 1.3192836508369303 0.0004152608280884263
порядок 2.312535423847214 0.0007278990946953774
прохождение 2.312535423847214 0.0007278990946953774
блок 1.5240780634829436 0.0028783343975126415
посмотреть 1.670681537674819 0.0010517353085771602
знать 0.297632403304949 0.0001873669520333327
генерация 1.670681537674819 0.0005258676542885801
часть 0.8539204011476971 0.0010751279838183154
символ 2.217225244042889 0.0006978990380997447
совершение 3.5165082281731497 0.0011068644092455616
он 0.009950330853168092 1.2527958266500588e-05
поиск 0.009950330853168092 3.131989566625147e-06
полезный 2.41789593950504 0.000761062618666994
весь 1.5705980791178364 0.000988730298468893
перевод 1.3962446919730587 0.0008789705331904682
тег 0.009950330853168092 9.395968699875442e-06
один 0.1264841471091197 0.00011943734382353136
девять 4.61512051684126 0.008715997198944779
подобный 2.6692103677859462 0.0008401669398130142
предупреждать 4.61512051684126 0.0014526661998241295
полный 1.9070703157390494 0.001200547885262228
перепробовать 4.61512051684126 0.0014526661998241295
описать 2.5356789751614235 0.000798136284281216
войти 0.009950330853168092 9.395968699875442e-06
квалификация 4.61512051684126 0.0014526661998241295
заменять 3.5165082281731497 0.0011068644092455616
этап 1.1811333123561132 0.0007435526045679025
команда 0.7439195059333684 0.0009366314207533754
реальный 2.130213867053259 0.0006705111322169527
исходный 2.6692103677859462 0.002520500819439043
показать 1.7819071727850435 0.0005608772970680023
роль 1.3570239788197773 0.0008542801251619624
комментировать 1.1186129553747792 0.00035209724752117695
перейти 2.5356789751614235 0.003192545137124864
обработать 4.61512051684126 0.002905332399648259
появиться 2.0501711593797225 0.0006453167010952856
голосование 0.009950330853168092 6.263979133250294e-06
выглядеть 1.2829160066660557 0.0004038136627844053
публикация 0.020000666706669435 6.295456942609202e-06
итог 1.1811333123561132 0.0007435526045679025
оставить 1.213923135179104 0.00038209730411680956
приводить 4.61512051684126 0.002905332399648259
таблица 2.0501711593797225 0.003226583505476428
запись 1.670681537674819 0.0005258676542885801
первый 1.1186129553747792 0.0010562917425635308
этот 0.3246610756928683 0.00020438216914879967
каждый 0.663876798259832 0.000835853696266707
вызов 1.8425317946014783 0.0005799596457669116
задание 2.5356789751614235 0.001596272568562432
участвовать 2.0501711593797225 0.0012906334021905712
решение 0.951558870711613 0.001198059642066872
редирект 4.61512051684126 0.002905332399648259
провести 2.6692103677859462 0.0008401669398130142
получиться 3.228826155721369 0.0010163129227955207
гипотеза 3.5165082281731497 0.0011068644092455616
быть 0.0404095383378767 6.359700714176376e-05
нужно 0.1607732205877518 0.00040484285952219526
обратить 1.8425317946014783 0.0017398789373007351
менять 1.2829160066660557 0.0004038136627844053
квадрат 3.228826155721369 0.006097877536773124
защитить 3.005682604407159 0.0009460757332096818
два 0.5042466526679482 0.00031743572720676624
архив 2.6692103677859462 0.005041001638878086
двигать 2.6692103677859462 0.0008401669398130142
сохранять 2.6692103677859462 0.0016803338796260285
второй 1.8425317946014783 0.0017398789373007351
содержать 1.2829160066660557 0.0008076273255688106
настройка 0.009950330853168092 3.131989566625147e-06
пробовать 1.5705980791178364 0.0004943651492344465
можно 0.05077232537342314 9.588730004423634e-05
желать 3.228826155721369 0.0010163129227955207
консоль 3.228826155721369 0.004065251691182083
ознакомиться 2.130213867053259 0.0013410222644339054
лидер 2.8233610476132043 0.0008886877707312572
дополнительно 2.5356789751614235 0.001596272568562432
сила 2.5356789751614235 0.000798136284281216
дело 1.5705980791178364 0.000988730298468893
поле 0.8084580270709397 0.0005089443041050927
который 0.13778370236305296 0.00026021473534098763
яндекс 0.009950330853168092 3.131989566625147e-06
другой 0.6077873316087886 0.00038261714297059405
передать 2.312535423847214 0.0029115963787815094
база 1.3192836508369303 0.0016610433123537053
ход 0.020000666706669435 1.2590913885218404e-05
призывать 3.9219733362813143 0.001234489561309825
обратиться 3.005682604407159 0.0018921514664193635
выигрывать 4.61512051684126 0.0014526661998241295
необходимо 0.6077873316087886 0.00038261714297059405
хороший 0.020000666706669435 6.295456942609202e-06
нажатие 3.5165082281731497 0.0033205932277366856
управление 1.3192836508369303 0.0004152608280884263
применять 2.41789593950504 0.000761062618666994
инъекция 3.9219733362813143 0.00246897912261965
обзор 1.2478246868547855 0.0003927682363408201
установка 1.9070703157390494 0.0018008218278933422
несколько 0.4562374334815876 0.0011488509499064214
разработка 1.0316015783851493 0.0003247093416383851
воспринимать 3.9219733362813143 0.001234489561309825
отличный 3.228826155721369 0.0010163129227955207
действие 1.6193882432872684 0.0005097224561810728
совпадать 3.9219733362813143 0.001234489561309825
окружение 3.5165082281731497 0.0022137288184911233
впечатление 3.5165082281731497 0.0022137288184911233
идентификатор 2.8233610476132043 0.0017773755414625145
сообщение 1.7247487589450947 0.0032573158809161376
добавить 0.009950330853168092 9.395968699875442e-06
выводиться 3.228826155721369 0.0010163129227955207
подробный 1.9760631872260008 0.0006219903012987097
заключение 1.670681537674819 0.0005258676542885801
образ 0.5042466526679482 0.0006348714544135325
точно 0.663876798259832 0.0004179268481333535
логика 2.6692103677859462 0.0008401669398130142
браузер 1.9070703157390494 0.000600273942631114
брутить 4.61512051684126 0.002905332399648259
она 0.1264841471091197 3.9812447941177116e-05
предыдущий 2.8233610476132043 0.0017773755414625145
прикреплять 3.9219733362813143 0.001234489561309825
написать 1.6193882432872684 0.0005097224561810728
далёкий 1.3192836508369303 0.0004152608280884263
находить 2.5356789751614235 0.000798136284281216
какой 0.5720692490067093 0.00018006586371001237
сценарий 3.228826155721369 0.0010163129227955207
следующий 1.7247487589450947 0.0010857719603053792
записать 2.0501711593797225 0.0006453167010952856
рейтинг 0.009950330853168092 3.131989566625147e-06
сторона 1.9070703157390494 0.000600273942631114
логинов 4.61512051684126 0.002905332399648259
система 0.9262410627273231 0.0002915458176667684
любой 1.4370666864933137 0.001357003481107945
сработать 3.9219733362813143 0.0037034686839294752
вывести 4.61512051684126 0.002905332399648259
середина 3.9219733362813143 0.001234489561309825
отслеживать 2.217225244042889 0.0013957980761994894
писать 0.7649729151312009 0.0007223540275082162
доставать 3.228826155721369 0.0010163129227955207
я 0.009950330853168092 2.1923926966376027e-05
инфраструктура 3.005682604407159 0.0018921514664193635
обеспечение 1.6193882432872684 0.0005097224561810728
привет 1.3962446919730587 0.0004394852665952341
знак 1.004202604197035 0.0006321703520283507
собирать 2.5356789751614235 0.000798136284281216
помощь 0.5897688261061103 0.0007425480970804032
нажимать 3.9219733362813143 0.001234489561309825
явно 1.7819071727850435 0.0011217545941360047
обновить 0.009950330853168092 3.131989566625147e-06
логин 2.41789593950504 0.005327438330668958
данные 0.10426101032440946 0.00019690464650502258
статья 0.7439195059333684 0.00023415785518834386
задаваться 3.5165082281731497 0.0022137288184911233
состоять 2.6692103677859462 0.0008401669398130142
туда 2.217225244042889 0.0013957980761994894
направление 2.217225244042889 0.0006978990380997447
кат 0.41042789745029334 0.00012918725132209422
смотреть 1.1186129553747792 0.0007041944950423539
листинг 3.5165082281731497 0.0022137288184911233
анонс 3.005682604407159 0.0009460757332096818
есть 0.2330938821673778 0.0002934767166098556
вызывать 2.8233610476132043 0.0008886877707312572
начало 0.4719857904497268 0.00014856335865587875
программа 1.7819071727850435 0.0005608772970680023
клавиша 3.5165082281731497 0.0011068644092455616
стать 0.6077873316087886 0.00019130857148529702
тип 0.9015484501369516 0.0005675470255819651
аргумент 2.312535423847214 0.0014557981893907547
три 0.05077232537342314 3.196243334807878e-05
категория 2.8233610476132043 0.0008886877707312572
обучать 3.228826155721369 0.0010163129227955207
отправить 2.6692103677859462 0.0008401669398130142
новичок 3.228826155721369 0.0010163129227955207
завершиться 3.005682604407159 0.0009460757332096818
бэкенд 3.005682604407159 0.0018921514664193635
слово 0.6261364702769852 0.00019708418957412185
прочтение 0.009950330853168092 6.263979133250294e-06
наследоваться 4.61512051684126 0.0014526661998241295
переходить 3.005682604407159 0.0028382271996290455
зацепиться 4.61512051684126 0.0014526661998241295
случай 0.5546775062948401 0.00034918319565303125
интересовать 3.9219733362813143 0.001234489561309825
рассказать 2.0501711593797225 0.0006453167010952856
демонстрировать 2.312535423847214 0.0007278990946953774
курс 0.3810140122440001 0.00011992886756185083
назад 0.13778370236305296 8.673824511366254e-05
каптать 4.61512051684126 0.0014526661998241295
