События 3.228826155721369 0.0014518103218171623
попытка 2.6692103677859462 0.0006000922589446822
использует 0.9262410627273231 0.00020823764899445215
Получаем 3.228826155721369 0.0007259051609085812
полученный 3.005682604407159 0.0006757379955951347
компании 0.5042466526679482 0.0009069184400502667
Хабы 0.009950330853168092 2.2370348141115316e-06
обнаружения 3.005682604407159 0.004054427973570808
попав 3.5165082281731497 0.0007905818858302945
Отправлен 4.61512051684126 0.0010375720586423697
защиты 2.130213867053259 0.0009578299761930122
Разбираем 3.5165082281731497 0.001581163771660589
кодом 2.130213867053259 0.0009578299761930122
каталога 2.8233610476132043 0.0012694968739268005
мониторинг 2.130213867053259 0.0004789149880965061
потоки 2.8233610476132043 0.0006347484369634002
Сохранена 4.61512051684126 0.0010375720586423697
постоянного 4.61512051684126 0.0010375720586423697
актуального 4.61512051684126 0.0010375720586423697
этичных 4.61512051684126 0.0010375720586423697
команду 1.6193882432872684 0.0007281421957226927
загрузить 2.6692103677859462 0.0006000922589446822
появлением 3.005682604407159 0.0006757379955951347
кибератаки 4.61512051684126 0.0010375720586423697
добавили 2.41789593950504 0.001087183426036439
Похожие 0.020000666706669435 4.496552766787194e-06
применить 2.41789593950504 0.0005435917130182195
Ветка 4.61512051684126 0.010375720586423694
новой 1.5240780634829436 0.0003426434495240431
сервер 0.36662527479190044 0.0008242474703055316
мин 0.009950330853168092 2.2370348141115316e-06
системам 3.005682604407159 0.0006757379955951347
распознавать 3.5165082281731497 0.0007905818858302945
порожден 4.61512051684126 0.0010375720586423697
захватили 4.61512051684126 0.0010375720586423697
Третья 3.5165082281731497 0.0007905818858302945
критических 3.9219733362813143 0.0008817386097754754
наличие 1.8425317946014783 0.0004142382631747928
поможет 1.8425317946014783 0.0004142382631747928
ip_сервера_атакующих 4.61512051684126 0.0020751441172847393
свой 0.9775343571148737 0.0004395388296379828
родительские 4.61512051684126 0.0010375720586423697
пакета 2.8233610476132043 0.0006347484369634002
сработавшего 4.61512051684126 0.0010375720586423697
доступен 1.9760631872260008 0.000444258810077788
свидетелем 4.61512051684126 0.0010375720586423697
получения 1.7819071727850435 0.0012018258809251643
Подделка 3.5165082281731497 0.0007905818858302945
токенов 4.61512051684126 0.0010375720586423697
программы 1.4796263009121098 0.0003326497978669312
программное 2.6692103677859462 0.0006000922589446822
шаги 2.130213867053259 0.0004789149880965061
периметре 3.9219733362813143 0.0026452158293264263
создана 4.61512051684126 0.0010375720586423697
пароль 2.312535423847214 0.0025995227336412024
получение 2.41789593950504 0.001087183426036439
сервера 1.9070703157390494 0.0012862434683491792
вложений 3.5165082281731497 0.0007905818858302945
видны 1.8425317946014783 0.0004142382631747928
источника 2.6692103677859462 0.0012001845178893644
чертежами 4.61512051684126 0.0010375720586423697
нем 0.3810140122440001 8.565962505485614e-05
примере 1.7819071727850435 0.001602434507900219
киберпреступников 4.61512051684126 0.0010375720586423697
Выполнение 3.005682604407159 0.002027213986785404
новые 1.0887599922250981 0.0004895503562163211
направлена 3.228826155721369 0.0007259051609085812
нагрузки 3.228826155721369 0.0007259051609085812
средства 1.3570239788197773 0.0003050863261735111
добавляется 3.005682604407159 0.0006757379955951347
внимание 1.1186129553747792 0.0002514867255788623
отдел 0.9262410627273231 0.00020823764899445215
Зная 3.9219733362813143 0.0008817386097754754
командной 3.005682604407159 0.0006757379955951347
демона 4.61512051684126 0.0010375720586423697
обнаружена 4.61512051684126 0.0010375720586423697
минувшем 4.61512051684126 0.0010375720586423697
просмотров 0.009950330853168092 2.2370348141115316e-06
предназначена 3.5165082281731497 0.0007905818858302945
патчей 4.61512051684126 0.0010375720586423697
сегмент 2.312535423847214 0.0015597136401847215
Информационная 2.5356789751614235 0.001140143424083374
является 0.6448286032891376 0.0001449704593725579
целью 2.217225244042889 0.0004984768983909374
процессов 2.130213867053259 0.0009578299761930122
Используйте 2.6692103677859462 0.002400369035778729
Ретроспектива 3.9219733362813143 0.0008817386097754754
начиная 2.130213867053259 0.0004789149880965061
другое 2.0501711593797225 0.0009218395500808105
инструмент 0.9775343571148737 0.0002197694148189914
подозрительного 3.9219733362813143 0.0008817386097754754
загрузки 2.0501711593797225 0.002304598875202026
проникнуть 3.9219733362813143 0.0017634772195509508
данные 0.6261364702769852 0.0014076809133925026
перехват 3.5165082281731497 0.001581163771660589
ответе 3.9219733362813143 0.0008817386097754754
Утечка 4.61512051684126 0.0031127161759271086
предоставляя 3.228826155721369 0.0007259051609085812
среде 2.312535423847214 0.0005199045467282405
запрос 1.0316015783851493 0.0023192481528443104
ноября 3.9219733362813143 0.0035269544391019017
пытались 3.5165082281731497 0.0007905818858302945
авторизацией 4.61512051684126 0.0010375720586423697
паролем 2.8233610476132043 0.0012694968739268005
подозрительной 4.61512051684126 0.0020751441172847393
нам 0.36662527479190044 0.00016484949406110632
отреагировали 3.5165082281731497 0.0007905818858302945
страницу 2.6692103677859462 0.0006000922589446822
периметровый 4.61512051684126 0.0010375720586423697
подозрительные 3.5165082281731497 0.001581163771660589
обратного 2.8233610476132043 0.0006347484369634002
незнакомой 4.61512051684126 0.0010375720586423697
очередь 2.6692103677859462 0.0006000922589446822
объектов 1.9760631872260008 0.000444258810077788
авторизовались 4.61512051684126 0.0010375720586423697
шеллов 4.61512051684126 0.0010375720586423697
сможем 3.228826155721369 0.0007259051609085812
извлекли 3.228826155721369 0.0007259051609085812
отрасли 4.61512051684126 0.0020751441172847393
Применяйте 4.61512051684126 0.0020751441172847393
порт 1.149384614041533 0.0002584048143078986
профиля 3.9219733362813143 0.0026452158293264263
название 1.8425317946014783 0.0004142382631747928
учетная 3.9219733362813143 0.0008817386097754754
Шаг 2.8233610476132043 0.001904245310890201
пользователем 2.8233610476132043 0.0012694968739268005
перебора 3.228826155721369 0.0036295258045429056
инциденты 3.9219733362813143 0.0008817386097754754
Сбор 3.005682604407159 0.0006757379955951347
киберучения 4.61512051684126 0.0010375720586423697
разведка 4.61512051684126 0.0010375720586423697
успешной 2.6692103677859462 0.0012001845178893644
выбрали 3.5165082281731497 0.0007905818858302945
выполнения 1.3570239788197773 0.0015254316308675553
следующему 3.5165082281731497 0.0007905818858302945
собрали 3.9219733362813143 0.0008817386097754754
воспользовались 4.61512051684126 0.0020751441172847393
Мухарлямов 4.61512051684126 0.0020751441172847393
отличается 2.312535423847214 0.0005199045467282405
видят 3.005682604407159 0.008784593942736752
прочитали 3.5165082281731497 0.0007905818858302945
Государстве 4.61512051684126 0.0010375720586423697
загрузили 3.9219733362813143 0.0035269544391019017
разработки 1.1186129553747792 0.0005029734511577246
Неконтролируемые 4.61512051684126 0.0010375720586423697
Дзен 0.009950330853168092 2.2370348141115316e-06
технологические 4.61512051684126 0.0010375720586423697
Каждый 2.6692103677859462 0.0006000922589446822
сместили 4.61512051684126 0.0010375720586423697
представленные 4.61512051684126 0.0010375720586423697
дампа 4.61512051684126 0.0010375720586423697
Реверс 3.9219733362813143 0.0017634772195509508
антивирусное 4.61512051684126 0.0010375720586423697
просмотра 2.8233610476132043 0.0012694968739268005
Проведение 4.61512051684126 0.0020751441172847393
сервисной 3.5165082281731497 0.0007905818858302945
перечислили 4.61512051684126 0.0010375720586423697
телеметрии 4.61512051684126 0.004150288234569479
изображения 2.5356789751614235 0.001140143424083374
безопасность 1.9760631872260008 0.0013327764302333638
реализовали 3.5165082281731497 0.0007905818858302945
разберем 2.5356789751614235 0.000570071712041687
спутники 3.9219733362813143 0.0008817386097754754
сплошного 4.61512051684126 0.0010375720586423697
действие 2.130213867053259 0.0004789149880965061
повышения 2.312535423847214 0.001039809093456481
портале 4.61512051684126 0.005187860293211847
содержимое 2.312535423847214 0.0005199045467282405
приведет 3.005682604407159 0.0006757379955951347
узлах 3.228826155721369 0.0007259051609085812
представлена 3.5165082281731497 0.0007905818858302945
дальнейших 2.6692103677859462 0.0006000922589446822
Атакующие 4.61512051684126 0.005187860293211847
карточке 3.9219733362813143 0.0017634772195509508
папку 2.5356789751614235 0.0017102151361250608
Учетные 4.61512051684126 0.0010375720586423697
соответствии 2.5356789751614235 0.001140143424083374
директора 0.6261364702769852 0.0004223042740177508
ранее 1.1186129553747792 0.0017604070790520356
Вводим 4.61512051684126 0.0010375720586423697
провели 2.8233610476132043 0.0006347484369634002
утечка 3.9219733362813143 0.0008817386097754754
Язык 0.009950330853168092 2.2370348141115316e-06
методом 3.005682604407159 0.0006757379955951347
перемещен 3.228826155721369 0.0007259051609085812
случаев 2.130213867053259 0.0004789149880965061
двухфакторной 4.61512051684126 0.0010375720586423697
следующий 2.130213867053259 0.0009578299761930122
неудачных 4.61512051684126 0.0010375720586423697
странице 2.5356789751614235 0.000570071712041687
этапов 3.5165082281731497 0.0007905818858302945
злоумышленниками 4.61512051684126 0.0010375720586423697
защиту 2.8233610476132043 0.0006347484369634002
Блог 0.7439195059333684 0.0003344961807254355
активности 3.005682604407159 0.002027213986785404
корреляций 4.61512051684126 0.0010375720586423697
шагами 4.61512051684126 0.0010375720586423697
указали 3.228826155721369 0.0014518103218171623
настроена 3.5165082281731497 0.001581163771660589
текста 2.130213867053259 0.0014367449642895182
Реализация 2.5356789751614235 0.001140143424083374
почты 3.9219733362813143 0.0008817386097754754
файл 0.9775343571148737 0.0008790776592759656
Правило 4.61512051684126 0.0010375720586423697
рекомендации 2.5356789751614235 0.000570071712041687
загружаемый 4.61512051684126 0.0010375720586423697
событий 2.0501711593797225 0.001843679100161621
смотрим 1.0887599922250981 0.00024477517810816057
активность 2.8233610476132043 0.0012694968739268005
подборе 4.61512051684126 0.0010375720586423697
расположенном 4.61512051684126 0.0010375720586423697
строки 1.9070703157390494 0.00042874782278305967
ОС 2.312535423847214 0.0005199045467282405
нашли 3.228826155721369 0.0036295258045429056
извлечь 3.228826155721369 0.0007259051609085812
подтверждающую 4.61512051684126 0.0010375720586423697
стран 0.5375830729355401 0.00012085950380745057
скрипта 3.228826155721369 0.0007259051609085812
последовательные 4.61512051684126 0.0010375720586423697
текущих 3.005682604407159 0.0006757379955951347
сработает 3.5165082281731497 0.0007905818858302945
сети 1.149384614041533 0.00180883370015529
конкретные 2.0501711593797225 0.00046091977504040524
цепи 3.228826155721369 0.0007259051609085812
функциям 3.9219733362813143 0.0008817386097754754
следующего 2.312535423847214 0.0005199045467282405
учетную 3.9219733362813143 0.0017634772195509508
обнаруженному 4.61512051684126 0.0010375720586423697
принципы 2.5356789751614235 0.000570071712041687
Каким 3.9219733362813143 0.0008817386097754754
вхождения 4.61512051684126 0.0010375720586423697
нормализация 4.61512051684126 0.0010375720586423697
срабатывания 4.61512051684126 0.007263004410496586
значение 1.149384614041533 0.0002584048143078986
сезоне 4.61512051684126 0.0010375720586423697
компьютере 3.005682604407159 0.0006757379955951347
вложением 4.61512051684126 0.0020751441172847393
возможность 1.004202604197035 0.0004515299479303216
разных 1.3962446919730587 0.0003139039325478999
сработке 4.61512051684126 0.0010375720586423697
приложения 1.0316015783851493 0.0004638496305688621
ссылке 1.9760631872260008 0.0013327764302333638
информацию 1.1186129553747792 0.0005029734511577246
конечных 3.5165082281731497 0.0007905818858302945
взлома 2.8233610476132043 0.0006347484369634002
этапа 2.41789593950504 0.0005435917130182195
поэтому 0.7649729151312009 0.0008599066042392096
породили 4.61512051684126 0.0010375720586423697
Получены 4.61512051684126 0.0020751441172847393
безопасной 2.8233610476132043 0.0006347484369634002
Атакам 4.61512051684126 0.0010375720586423697
первичных 3.9219733362813143 0.0008817386097754754
фокус 2.5356789751614235 0.000570071712041687
учетом 2.312535423847214 0.0005199045467282405
понятный 3.005682604407159 0.0006757379955951347
Вместе 3.9219733362813143 0.0008817386097754754
сетей 2.0501711593797225 0.0009218395500808105
техникой 4.61512051684126 0.0010375720586423697
сложные 2.0501711593797225 0.00046091977504040524
успешное 3.9219733362813143 0.0008817386097754754
Первая 2.312535423847214 0.0005199045467282405
полезной 3.9219733362813143 0.0008817386097754754
сработали 3.9219733362813143 0.0035269544391019017
политику 3.5165082281731497 0.0007905818858302945
проблема 1.5705980791178364 0.0003531020861326071
другие 1.213923135179104 0.00027291437391616547
использовать 0.19627990904466155 8.825535478626868e-05
Обнаружено 4.61512051684126 0.0010375720586423697
утилиты 2.8233610476132043 0.002538993747853601
серию 3.228826155721369 0.0007259051609085812
мастерски 4.61512051684126 0.0010375720586423697
ситуации 1.9760631872260008 0.000444258810077788
Обучайте 4.61512051684126 0.0010375720586423697
последних 2.41789593950504 0.0005435917130182195
инфраструктуры 3.228826155721369 0.0007259051609085812
исполняемого 4.61512051684126 0.0010375720586423697
шага 3.005682604407159 0.0006757379955951347
смогла 3.5165082281731497 0.0007905818858302945
часа 1.0316015783851493 0.00023192481528443105
проведения 2.5356789751614235 0.000570071712041687
какого 2.312535423847214 0.0005199045467282405
продолжения 4.61512051684126 0.0010375720586423697
паролей 3.5165082281731497 0.0023717456574908835
Сканирования 4.61512051684126 0.0010375720586423697
выполнено 4.61512051684126 0.0010375720586423697
нефтеперерабатывающий 4.61512051684126 0.0010375720586423697
источник 1.5240780634829436 0.0003426434495240431
уникальную 3.5165082281731497 0.0007905818858302945
преобразования 3.228826155721369 0.0007259051609085812
атакующего 4.61512051684126 0.0020751441172847393
размере 3.228826155721369 0.0007259051609085812
Сырое 4.61512051684126 0.0020751441172847393
данному 2.217225244042889 0.0004984768983909374
собранного 4.61512051684126 0.0010375720586423697
данными 1.3192836508369303 0.0008898046206184333
жизнедеятельность 4.61512051684126 0.0010375720586423697
использования 1.3192836508369303 0.0002966015402061444
целях 3.005682604407159 0.0006757379955951347
воссозданы 4.61512051684126 0.0010375720586423697
доступа 1.4796263009121098 0.001995898787201587
Обнаружена 4.61512051684126 0.0010375720586423697
подключено 4.61512051684126 0.0010375720586423697
доступна 2.8233610476132043 0.0006347484369634002
шелла 4.61512051684126 0.0031127161759271086
последней 2.41789593950504 0.0005435917130182195
принцип 0.3810140122440001 8.565962505485614e-05
интересовала 4.61512051684126 0.0010375720586423697
системные 3.005682604407159 0.0006757379955951347
спутника 3.9219733362813143 0.0035269544391019017
понять 1.7819071727850435 0.00040060862697505477
систем 0.48798613179616795 0.0001097091123642464
целей 2.217225244042889 0.0004984768983909374
Хабр 0.009950330853168092 6.711104442334595e-06
доступ 0.7030975114131134 0.0017387753204910626
подобные 2.6692103677859462 0.0012001845178893644
Айнур 4.61512051684126 0.0020751441172847393
шелл 4.61512051684126 0.004150288234569479
расположен 1.9760631872260008 0.000444258810077788
бизнес 1.3570239788197773 0.0003050863261735111
атак 2.41789593950504 0.005435917130182194
Количество 0.009950330853168092 2.2370348141115316e-06
узлами 3.9219733362813143 0.0008817386097754754
получить 0.951558870711613 0.0010696480111416513
сайт 1.0887599922250981 0.0004895503562163211
журналов 3.5165082281731497 0.0023717456574908835
обнаруживать 3.9219733362813143 0.0008817386097754754
Простой 0.2843871765549284 6.393596595209722e-05
аккаунтов 3.9219733362813143 0.0008817386097754754
Создание 2.41789593950504 0.0005435917130182195
фоновый 3.5165082281731497 0.0007905818858302945
вопросы 1.5240780634829436 0.0003426434495240431
выполнять 1.7819071727850435 0.00040060862697505477
Время 0.009950330853168092 2.2370348141115316e-06
алерты 4.61512051684126 0.0020751441172847393
Результат 1.7819071727850435 0.005608520777650766
правило 1.9760631872260008 0.003554070480622304
целевой 3.228826155721369 0.0007259051609085812
компрометации 3.9219733362813143 0.0008817386097754754
загруженный 4.61512051684126 0.0010375720586423697
создать 1.5240780634829436 0.0003426434495240431
проверка 1.9760631872260008 0.000444258810077788
расшифрованный 4.61512051684126 0.0020751441172847393
Лидер 4.61512051684126 0.0010375720586423697
сетевой 3.5165082281731497 0.001581163771660589
компьютер 1.4370666864933137 0.00032308153922961194
позволяет 0.9262410627273231 0.00020823764899445215
текущем 2.5356789751614235 0.001140143424083374
сообщает 3.005682604407159 0.0013514759911902694
дальнейшей 3.9219733362813143 0.0008817386097754754
Далее 1.7819071727850435 0.00040060862697505477
знаем 2.41789593950504 0.0005435917130182195
функции 1.4796263009121098 0.0006652995957338624
ветка 3.228826155721369 0.0021777154827257437
отображения 3.5165082281731497 0.0007905818858302945
пользователь 1.3570239788197773 0.0003050863261735111
сутки 0.020000666706669435 4.496552766787194e-06
сканирования 4.61512051684126 0.0031127161759271086
отправляли 4.61512051684126 0.0010375720586423697
внутренний 3.228826155721369 0.0014518103218171623
использовали 2.41789593950504 0.001087183426036439
проверки 1.3962446919730587 0.0006278078650957998
своих 1.2829160066660557 0.0002884253612108938
необработанное 4.61512051684126 0.0010375720586423697
выполнить 1.7819071727850435 0.00040060862697505477
блокировки 3.228826155721369 0.0014518103218171623
ноябре 3.9219733362813143 0.0008817386097754754
интерактивного 4.61512051684126 0.0010375720586423697
вторжений 4.61512051684126 0.0010375720586423697
которой 0.9262410627273231 0.00020823764899445215
последовательное 4.61512051684126 0.0010375720586423697
длилась 3.9219733362813143 0.0008817386097754754
введенные 3.228826155721369 0.0007259051609085812
закладки 0.009950330853168092 2.2370348141115316e-06
скачан 4.61512051684126 0.0010375720586423697
происходит 1.2478246868547855 0.0002805361256418133
компаний 2.130213867053259 0.0004789149880965061
мер 0.1153108465109944 5.1848402208180934e-05
стабильный 4.61512051684126 0.0010375720586423697
книги 3.228826155721369 0.0007259051609085812
имя 2.130213867053259 0.00239457494048253
достаточно 0.9775343571148737 0.0002197694148189914
открывает 2.312535423847214 0.0005199045467282405
Пятнадцать 4.61512051684126 0.0010375720586423697
Видим 3.5165082281731497 0.001581163771660589
процесса 1.670681537674819 0.0007512057273717711
адресу 2.8233610476132043 0.002538993747853601
реализации 2.217225244042889 0.0004984768983909374
чтении 3.9219733362813143 0.0008817386097754754
консольной 4.61512051684126 0.0010375720586423697
многое 2.312535423847214 0.0005199045467282405
базовых 3.5165082281731497 0.0007905818858302945
узлы 2.8233610476132043 0.0006347484369634002
знали 3.228826155721369 0.0007259051609085812
Вход 3.228826155721369 0.0007259051609085812
Разведка 4.61512051684126 0.0010375720586423697
устройствах 2.41789593950504 0.0005435917130182195
запроса 2.6692103677859462 0.0012001845178893644
Подбор 4.61512051684126 0.0020751441172847393
Карма 0.009950330853168092 2.2370348141115316e-06
Временной 4.61512051684126 0.004150288234569479
Веб 0.6261364702769852 0.0002815361826785005
аутентификации 2.6692103677859462 0.0006000922589446822
скомпрометированную 4.61512051684126 0.0010375720586423697
контроля 2.41789593950504 0.0005435917130182195
информация 2.217225244042889 0.0004984768983909374
бывают 3.5165082281731497 0.0007905818858302945
сообщать 3.9219733362813143 0.0008817386097754754
входа 2.130213867053259 0.0019156599523860243
опоры 4.61512051684126 0.0010375720586423697
однородного 4.61512051684126 0.0010375720586423697
поддержка 0.009950330853168092 2.2370348141115316e-06
чертежей 3.9219733362813143 0.0035269544391019017
создали 2.217225244042889 0.0009969537967818747
путь 1.670681537674819 0.00037560286368588556
расширением 3.5165082281731497 0.0007905818858302945
космической 4.61512051684126 0.0010375720586423697
альтернативные 4.61512051684126 0.0010375720586423697
срабатывание 3.9219733362813143 0.0026452158293264263
года 0.6261364702769852 0.00014076809133925025
добавленным 4.61512051684126 0.0010375720586423697
ссылок 3.005682604407159 0.0006757379955951347
находится 1.5240780634829436 0.0003426434495240431
данном 1.3570239788197773 0.0015254316308675553
веб 0.3524406397999441 0.0017431866177155507
использованием 1.5705980791178364 0.0007062041722652142
скрытые 3.005682604407159 0.0006757379955951347
дамп 3.5165082281731497 0.0007905818858302945
заголовок 4.61512051684126 0.0010375720586423697
Перехват 4.61512051684126 0.0020751441172847393
командлета 4.61512051684126 0.0010375720586423697
орбитальной 4.61512051684126 0.0010375720586423697
событие 2.312535423847214 0.0036393318270976833
Мы 1.149384614041533 0.0002584048143078986
владеет 4.61512051684126 0.0010375720586423697
сетевого 3.9219733362813143 0.0008817386097754754
произведен 3.005682604407159 0.0006757379955951347
Рекомендации 3.228826155721369 0.0007259051609085812
попытаются 3.5165082281731497 0.0007905818858302945
вызовы 3.228826155721369 0.0007259051609085812
обращения 2.5356789751614235 0.000570071712041687
Цепочка 4.61512051684126 0.0010375720586423697
запросу 3.9219733362813143 0.007053908878203803
пару 2.130213867053259 0.0004789149880965061
этапу 3.9219733362813143 0.0008817386097754754
ждут 3.9219733362813143 0.0008817386097754754
ценной 3.9219733362813143 0.0008817386097754754
Срабатыванием 4.61512051684126 0.0010375720586423697
результате 1.4370666864933137 0.00032308153922961194
Комментарии 0.009950330853168092 6.711104442334595e-06
Реализуйте 4.61512051684126 0.0031127161759271086
загрузке 3.5165082281731497 0.001581163771660589
повысить 3.228826155721369 0.0007259051609085812
качестве 0.27131509498757567 0.00012199419738649986
цепочку 3.5165082281731497 0.003162327543321178
чертежи 4.61512051684126 0.0020751441172847393
компьютеру 3.5165082281731497 0.0007905818858302945
Получен 2.312535423847214 0.0015597136401847215
Применение 3.5165082281731497 0.0007905818858302945
процессы 2.312535423847214 0.0015597136401847215
список 1.670681537674819 0.00037560286368588556
вернуться 3.005682604407159 0.0006757379955951347
финансового 3.5165082281731497 0.0023717456574908835
сотрудников 2.5356789751614235 0.001140143424083374
выполняли 3.9219733362813143 0.0008817386097754754
получен 1.0316015783851493 0.00023192481528443105
формой 3.228826155721369 0.0007259051609085812
посмотреть 1.670681537674819 0.0022536171821153136
защитой 4.61512051684126 0.0010375720586423697
киберполигоне 4.61512051684126 0.0010375720586423697
Шелл 4.61512051684126 0.0010375720586423697
интерпретатора 4.61512051684126 0.0010375720586423697
системы 1.1186129553747792 0.001005946902315449
такие 0.8309308829229982 0.00018681000065714888
внимания 1.9070703157390494 0.00042874782278305967
базу 2.41789593950504 0.001087183426036439
анти 1.2829160066660557 0.0002884253612108938
Поиск 0.009950330853168092 2.2370348141115316e-06
искомого 4.61512051684126 0.0010375720586423697
инвайт 4.61512051684126 0.0031127161759271086
сокрытия 4.61512051684126 0.0010375720586423697
данной 1.9070703157390494 0.00042874782278305967
Выполнены 4.61512051684126 0.0010375720586423697
этап 1.1811333123561132 0.00026554256123114057
завод 2.6692103677859462 0.0006000922589446822
обращение 3.228826155721369 0.0007259051609085812
выполняем 3.005682604407159 0.0006757379955951347
атакующими 4.61512051684126 0.0031127161759271086
локацию 3.9219733362813143 0.0017634772195509508
подобных 2.6692103677859462 0.0006000922589446822
система 1.2478246868547855 0.0002805361256418133
космических 3.228826155721369 0.0007259051609085812
версий 2.130213867053259 0.0004789149880965061
порту 3.228826155721369 0.0007259051609085812
Давайте 1.5705980791178364 0.0003531020861326071
Добавив 4.61512051684126 0.0010375720586423697
нормализации 4.61512051684126 0.0010375720586423697
Удаленное 4.61512051684126 0.0020751441172847393
кибербитвы 4.61512051684126 0.004150288234569479
станции 3.5165082281731497 0.0007905818858302945
технических 2.41789593950504 0.0005435917130182195
записи 1.7819071727850435 0.002804260388825383
процессом 3.228826155721369 0.0021777154827257437
портала 4.61512051684126 0.0010375720586423697
инцидента 3.9219733362813143 0.0017634772195509508
этапе 1.7247487589450947 0.00038775826415132525
выполнили 4.61512051684126 0.0010375720586423697
команд 0.7439195059333684 0.0010034885421763063
обеспечивающих 4.61512051684126 0.0010375720586423697
реальных 2.5356789751614235 0.000570071712041687
полетами 4.61512051684126 0.007263004410496586
попыток 3.228826155721369 0.0021777154827257437
следующие 1.3570239788197773 0.0009152589785205333
администраторов 0.6077873316087886 0.0001366428353437025
похищение 4.61512051684126 0.0020751441172847393
спам 3.9219733362813143 0.0008817386097754754
появилась 2.217225244042889 0.0004984768983909374
Голосование 0.009950330853168092 4.474069628223063e-06
смогли 2.8233610476132043 0.0012694968739268005
Сами 4.61512051684126 0.0010375720586423697
Публикации 0.020000666706669435 4.496552766787194e-06
Внедрившись 4.61512051684126 0.0010375720586423697
которая 0.663876798259832 0.0004477586319198508
запрещенными 4.61512051684126 0.0010375720586423697
Регулярно 3.228826155721369 0.0007259051609085812
надежную 4.61512051684126 0.0010375720586423697
записей 1.9760631872260008 0.000888517620155576
Вызов 4.61512051684126 0.0010375720586423697
компания 1.4796263009121098 0.0003326497978669312
атакующих 4.61512051684126 0.016601152938277915
Авторизация 4.61512051684126 0.0010375720586423697
получены 4.61512051684126 0.004150288234569479
Атакуемый 4.61512051684126 0.0010375720586423697
утечке 4.61512051684126 0.0010375720586423697
использование 0.9015484501369516 0.00040537250455798186
решили 1.9070703157390494 0.0008574956455661193
Техническая 0.009950330853168092 2.2370348141115316e-06
писем 3.5165082281731497 0.0007905818858302945
массив 1.5705980791178364 0.0003531020861326071
атакуемого 4.61512051684126 0.0020751441172847393
позволяющее 3.5165082281731497 0.0007905818858302945
код 0.6077873316087886 0.000273285670687405
электронной 4.61512051684126 0.0010375720586423697
Сессия 4.61512051684126 0.0010375720586423697
приложение 1.5240780634829436 0.0003426434495240431
вводить 2.8233610476132043 0.0006347484369634002
поменять 3.9219733362813143 0.0008817386097754754
поставили 3.9219733362813143 0.0008817386097754754
Войти 0.009950330853168092 2.2370348141115316e-06
Получение 3.005682604407159 0.0013514759911902694
привилегированных 4.61512051684126 0.0010375720586423697
шаг 1.1811333123561132 0.0026554256123114055
нужно 0.1607732205877518 3.6145058585375856e-05
удаленного 3.5165082281731497 0.0023717456574908835
шагом 2.5356789751614235 0.001140143424083374
начали 2.5356789751614235 0.000570071712041687
подозрительных 3.5165082281731497 0.0007905818858302945
сгенерированный 3.5165082281731497 0.0007905818858302945
правил 0.663876798259832 0.0005970115092264677
запуск 0.297632403304949 0.00013382751947164974
предотвратить 2.5356789751614235 0.001140143424083374
требует 1.1186129553747792 0.0002514867255788623
созданную 3.9219733362813143 0.0008817386097754754
учетной 4.61512051684126 0.006225432351854217
необходимости 1.670681537674819 0.00037560286368588556
переменная 4.61512051684126 0.0010375720586423697
Средний 2.217225244042889 0.0004984768983909374
языка 0.009950330853168092 2.2370348141115316e-06
нужного 3.005682604407159 0.0006757379955951347
обнаружен 2.41789593950504 0.0005435917130182195
попытки 2.6692103677859462 0.0006000922589446822
учетные 3.5165082281731497 0.004743491314981767
сырого 4.61512051684126 0.0010375720586423697
атака 3.5165082281731497 0.0007905818858302945
обработки 1.5240780634829436 0.0003426434495240431
действовали 3.5165082281731497 0.001581163771660589
цепочка 4.61512051684126 0.0020751441172847393
агента 3.228826155721369 0.0007259051609085812
страницы 2.217225244042889 0.0004984768983909374
Сработали 4.61512051684126 0.0010375720586423697
мировых 4.61512051684126 0.0010375720586423697
команда 1.149384614041533 0.0005168096286157972
соединений 3.005682604407159 0.0006757379955951347
вектор 3.005682604407159 0.0006757379955951347
сработки 4.61512051684126 0.0020751441172847393
неожиданного 3.9219733362813143 0.0008817386097754754
механизм 1.7247487589450947 0.0007755165283026505
пробросили 4.61512051684126 0.0010375720586423697
две 0.9015484501369516 0.00020268625227899093
точки 1.3192836508369303 0.0002966015402061444
устанавливаем 2.6692103677859462 0.0006000922589446822
получили 1.9760631872260008 0.003554070480622304
легенде 4.61512051684126 0.0010375720586423697
аватара 4.61512051684126 0.0020751441172847393
Настройка 0.009950330853168092 2.2370348141115316e-06
выявляет 3.5165082281731497 0.0007905818858302945
Методом 4.61512051684126 0.0031127161759271086
загрузку 2.8233610476132043 0.0006347484369634002
прокси 3.228826155721369 0.0014518103218171623
входных 4.61512051684126 0.0010375720586423697
технологии 1.9070703157390494 0.0008574956455661193
потенциально 2.5356789751614235 0.001140143424083374
Настройки 0.009950330853168092 2.2370348141115316e-06
обнаружить 2.8233610476132043 0.0006347484369634002
автоматизированного 3.5165082281731497 0.0007905818858302945
сообщающая 4.61512051684126 0.0010375720586423697
космолифта 4.61512051684126 0.006225432351854217
правильной 3.228826155721369 0.0007259051609085812
скриншоте 3.228826155721369 0.0014518103218171623
процесс 0.5207759546191588 0.00011708092504927132
вредоносного 4.61512051684126 0.004150288234569479
параметры 1.9070703157390494 0.00042874782278305967
стороны 1.3570239788197773 0.0003050863261735111
отвечает 2.217225244042889 0.0004984768983909374
ветке 3.005682604407159 0.002027213986785404
команде 1.9760631872260008 0.000444258810077788
вики 3.9219733362813143 0.0017634772195509508
Отправляя 4.61512051684126 0.0010375720586423697
поля 2.41789593950504 0.0005435917130182195
выявления 2.8233610476132043 0.0012694968739268005
возможное 2.8233610476132043 0.0006347484369634002
новых 1.1186129553747792 0.0002514867255788623
выполнялась 4.61512051684126 0.0010375720586423697
создание 1.7819071727850435 0.00040060862697505477
нового 1.5240780634829436 0.0013705737980961724
Используя 3.005682604407159 0.002027213986785404
полном 3.005682604407159 0.0006757379955951347
которые 0.2456726643742379 0.00011046432750640194
сканируемой 4.61512051684126 0.0010375720586423697
используя 1.7247487589450947 0.00038775826415132525
фишинговой 4.61512051684126 0.0020751441172847393
захват 2.217225244042889 0.0004984768983909374
прошлого 2.6692103677859462 0.0006000922589446822
тело 2.0501711593797225 0.00046091977504040524
операция 2.6692103677859462 0.0006000922589446822
наименьших 4.61512051684126 0.0010375720586423697
Действия 4.61512051684126 0.013488436762350803
пакет 1.7247487589450947 0.0007755165283026505
имени 1.7247487589450947 0.0019387913207566262
методологию 4.61512051684126 0.0010375720586423697
возможных 3.005682604407159 0.0006757379955951347
получаем 3.228826155721369 0.0007259051609085812
Красные 4.61512051684126 0.0031127161759271086
валидную 4.61512051684126 0.0020751441172847393
Судя 3.5165082281731497 0.0007905818858302945
внутренней 3.9219733362813143 0.0008817386097754754
Яндекс 0.009950330853168092 2.2370348141115316e-06
центра 1.9760631872260008 0.003109811670544516
отправка 3.9219733362813143 0.0008817386097754754
администратора 2.41789593950504 0.0016307751390546585
файла 1.3570239788197773 0.0015254316308675553
системой 2.217225244042889 0.0009969537967818747
запись 1.9760631872260008 0.001777035240311152
назначения 3.9219733362813143 0.0008817386097754754
расшифрованного 4.61512051684126 0.0010375720586423697
Срабатывания 4.61512051684126 0.0010375720586423697
системами 3.5165082281731497 0.001581163771660589
Сетевые 4.61512051684126 0.0020751441172847393
узле 3.228826155721369 0.004355430965451487
блоке 3.228826155721369 0.0007259051609085812
известный 3.228826155721369 0.0007259051609085812
диапазон 2.130213867053259 0.0019156599523860243
цепочек 4.61512051684126 0.0010375720586423697
такому 3.9219733362813143 0.0008817386097754754
началом 4.61512051684126 0.0010375720586423697
контроль 2.217225244042889 0.0009969537967818747
Компания 1.7819071727850435 0.00040060862697505477
валидных 4.61512051684126 0.0010375720586423697
пользователей 1.1186129553747792 0.0005029734511577246
профиль 2.41789593950504 0.0005435917130182195
Реализовано 4.61512051684126 0.0020751441172847393
важным 2.130213867053259 0.0004789149880965061
ссылки 2.217225244042889 0.0004984768983909374
Локальная 4.61512051684126 0.0010375720586423697
Лучшие 0.020000666706669435 4.496552766787194e-06
нему 1.3962446919730587 0.0003139039325478999
Следующим 3.228826155721369 0.0014518103218171623
управления 1.7819071727850435 0.002804260388825383
исходное 3.9219733362813143 0.0008817386097754754
взаимодействием 3.9219733362813143 0.0008817386097754754
регистрации 2.5356789751614235 0.001140143424083374
результативной 4.61512051684126 0.0010375720586423697
коду 2.5356789751614235 0.000570071712041687
начать 1.9070703157390494 0.00042874782278305967
пополнился 4.61512051684126 0.0010375720586423697
установке 2.8233610476132043 0.0006347484369634002
Внедрите 4.61512051684126 0.0020751441172847393
специалисты 3.005682604407159 0.0006757379955951347
легко 1.149384614041533 0.0002584048143078986
пользователе 1.0597724553518457 0.00047651639179489467
состояния 1.9070703157390494 0.00042874782278305967
запуска 1.213923135179104 0.00027291437391616547
Вторая 3.9219733362813143 0.0008817386097754754
события 0.5897688261061103 0.0009281433864079973
привлекло 4.61512051684126 0.0010375720586423697
запускает 2.312535423847214 0.0005199045467282405
сложности 0.1607732205877518 3.6145058585375856e-05
учетных 3.5165082281731497 0.006324655086642356
специфичное 4.61512051684126 0.0010375720586423697
Запуск 2.217225244042889 0.0004984768983909374
действий 2.41789593950504 0.0005435917130182195
запущенным 3.9219733362813143 0.0008817386097754754
возможности 0.9262410627273231 0.0004164752979889043
подверглись 4.61512051684126 0.0010375720586423697
сможет 1.7247487589450947 0.00038775826415132525
вредоносных 3.5165082281731497 0.001581163771660589
событиям 4.61512051684126 0.0020751441172847393
звеном 4.61512051684126 0.0010375720586423697
нормализованных 4.61512051684126 0.0010375720586423697
Часть 3.005682604407159 0.0006757379955951347
обновляйте 4.61512051684126 0.0010375720586423697
Теги 0.009950330853168092 2.2370348141115316e-06
первоначальный 3.9219733362813143 0.0008817386097754754
новая 2.6692103677859462 0.0012001845178893644
Аналитик 2.5356789751614235 0.000570071712041687
Запрос 2.8233610476132043 0.001904245310890201
Загрузка 3.9219733362813143 0.0035269544391019017
можем 1.6193882432872684 0.0043688531743361556
запущен 2.41789593950504 0.0005435917130182195
этих 1.004202604197035 0.0002257649739651608
сообщение 1.7247487589450947 0.0007755165283026505
Добавить 0.009950330853168092 2.2370348141115316e-06
подключения 2.41789593950504 0.0005435917130182195
пользователя 1.2829160066660557 0.004037955056952513
адрес 1.6193882432872684 0.002548497685029424
Заключение 1.670681537674819 0.00037560286368588556
построила 3.9219733362813143 0.0008817386097754754
корреляции 4.61512051684126 0.009338148527781327
составить 3.5165082281731497 0.0007905818858302945
образом 0.9775343571148737 0.0002197694148189914
мир 0.4719857904497268 0.00021222382664106424
методология 3.9219733362813143 0.0008817386097754754
сигналов 2.41789593950504 0.002174366852072878
несколько 0.48798613179616795 0.0003291273370927392
точно 0.663876798259832 0.00029850575461323384
погрузимся 4.61512051684126 0.0010375720586423697
утилит 2.312535423847214 0.0005199045467282405
указывается 3.228826155721369 0.0007259051609085812
инструмента 1.9760631872260008 0.000444258810077788
определения 2.41789593950504 0.001087183426036439
критерий 3.9219733362813143 0.0008817386097754754
обратились 3.9219733362813143 0.0008817386097754754
соединения 2.6692103677859462 0.0006000922589446822
пробраться 4.61512051684126 0.0010375720586423697
Ограничьте 4.61512051684126 0.0010375720586423697
поиск 1.1811333123561132 0.00026554256123114057
Меню 0.009950330853168092 2.2370348141115316e-06
фильтров 2.8233610476132043 0.0006347484369634002
группы 1.670681537674819 0.00037560286368588556
Похищение 4.61512051684126 0.0020751441172847393
неправильной 3.5165082281731497 0.0007905818858302945
красные 4.61512051684126 0.004150288234569479
будущем 1.9760631872260008 0.0013327764302333638
сканирование 3.228826155721369 0.0007259051609085812
космолифт 4.61512051684126 0.0031127161759271086
запросы 1.8425317946014783 0.0004142382631747928
нескольких 1.4796263009121098 0.0009979493936007936
какие 1.0316015783851493 0.0004638496305688621
Итоговая 4.61512051684126 0.0010375720586423697
файлов 1.7247487589450947 0.00038775826415132525
управлением 3.228826155721369 0.0007259051609085812
записан 2.6692103677859462 0.0006000922589446822
заканчивая 2.8233610476132043 0.0006347484369634002
Рейтинг 0.009950330853168092 2.2370348141115316e-06
инцидентов 3.9219733362813143 0.0008817386097754754
Захвачен 4.61512051684126 0.0010375720586423697
вводе 4.61512051684126 0.0010375720586423697
аудит 2.41789593950504 0.0005435917130182195
защитных 4.61512051684126 0.0010375720586423697
интересующего 4.61512051684126 0.0010375720586423697
функцию 2.217225244042889 0.0004984768983909374
ключевым 3.005682604407159 0.0006757379955951347
зашли 4.61512051684126 0.0010375720586423697
файлу 3.5165082281731497 0.003162327543321178
исследований 3.5165082281731497 0.0007905818858302945
запросов 2.41789593950504 0.0005435917130182195
Повышение 3.5165082281731497 0.001581163771660589
одна 0.9262410627273231 0.00020823764899445215
примера 1.9760631872260008 0.000444258810077788
множество 1.4796263009121098 0.0003326497978669312
требуйте 4.61512051684126 0.0010375720586423697
получено 3.9219733362813143 0.0017634772195509508
систему 1.4796263009121098 0.0013305991914677247
реализовать 2.41789593950504 0.0005435917130182195
одной 0.7864791203521645 0.00017681634900003698
следующей 1.670681537674819 0.00037560286368588556
блокирования 3.9219733362813143 0.0008817386097754754
залили 4.61512051684126 0.0010375720586423697
сработало 3.9219733362813143 0.005290431658652853
инновационного 4.61512051684126 0.0010375720586423697
который 0.3524406397999441 0.00031694302140282746
подбора 3.228826155721369 0.0014518103218171623
информационной 2.6692103677859462 0.0012001845178893644
сегмента 3.005682604407159 0.0006757379955951347
которое 1.0316015783851493 0.0006957744458532932
страницам 4.61512051684126 0.0010375720586423697
атакующие 4.61512051684126 0.008300576469138957
авторизации 2.6692103677859462 0.0012001845178893644
оператор 2.6692103677859462 0.0012001845178893644
полученное 3.5165082281731497 0.0007905818858302945
актуальный 4.61512051684126 0.0020751441172847393
радиосвязи 4.61512051684126 0.0010375720586423697
выполнена 3.9219733362813143 0.0008817386097754754
правила 2.5356789751614235 0.0034204302722501217
сырое 4.61512051684126 0.0010375720586423697
узнаем 3.5165082281731497 0.0007905818858302945
права 2.130213867053259 0.0019156599523860243
создании 2.8233610476132043 0.0006347484369634002
разделе 1.9070703157390494 0.00042874782278305967
Иногда 1.9070703157390494 0.00042874782278305967
отправив 4.61512051684126 0.0010375720586423697
кода 1.2478246868547855 0.0011221445025672533
отреагировал 3.5165082281731497 0.0007905818858302945
безопасности 1.4796263009121098 0.0009979493936007936
фишинговый 4.61512051684126 0.0010375720586423697
запросе 3.228826155721369 0.0007259051609085812
сырым 4.61512051684126 0.0010375720586423697
инфраструктура 3.005682604407159 0.0013514759911902694
аномальную 4.61512051684126 0.0010375720586423697
злоумышленники 3.5165082281731497 0.0023717456574908835
финансовых 2.5356789751614235 0.0028503585602084346
совершенствования 4.61512051684126 0.0010375720586423697
Учетная 4.61512051684126 0.0010375720586423697
помощью 0.6448286032891376 0.0017396455124706952
сессию 3.9219733362813143 0.0008817386097754754
документов 3.5165082281731497 0.003952909429151472
целых 4.61512051684126 0.0010375720586423697
Уровень 0.17246926035094298 3.877456392781992e-05
Сергей 4.61512051684126 0.0010375720586423697
хакеры 3.5165082281731497 0.003162327543321178
кибербезопасности 3.005682604407159 0.002027213986785404
центром 3.9219733362813143 0.0017634772195509508
дней 1.4370666864933137 0.00032308153922961194
Обновить 0.009950330853168092 2.2370348141115316e-06
обнаружении 4.61512051684126 0.0010375720586423697
логин 2.41789593950504 0.001087183426036439
сайте 1.5240780634829436 0.0003426434495240431
полю 4.61512051684126 0.0010375720586423697
впечатляющих 4.61512051684126 0.0010375720586423697
ходов 2.217225244042889 0.0004984768983909374
данных 0.14921239818667575 0.00040255143395685907
статье 0.951558870711613 0.0002139296022283303
запрещенным 4.61512051684126 0.0010375720586423697
конфигураций 3.9219733362813143 0.0008817386097754754
сервере 1.9760631872260008 0.0022212940503889395
привилегий 4.61512051684126 0.005187860293211847
увидеть 1.6193882432872684 0.003640710978613463
безопасных 4.61512051684126 0.0010375720586423697
выполнение 2.312535423847214 0.0025995227336412024
механизму 3.9219733362813143 0.0008817386097754754
связанные 2.312535423847214 0.0005199045467282405
Болдырев 4.61512051684126 0.0010375720586423697
пустым 3.9219733362813143 0.0008817386097754754
пришлось 2.5356789751614235 0.000570071712041687
пары 2.8233610476132043 0.0006347484369634002
мониторинга 2.41789593950504 0.001087183426036439
опасную 4.61512051684126 0.0010375720586423697
сетевым 3.5165082281731497 0.0007905818858302945
инфраструктуру 2.6692103677859462 0.0012001845178893644
банки 3.5165082281731497 0.0007905818858302945
хакеров 3.9219733362813143 0.0008817386097754754
новую 1.9070703157390494 0.00042874782278305967
компоненты 2.41789593950504 0.0005435917130182195
цепочки 3.005682604407159 0.0013514759911902694
строка 1.8425317946014783 0.0004142382631747928
сгенерировали 3.5165082281731497 0.0007905818858302945
время 0.5897688261061103 0.0001325919123439996
информации 1.5240780634829436 0.0006852868990480862
внутреннюю 3.5165082281731497 0.0007905818858302945
неизвестно 3.5165082281731497 0.0007905818858302945
проводить 1.9760631872260008 0.000444258810077788
важными 3.005682604407159 0.0006757379955951347
сначала 2.217225244042889 0.0004984768983909374
важные 3.5165082281731497 0.0007905818858302945
узел 3.228826155721369 0.0036295258045429056
системе 1.5705980791178364 0.0017655104306630355
котором 1.004202604197035 0.0004515299479303216
индикаторы 3.9219733362813143 0.0008817386097754754
поступают 3.228826155721369 0.0007259051609085812
найти 1.0597724553518457 0.0016678073712821312
командам 2.5356789751614235 0.000570071712041687
таблицу 2.41789593950504 0.0005435917130182195
адрес_сервера_атакующих 4.61512051684126 0.0010375720586423697
подключен 1.8425317946014783 0.0020711913158739637
сильных 4.61512051684126 0.0010375720586423697
обхода 3.5165082281731497 0.0007905818858302945
необходимостью 3.5165082281731497 0.0007905818858302945
предполагает 2.217225244042889 0.0004984768983909374
разведки 4.61512051684126 0.0020751441172847393
требуются 3.5165082281731497 0.0007905818858302945
которого 1.3192836508369303 0.001483007701030722
учетными 3.9219733362813143 0.0008817386097754754
вместе 1.670681537674819 0.00037560286368588556
атакующим 4.61512051684126 0.0010375720586423697
работы 0.3524406397999441 7.923575535070686e-05
продуктов 2.217225244042889 0.0004984768983909374
узлу 3.9219733362813143 0.0017634772195509508
атаки 3.5165082281731497 0.018183383374096772
группировкой 4.61512051684126 0.0010375720586423697
добавить 1.670681537674819 0.00037560286368588556
Какие 2.130213867053259 0.0009578299761930122
выполненные 4.61512051684126 0.0010375720586423697
адресной 3.9219733362813143 0.0008817386097754754
виде 0.5720692490067093 0.00012861269087381056
Затем 2.0501711593797225 0.00046091977504040524
Появление 3.5165082281731497 0.0007905818858302945
письма 3.005682604407159 0.0006757379955951347
космический 3.5165082281731497 0.0007905818858302945
склеивания 4.61512051684126 0.0010375720586423697
прочтение 0.009950330853168092 2.2370348141115316e-06
подняло 4.61512051684126 0.0010375720586423697
нужную 3.9219733362813143 0.0008817386097754754
узла 3.005682604407159 0.007433117951546481
разветвление 4.61512051684126 0.0010375720586423697
защитники 4.61512051684126 0.013488436762350803
сразу 0.8539204011476971 0.00019197850745227005
срабатываний 4.61512051684126 0.0020751441172847393
Сканирование 3.9219733362813143 0.0008817386097754754
ноябрьском 4.61512051684126 0.0020751441172847393
агент 1.8425317946014783 0.0012427147895243784
расследованиях 3.9219733362813143 0.0008817386097754754
обеспечение 2.5356789751614235 0.000570071712041687
корпоративной 3.5165082281731497 0.0007905818858302945
скрипт 2.0501711593797225 0.0009218395500808105
системным 4.61512051684126 0.0010375720586423697
случае 0.5897688261061103 0.0001325919123439996
уроки 4.61512051684126 0.0010375720586423697
инжиниринг 3.9219733362813143 0.0017634772195509508
Полученные 3.9219733362813143 0.0008817386097754754
эксплуатацией 4.61512051684126 0.0010375720586423697
назад 0.13778370236305296 3.097655179025471e-05
команды 1.3192836508369303 0.0020762107814430108
