параметрами 2.8233610476132043 0.0022005931781864416
Хабы 0.009950330853168092 7.755518981424858e-06
фоне 2.6692103677859462 0.002080444557900192
Работа 0.9015484501369516 0.0007026878021332436
календаре 0.5897688261061103 0.005975833779718966
мусора 0.5375830729355401 0.00041900473338701486
Истории 0.6077873316087886 0.00047372356321807375
добавили 2.41789593950504 0.0018845642552650353
труднее 4.61512051684126 0.0035971321253634135
Похожие 0.020000666706669435 1.558898418290681e-05
сервер 0.36662527479190044 0.00028575625470919755
мин 0.009950330853168092 7.755518981424858e-06
паттерну 4.61512051684126 0.0035971321253634135
фичи 3.5165082281731497 0.002740848190314224
Индикаторы 4.61512051684126 0.0035971321253634135
бесплатной 3.5165082281731497 0.002740848190314224
устройством 3.9219733362813143 0.003056877113235631
поможет 1.8425317946014783 0.0014361120768522824
свой 0.9775343571148737 0.0015238259658844485
самом 1.4796263009121098 0.0011532551059330552
которых 0.6077873316087886 0.00047372356321807375
программы 1.4796263009121098 0.0011532551059330552
приходится 2.217225244042889 0.0017281568542812853
приложений 1.5705980791178364 0.0024483212457020054
настройки 1.5240780634829436 0.0011879018421535024
Огромное 4.61512051684126 0.0035971321253634135
оформления 3.5165082281731497 0.005481696380628448
ресурсов 1.4370666864933137 0.0011200831539308759
Место 0.6448286032891376 0.006533727079313164
пополнить 4.61512051684126 0.0035971321253634135
находятся 2.312535423847214 0.0018024438221724193
Темная 4.61512051684126 0.0035971321253634135
байтами 4.61512051684126 0.0035971321253634135
вводит 2.41789593950504 0.0018845642552650353
становится 1.3570239788197773 0.0021153920168663714
регистра 2.130213867053259 0.0016603381660586585
просмотров 0.009950330853168092 7.755518981424858e-06
логика 3.228826155721369 0.002516622101107848
Советую 3.9219733362813143 0.003056877113235631
понимать 0.5897688261061103 0.00045967952151684355
Развитие 0.6261364702769852 0.00048802530808806326
непонятных 4.61512051684126 0.0035971321253634135
данные 0.6261364702769852 0.00048802530808806326
Ответ 2.8233610476132043 0.0022005931781864416
Два 0.6448286032891376 0.0005025943907163973
Программист 2.5356789751614235 0.00395273417796013
понравилось 3.9219733362813143 0.003056877113235631
мою 3.228826155721369 0.002516622101107848
жуть 4.61512051684126 0.0035971321253634135
проблемы 1.3962446919730587 0.0010882655432369905
навыки 0.3956128116651528 0.0003083498142362843
Потом 2.0501711593797225 0.0015979510205609685
шаблонов 0.6077873316087886 0.00047372356321807375
свое 0.663876798259832 0.000517440996305403
пользователем 2.8233610476132043 0.0022005931781864416
затем 1.004202604197035 0.001565397668272853
первая 2.8233610476132043 0.0022005931781864416
расшифрованные 4.61512051684126 0.0035971321253634135
Облачные 0.6448286032891376 0.0005025943907163973
разработки 1.1186129553747792 0.002615618757696288
менялся 3.5165082281731497 0.002740848190314224
установщика 4.61512051684126 0.010791396376090242
работал 1.3192836508369303 0.001028280320215846
конференция 0.6077873316087886 0.0014211706896542213
Дзен 0.009950330853168092 7.755518981424858e-06
Девять 0.6448286032891376 0.0005025943907163973
прочее 3.228826155721369 0.002516622101107848
разработчики 2.41789593950504 0.0018845642552650353
Пользователь 0.8539204011476971 0.0006655653945032713
раза 1.9760631872260008 0.001540189545772409
возможностью 3.5165082281731497 0.002740848190314224
Казалось 3.9219733362813143 0.003056877113235631
платформу 2.5356789751614235 0.001976367088980065
Разрабатываем 0.6448286032891376 0.0005025943907163973
содержимое 2.312535423847214 0.0036048876443448385
проект 0.6261364702769852 0.00048802530808806326
терминала 3.228826155721369 0.005033244202215696
появится 2.41789593950504 0.0018845642552650353
которым 1.2829160066660557 0.0009999345336446264
сделать 0.9015484501369516 0.0007026878021332436
меньше 1.149384614041533 0.0008958570647244995
внешне 2.312535423847214 0.0018024438221724193
кучи 3.5165082281731497 0.002740848190314224
директора 0.6261364702769852 0.00048802530808806326
внешним 3.228826155721369 0.002516622101107848
занятий 0.6261364702769852 0.00048802530808806326
Скачать 3.5165082281731497 0.002740848190314224
Язык 0.009950330853168092 7.755518981424858e-06
цеху 4.61512051684126 0.0035971321253634135
методом 3.005682604407159 0.002342698834300202
общалось 3.9219733362813143 0.003056877113235631
настройках 3.228826155721369 0.002516622101107848
Планы 4.61512051684126 0.0035971321253634135
плана 3.005682604407159 0.002342698834300202
лаконично 4.61512051684126 0.0035971321253634135
Терминал 4.61512051684126 0.0035971321253634135
файл 0.9775343571148737 0.0007619129829422243
могу 0.3246610756928683 0.000253048383236842
использовал 1.8425317946014783 0.0014361120768522824
понял 2.6692103677859462 0.002080444557900192
событий 2.0501711593797225 0.0015979510205609685
четкого 4.61512051684126 0.0035971321253634135
переездом 4.61512051684126 0.0035971321253634135
скрипта 3.228826155721369 0.002516622101107848
проблемой 2.6692103677859462 0.002080444557900192
темами 3.005682604407159 0.002342698834300202
Программирование 1.7819071727850435 0.0027777196769837
промышленным 3.228826155721369 0.002516622101107848
июня 0.6448286032891376 0.0005025943907163973
сохраненными 4.61512051684126 0.0035971321253634135
подобрав 4.61512051684126 0.0035971321253634135
поддерживает 2.217225244042889 0.0017281568542812853
возможность 1.004202604197035 0.0007826988341364265
приложения 1.0316015783851493 0.001608108462018939
добавлялись 4.61512051684126 0.0035971321253634135
режима 3.228826155721369 0.002516622101107848
счастья 4.61512051684126 0.0035971321253634135
удаленный 0.6077873316087886 0.00047372356321807375
решил 1.5240780634829436 0.002375803684307005
волшебному 4.61512051684126 0.0035971321253634135
миграции 3.228826155721369 0.002516622101107848
Первая 2.312535423847214 0.0018024438221724193
Подробнее 0.5375830729355401 0.005447061534031194
серия 0.6077873316087886 0.00047372356321807375
другие 1.213923135179104 0.0009461598871232299
Работать 3.5165082281731497 0.002740848190314224
вакансий 1.4796263009121098 0.0011532551059330552
использовать 0.19627990904466155 0.0001529851200659872
усталость 4.61512051684126 0.0035971321253634135
грантов 0.6448286032891376 0.0005025943907163973
Дата 0.6448286032891376 0.006533727079313164
Проблемы 3.005682604407159 0.002342698834300202
уверенным 3.5165082281731497 0.002740848190314224
Сначала 2.130213867053259 0.0016603381660586585
Инженерные 4.61512051684126 0.007194264250726827
урок 0.5546775062948401 0.001296985595389338
подключении 3.5165082281731497 0.002740848190314224
мной 1.670681537674819 0.001302167995070007
самых 1.3962446919730587 0.0010882655432369905
проб 0.4719857904497268 0.0003678766878018136
часов 0.8309308829229982 0.0012952936600514392
забирал 4.61512051684126 0.0035971321253634135
тестирования 2.312535423847214 0.0018024438221724193
ограничены 3.228826155721369 0.002516622101107848
некоторые 1.2478246868547855 0.0009725835439242289
платформы 0.5207759546191588 0.0008118097499908945
удачи 3.5165082281731497 0.002740848190314224
хотелось 2.5356789751614235 0.001976367088980065
Открытый 0.6448286032891376 0.0010051887814327945
черное 4.61512051684126 0.0035971321253634135
Хабр 0.009950330853168092 2.3266556944274574e-05
Будучи 4.61512051684126 0.0035971321253634135
работают 1.4370666864933137 0.0011200831539308759
ними 1.2478246868547855 0.0009725835439242289
одном 1.4796263009121098 0.0011532551059330552
устройство 2.5356789751614235 0.001976367088980065
Количество 0.009950330853168092 7.755518981424858e-06
базы 0.5207759546191588 0.00040590487499544725
Периодически 3.228826155721369 0.002516622101107848
времени 0.9015484501369516 0.0007026878021332436
Простой 0.2843871765549284 0.00022165797081444147
слышал 2.8233610476132043 0.0022005931781864416
протоколу 3.228826155721369 0.002516622101107848
Время 0.009950330853168092 0.00010082174675852316
Практический 0.6448286032891376 0.0005025943907163973
могут 0.3956128116651528 0.0003083498142362843
Серия 0.6448286032891376 0.0005025943907163973
февраля 0.5546775062948401 0.0038909567861680136
переехало 4.61512051684126 0.0035971321253634135
вся 1.6193882432872684 0.0012621888100446364
монитора 4.61512051684126 0.0035971321253634135
создать 1.5240780634829436 0.002375803684307005
Может 2.41789593950504 0.0018845642552650353
должен 0.4407332469456224 0.0003435177294977571
повозиться 4.61512051684126 0.0035971321253634135
оборудованием 3.228826155721369 0.002516622101107848
текущем 2.5356789751614235 0.001976367088980065
смена 3.9219733362813143 0.003056877113235631
Далее 1.7819071727850435 0.0027777196769837
космическим 3.9219733362813143 0.003056877113235631
миром 3.9219733362813143 0.003056877113235631
Были 3.228826155721369 0.002516622101107848
вырезались 4.61512051684126 0.0035971321253634135
сутки 0.020000666706669435 1.558898418290681e-05
Хотелось 3.5165082281731497 0.002740848190314224
недавно 2.8233610476132043 0.0022005931781864416
нибуть 4.61512051684126 0.0035971321253634135
Немного 2.8233610476132043 0.0022005931781864416
программе 2.5356789751614235 0.001976367088980065
появляются 3.228826155721369 0.002516622101107848
закладки 0.009950330853168092 7.755518981424858e-06
ощутил 4.61512051684126 0.0035971321253634135
использовался 3.9219733362813143 0.003056877113235631
проблему 1.9070703157390494 0.0014864148992510128
занятие 3.5165082281731497 0.002740848190314224
Онлайн 0.6448286032891376 0.006533727079313164
профессиям 0.6448286032891376 0.0005025943907163973
выглядел 3.9219733362813143 0.003056877113235631
работу 1.0887599922250981 0.0008486048263640671
Карма 0.009950330853168092 7.755518981424858e-06
информация 2.217225244042889 0.0017281568542812853
найм 0.6448286032891376 0.0005025943907163973
программу 2.0501711593797225 0.003195902041121937
переписан 4.61512051684126 0.0035971321253634135
вебинар 0.5720692490067093 0.00044588406002081787
поддержка 0.009950330853168092 7.755518981424858e-06
отладка 3.5165082281731497 0.002740848190314224
светлую 4.61512051684126 0.0035971321253634135
построения 0.5720692490067093 0.00044588406002081787
инженеров 0.6261364702769852 0.0009760506161761265
года 0.6261364702769852 0.00048802530808806326
находится 1.5240780634829436 0.0011879018421535024
невозможно 1.9760631872260008 0.001540189545772409
записываем 3.228826155721369 0.002516622101107848
рад 0.951558870711613 0.0007416670855117795
Осознав 4.61512051684126 0.0035971321253634135
предложить 2.6692103677859462 0.002080444557900192
собственный 2.5356789751614235 0.001976367088980065
ошибок 1.670681537674819 0.001302167995070007
Абдулкаюмов 4.61512051684126 0.0035971321253634135
изобретение 4.61512051684126 0.0035971321253634135
Москва 0.6261364702769852 0.00146407592426419
Яндекса 0.6448286032891376 0.0005025943907163973
Комментарии 0.009950330853168092 2.3266556944274574e-05
чаще 1.7819071727850435 0.00138885983849185
понравилась 3.005682604407159 0.002342698834300202
облачные 0.6077873316087886 0.00047372356321807375
карьеры 0.6261364702769852 0.00048802530808806326
обработчиках 4.61512051684126 0.0035971321253634135
Пришлось 3.228826155721369 0.002516622101107848
Там 3.005682604407159 0.002342698834300202
тему 0.9262410627273231 0.0014438675958337072
архитектура 2.6692103677859462 0.002080444557900192
версия 1.8425317946014783 0.0014361120768522824
удобных 4.61512051684126 0.0035971321253634135
такого 1.6193882432872684 0.0012621888100446364
Интерфейс 3.228826155721369 0.002516622101107848
постоянно 1.7247487589450947 0.0013443092431372524
посмотреть 1.670681537674819 0.002604335990140014
приятно 2.6692103677859462 0.002080444557900192
тема 0.8309308829229982 0.0006476468300257196
лету 3.228826155721369 0.002516622101107848
системы 1.1186129553747792 0.001743745838464192
панель 3.5165082281731497 0.002740848190314224
часто 1.149384614041533 0.0008958570647244995
Поиск 0.009950330853168092 7.755518981424858e-06
устройства 1.670681537674819 0.001302167995070007
отдельную 3.228826155721369 0.002516622101107848
алгоритмам 0.6448286032891376 0.0005025943907163973
терминал 1.9760631872260008 0.006160758183089636
появляется 2.8233610476132043 0.0022005931781864416
ужасного 4.61512051684126 0.0035971321253634135
экрана 2.5356789751614235 0.001976367088980065
фреймворков 3.5165082281731497 0.002740848190314224
игровой 0.6077873316087886 0.00047372356321807375
целом 1.5240780634829436 0.0011879018421535024
Вебинар 0.6448286032891376 0.0015077831721491918
писал 1.5705980791178364 0.0012241606228510027
началу 2.8233610476132043 0.0022005931781864416
таким 1.149384614041533 0.0008958570647244995
протокола 3.228826155721369 0.007549866303323544
добавил 2.0501711593797225 0.003195902041121937
Буду 3.228826155721369 0.002516622101107848
работе 1.1186129553747792 0.000871872919232096
использую 1.0887599922250981 0.0008486048263640671
администраторов 0.6077873316087886 0.00047372356321807375
Компетенции 0.6448286032891376 0.0005025943907163973
приходит 1.6193882432872684 0.0012621888100446364
Вправо 0.6448286032891376 0.0005025943907163973
непродолжительное 4.61512051684126 0.0035971321253634135
поле 0.8539204011476971 0.0006655653945032713
коленках 4.61512051684126 0.0035971321253634135
появилась 2.217225244042889 0.0017281568542812853
каждое 2.217225244042889 0.0017281568542812853
Голосование 0.009950330853168092 1.5511037962849716e-05
выглядит 1.670681537674819 0.001302167995070007
Публикации 0.020000666706669435 1.558898418290681e-05
качественной 0.6448286032891376 0.0005025943907163973
демо 0.4562374334815876 0.00035560205259671675
мониторами 4.61512051684126 0.0035971321253634135
Тренировки 0.6448286032891376 0.0005025943907163973
Первый 3.005682604407159 0.002342698834300202
проектом 2.0501711593797225 0.0015979510205609685
микроконтроллеров 3.005682604407159 0.004685397668600404
Техническая 0.009950330853168092 7.755518981424858e-06
код 0.6077873316087886 0.00047372356321807375
текущий 2.312535423847214 0.0018024438221724193
софт 2.6692103677859462 0.002080444557900192
передачи 2.217225244042889 0.0017281568542812853
песочницы 2.130213867053259 0.0016603381660586585
мастере 3.9219733362813143 0.003056877113235631
связи 1.149384614041533 0.0008958570647244995
низу 2.312535423847214 0.0018024438221724193
приложение 1.5240780634829436 0.0011879018421535024
помочь 1.9760631872260008 0.001540189545772409
содержится 3.005682604407159 0.002342698834300202
апреля 0.6261364702769852 0.00048802530808806326
Войти 0.009950330853168092 7.755518981424858e-06
нужно 0.1607732205877518 0.00025062076475097707
устройствами 3.005682604407159 0.002342698834300202
написав 3.9219733362813143 0.003056877113235631
запуск 0.297632403304949 0.00023198160818780126
релизная 4.61512051684126 0.0035971321253634135
Всем 2.5356789751614235 0.001976367088980065
принципа 0.5720692490067093 0.00044588406002081787
будущего 0.5720692490067093 0.00044588406002081787
языка 0.009950330853168092 7.755518981424858e-06
таблице 2.8233610476132043 0.0022005931781864416
Надеюсь 2.5356789751614235 0.001976367088980065
грани 0.20840126957700633 0.0001624327900054609
поочередно 4.61512051684126 0.0035971321253634135
однородным 4.61512051684126 0.0035971321253634135
версии 1.2829160066660557 0.0019998690672892528
ограниченность 4.61512051684126 0.0035971321253634135
бывает 2.312535423847214 0.0036048876443448385
обучение 0.5207759546191588 0.00040590487499544725
ценители 4.61512051684126 0.0035971321253634135
временем 2.312535423847214 0.0036048876443448385
вариантов 2.217225244042889 0.0017281568542812853
индустрии 0.5720692490067093 0.00044588406002081787
Настройка 0.009950330853168092 7.755518981424858e-06
утомляет 4.61512051684126 0.0035971321253634135
переключаться 4.61512051684126 0.007194264250726827
свои 0.5720692490067093 0.00044588406002081787
Настройки 0.009950330853168092 7.755518981424858e-06
какое 2.41789593950504 0.0018845642552650353
сборщик 0.6077873316087886 0.00047372356321807375
расположена 4.61512051684126 0.007194264250726827
немного 1.3962446919730587 0.0010882655432369905
ознакомиться 2.130213867053259 0.0016603381660586585
активно 1.1186129553747792 0.000871872919232096
офисе 3.228826155721369 0.002516622101107848
статью 2.130213867053259 0.0016603381660586585
представляю 1.6193882432872684 0.0012621888100446364
статьи 1.8425317946014783 0.0014361120768522824
отлаживаешь 4.61512051684126 0.0035971321253634135
утомительное 4.61512051684126 0.0035971321253634135
менялась 3.9219733362813143 0.003056877113235631
Часто 2.5356789751614235 0.001976367088980065
глаза 3.005682604407159 0.002342698834300202
новым 2.130213867053259 0.0016603381660586585
Нет 1.9760631872260008 0.001540189545772409
приема 3.5165082281731497 0.002740848190314224
Яндекс 0.009950330853168092 7.755518981424858e-06
полтора 3.9219733362813143 0.003056877113235631
окно 2.6692103677859462 0.002080444557900192
разновидности 3.5165082281731497 0.002740848190314224
Хабре 3.005682604407159 0.002342698834300202
интеллекта 0.5375830729355401 0.00041900473338701486
необходимо 0.6077873316087886 0.00047372356321807375
пользоваться 1.1811333123561132 0.0009206027376119355
Лучшие 0.020000666706669435 1.558898418290681e-05
оно 0.1607732205877518 0.00012531038237548854
управления 1.7819071727850435 0.00138885983849185
поддерживать 3.228826155721369 0.002516622101107848
кораблем 4.61512051684126 0.0035971321253634135
четвергам 0.6448286032891376 0.0005025943907163973
посылок 4.61512051684126 0.007194264250726827
знать 0.3246610756928683 0.000253048383236842
Итого 3.228826155721369 0.002516622101107848
несколькими 2.130213867053259 0.0016603381660586585
режиме 1.9760631872260008 0.001540189545772409
разработке 1.3962446919730587 0.0010882655432369905
события 0.5897688261061103 0.00045967952151684355
полностью 1.5705980791178364 0.0012241606228510027
джуновские 0.6448286032891376 0.0005025943907163973
сложности 0.1607732205877518 0.00012531038237548854
режим 1.5240780634829436 0.002375803684307005
прибавляет 4.61512051684126 0.0035971321253634135
искусственного 0.5207759546191588 0.00040590487499544725
нажатие 3.5165082281731497 0.002740848190314224
версию 2.5356789751614235 0.001976367088980065
информацией 2.41789593950504 0.0018845642552650353
быстрее 2.130213867053259 0.0016603381660586585
написания 2.5356789751614235 0.005929101266940196
Теги 0.009950330853168092 7.755518981424858e-06
принципе 2.130213867053259 0.0016603381660586585
дополнительных 3.9219733362813143 0.003056877113235631
Запрос 2.8233610476132043 0.0022005931781864416
отчаяния 4.61512051684126 0.0035971321253634135
этих 1.004202604197035 0.0007826988341364265
Добавить 0.009950330853168092 7.755518981424858e-06
подключения 2.41789593950504 0.0018845642552650353
момента 1.8425317946014783 0.0014361120768522824
темную 3.9219733362813143 0.003056877113235631
работает 0.22067136216882066 0.00017199638516665679
адрес 1.6193882432872684 0.0012621888100446364
образом 0.9775343571148737 0.0007619129829422243
пресетами 4.61512051684126 0.0035971321253634135
коррективы 4.61512051684126 0.0035971321253634135
несколько 0.48798613179616795 0.00038034772548415274
сценарий 3.5165082281731497 0.002740848190314224
сидишь 4.61512051684126 0.007194264250726827
стало 1.5705980791178364 0.0012241606228510027
первых 1.4796263009121098 0.0011532551059330552
светлой 4.61512051684126 0.0035971321253634135
Меню 0.009950330853168092 7.755518981424858e-06
работать 1.004202604197035 0.001565397668272853
солидности 4.61512051684126 0.0035971321253634135
уставать 4.61512051684126 0.0035971321253634135
переезде 3.9219733362813143 0.003056877113235631
действовал 3.005682604407159 0.002342698834300202
разработчик 0.3246610756928683 0.000253048383236842
разработчиков 0.4254657748148339 0.00033161790710431325
менять 1.7247487589450947 0.0013443092431372524
облака 0.6448286032891376 0.0005025943907163973
какие 1.0316015783851493 0.0008040542310094695
файлов 1.7247487589450947 0.0013443092431372524
Рейтинг 0.009950330853168092 7.755518981424858e-06
специальные 2.8233610476132043 0.0022005931781864416
Влево 0.6448286032891376 0.0005025943907163973
каждого 1.213923135179104 0.0009461598871232299
Разработка 2.130213867053259 0.003320676332117317
читаем 2.8233610476132043 0.0022005931781864416
установки 2.130213867053259 0.0016603381660586585
ПК 3.005682604407159 0.002342698834300202
необходимость 2.5356789751614235 0.001976367088980065
само 0.5897688261061103 0.00045967952151684355
небольшую 3.9219733362813143 0.003056877113235631
Лихие 0.6448286032891376 0.0005025943907163973
личные 0.3246610756928683 0.000253048383236842
файлы 1.5705980791178364 0.0012241606228510027
которое 1.0316015783851493 0.0008040542310094695
Иногда 1.9070703157390494 0.0014864148992510128
ноутбуком 4.61512051684126 0.0035971321253634135
исходный 2.6692103677859462 0.002080444557900192
вакансии 1.2829160066660557 0.002999803600933879
Уровень 0.17246926035094298 0.00013442654742863833
Ближайшие 0.6448286032891376 0.0005025943907163973
Обновить 0.009950330853168092 7.755518981424858e-06
обратной 2.41789593950504 0.0018845642552650353
отличии 4.61512051684126 0.0035971321253634135
данных 0.14921239818667575 0.00011629960887503956
индикация 4.61512051684126 0.0035971321253634135
обновления 1.9760631872260008 0.001540189545772409
вашему 2.8233610476132043 0.0022005931781864416
кнопку 1.7819071727850435 0.00138885983849185
встреч 0.5042466526679482 0.0003930215531316822
Хекслета 0.6448286032891376 0.0005025943907163973
Поэтому 0.9775343571148737 0.0007619129829422243
второй 1.9070703157390494 0.0014864148992510128
напишу 3.5165082281731497 0.002740848190314224
Сама 3.5165082281731497 0.002740848190314224
взаимодействия 2.312535423847214 0.0036048876443448385
важно 1.0316015783851493 0.0008040542310094695
Андрей 3.9219733362813143 0.003056877113235631
строка 1.8425317946014783 0.0014361120768522824
время 0.5897688261061103 0.00045967952151684355
людям 2.8233610476132043 0.0022005931781864416
СУБД 0.5207759546191588 0.00040590487499544725
начале 0.5375830729355401 0.00041900473338701486
марта 0.6261364702769852 0.00146407592426419
прекрасного 4.61512051684126 0.0035971321253634135
Конкурс 0.6448286032891376 0.0005025943907163973
приходило 4.61512051684126 0.0035971321253634135
операционного 0.5897688261061103 0.00045967952151684355
работы 0.3524406397999441 0.0010988016829304571
кучу 3.005682604407159 0.002342698834300202
излишне 3.5165082281731497 0.002740848190314224
удаленно 2.8233610476132043 0.0022005931781864416
красивый 4.61512051684126 0.0035971321253634135
сообщество 2.130213867053259 0.0016603381660586585
Какие 2.130213867053259 0.003320676332117317
добавить 1.670681537674819 0.002604335990140014
создания 1.2829160066660557 0.0009999345336446264
мировое 3.9219733362813143 0.003056877113235631
Записываем 4.61512051684126 0.0035971321253634135
публикация 2.0501711593797225 0.0015979510205609685
нужную 3.9219733362813143 0.003056877113235631
прочтение 0.009950330853168092 7.755518981424858e-06
весьма 2.6692103677859462 0.002080444557900192
Согласитесь 4.61512051684126 0.0035971321253634135
сразу 0.8539204011476971 0.0006655653945032713
двумя 2.130213867053259 0.0016603381660586585
очень 0.7864791203521645 0.0018390002814158174
грандиозные 4.61512051684126 0.0035971321253634135
текстовой 4.61512051684126 0.0035971321253634135
назад 0.13778370236305296 0.00021478363579587368
