снова 0.7864791203521645 0.000554248851551913
Хабы 0.009950330853168092 7.012213427179769e-06
генерация 3.228826155721369 0.0022754236474428254
посчитать 3.228826155721369 0.0022754236474428254
нужны 1.3570239788197773 0.0009563241570259178
загружаются 3.228826155721369 0.0022754236474428254
Работа 0.9015484501369516 0.0006353406977709314
календаре 0.5897688261061103 0.0054030970679206725
сигнал 2.312535423847214 0.003259387489566193
уточнением 3.9219733362813143 0.002763899461790919
мусора 0.5375830729355401 0.00037884642208283305
Тогда 2.8233610476132043 0.001989683613539961
Истории 0.6077873316087886 0.00042832088203579184
Похожие 0.020000666706669435 1.4094902541697982e-05
погружения 3.228826155721369 0.0022754236474428254
сервер 0.36662527479190044 0.0002583687630668784
мин 0.009950330853168092 7.012213427179769e-06
повторим 3.9219733362813143 0.002763899461790919
ограничения 1.9760631872260008 0.001392574480074701
свой 0.9775343571148737 0.0006888896103698899
проверочные 3.9219733362813143 0.002763899461790919
решения 1.0597724553518457 0.0014936891548299447
весовой 3.9219733362813143 0.002763899461790919
которых 0.6077873316087886 0.00042832088203579184
просмотр 0.009950330853168092 7.012213427179769e-06
параметров 1.9760631872260008 0.001392574480074701
усиливая 3.228826155721369 0.0022754236474428254
выходу 3.9219733362813143 0.002763899461790919
входящими 3.9219733362813143 0.002763899461790919
Место 0.6448286032891376 0.0059075206784769485
определенных 2.217225244042889 0.0015625265990436147
другую 2.6692103677859462 0.0018810502944227952
нем 0.3810140122440001 0.0002685088176490487
выходы 3.9219733362813143 0.002763899461790919
слоёв 3.9219733362813143 0.002763899461790919
одну 1.1811333123561132 0.0008323701989824617
процессе 1.3570239788197773 0.0009563241570259178
математической 3.5165082281731497 0.002478159427888055
примере 1.7819071727850435 0.0012557485361416798
далее 2.130213867053259 0.0015012077991918668
пределов 3.9219733362813143 0.002763899461790919
просмотров 0.009950330853168092 7.012213427179769e-06
понимать 0.5897688261061103 0.00041562285137851325
Развитие 0.6261364702769852 0.00044125191703804455
линейная 3.5165082281731497 0.002478159427888055
спать 3.9219733362813143 0.002763899461790919
данные 0.6261364702769852 0.0008825038340760891
Ответ 2.8233610476132043 0.001989683613539961
Два 0.6448286032891376 0.0004544246675751498
расчета 2.312535423847214 0.0016296937447830965
одним 1.2478246868547855 0.0008793690534565085
операции 1.6193882432872684 0.0011412179304350024
механику 3.9219733362813143 0.005527798923581838
нейросетям 3.5165082281731497 0.002478159427888055
оказываются 3.9219733362813143 0.002763899461790919
база 1.9760631872260008 0.001392574480074701
проверить 2.5356789751614235 0.0017869478330947313
навыки 0.3956128116651528 0.00027879690744549173
Гудфеллоу 3.9219733362813143 0.002763899461790919
шаблонов 0.6077873316087886 0.00042832088203579184
конфигурацию 3.228826155721369 0.0022754236474428254
коэффициентов 3.9219733362813143 0.002763899461790919
величины 3.5165082281731497 0.002478159427888055
называют 1.9070703157390494 0.0013439537108802322
некая 3.9219733362813143 0.002763899461790919
развитию 2.8233610476132043 0.001989683613539961
большего 3.228826155721369 0.0022754236474428254
перебора 3.228826155721369 0.0022754236474428254
данную 2.6692103677859462 0.0018810502944227952
выполнения 1.3570239788197773 0.0009563241570259178
машина 2.6692103677859462 0.0018810502944227952
Облачные 0.6448286032891376 0.0004544246675751498
разработки 1.1186129553747792 0.0007883107507926563
Расчет 3.9219733362813143 0.002763899461790919
уменьшиться 3.9219733362813143 0.002763899461790919
обучения 1.9760631872260008 0.001392574480074701
конференция 0.6077873316087886 0.0012849626461073757
реализовывать 3.5165082281731497 0.002478159427888055
Дзен 0.009950330853168092 7.012213427179769e-06
Девять 0.6448286032891376 0.0004544246675751498
комментариях 1.670681537674819 0.0011773654247179838
существует 1.670681537674819 0.0023547308494359675
сделаем 3.5165082281731497 0.002478159427888055
Разрабатываем 0.6448286032891376 0.0004544246675751498
перезагрузка 3.228826155721369 0.0022754236474428254
Вячеслав 3.005682604407159 0.0021181695591311906
быстрое 3.228826155721369 0.0022754236474428254
образная 3.9219733362813143 0.002763899461790919
Больше 1.8425317946014783 0.0012984720187466374
мили 2.8233610476132043 0.005969050840619883
меньше 1.149384614041533 0.0016199924087970867
программированию 3.9219733362813143 0.002763899461790919
читать 1.3962446919730587 0.0009839638421233676
минимизировать 2.312535423847214 0.0016296937447830965
математик 3.5165082281731497 0.002478159427888055
директора 0.6261364702769852 0.00044125191703804455
входящего 3.9219733362813143 0.002763899461790919
занятий 0.6261364702769852 0.00044125191703804455
порога 3.005682604407159 0.0021181695591311906
соответственно 1.9760631872260008 0.001392574480074701
Язык 0.009950330853168092 7.012213427179769e-06
методом 3.005682604407159 0.0021181695591311906
сути 1.7247487589450947 0.0024309355305780055
канале 2.6692103677859462 0.0018810502944227952
составленным 3.9219733362813143 0.002763899461790919
входящий 3.228826155721369 0.004550847294885651
передают 3.005682604407159 0.0021181695591311906
выдают 3.9219733362813143 0.002763899461790919
количеству 3.005682604407159 0.0021181695591311906
обоснованного 3.9219733362813143 0.002763899461790919
получающийся 3.9219733362813143 0.002763899461790919
нейросети 2.41789593950504 0.013631548637096773
сети 1.149384614041533 0.00485997722639126
достижения 2.8233610476132043 0.001989683613539961
следующего 2.312535423847214 0.0016296937447830965
июня 0.6448286032891376 0.0004544246675751498
коэффициент 3.005682604407159 0.0021181695591311906
правки 2.312535423847214 0.0016296937447830965
значение 1.149384614041533 0.00242998861319563
силы 3.5165082281731497 0.002478159427888055
должно 1.6193882432872684 0.0011412179304350024
лиц 0.9262410627273231 0.0006527421160869085
отрицательным 3.9219733362813143 0.002763899461790919
Ввод 3.5165082281731497 0.002478159427888055
градиентного 3.5165082281731497 0.002478159427888055
нейросеть 3.005682604407159 0.0021181695591311906
информацию 1.1186129553747792 0.0007883107507926563
принципах 3.228826155721369 0.0022754236474428254
Нейроны 3.9219733362813143 0.002763899461790919
двигаться 3.005682604407159 0.0021181695591311906
Рашид 3.9219733362813143 0.005527798923581838
удаленный 0.6077873316087886 0.00042832088203579184
учетом 2.312535423847214 0.0016296937447830965
размера 1.7819071727850435 0.0012557485361416798
биологии 3.5165082281731497 0.00495631885577611
однозначных 3.9219733362813143 0.002763899461790919
размеры 3.228826155721369 0.0022754236474428254
Предприниматель 3.9219733362813143 0.002763899461790919
Подробнее 0.5375830729355401 0.00492500348707683
серия 0.6077873316087886 0.00042832088203579184
км 2.6692103677859462 0.007524201177691181
следующее 1.7819071727850435 0.0012557485361416798
миль 3.9219733362813143 0.005527798923581838
использовать 0.19627990904466155 0.00027664539682122844
тренировочные 3.9219733362813143 0.002763899461790919
разобраться 2.130213867053259 0.0015012077991918668
слоя 3.5165082281731497 0.002478159427888055
большинства 2.217225244042889 0.0015625265990436147
грантов 0.6448286032891376 0.0004544246675751498
Дата 0.6448286032891376 0.0059075206784769485
понятно 1.9070703157390494 0.0013439537108802322
урок 0.5546775062948401 0.0011726797173252435
ветвится 3.9219733362813143 0.002763899461790919
преобразования 3.228826155721369 0.004550847294885651
конспект 3.9219733362813143 0.005527798923581838
Компьютеры 3.228826155721369 0.0022754236474428254
проверочными 3.9219733362813143 0.002763899461790919
образуется 3.228826155721369 0.0022754236474428254
алгоритм 0.5546775062948401 0.000781786478216829
промежуточные 2.8233610476132043 0.001989683613539961
платформы 0.5207759546191588 0.0003670020821840443
взять 2.5356789751614235 0.0017869478330947313
константы 3.9219733362813143 0.005527798923581838
Открытый 0.6448286032891376 0.0009088493351502996
Хабр 0.009950330853168092 2.103664028153931e-05
должна 1.7247487589450947 0.0012154677652890028
работают 1.4370666864933137 0.001012731984843773
таком 1.5240780634829436 0.0010740507846955206
нейронную 3.9219733362813143 0.005527798923581838
Зачем 3.228826155721369 0.0022754236474428254
Количество 0.009950330853168092 7.012213427179769e-06
базы 0.5207759546191588 0.0003670020821840443
Простой 0.2843871765549284 0.00020041379602179593
присвоить 3.228826155721369 0.0022754236474428254
сигналу 3.9219733362813143 0.002763899461790919
Время 0.009950330853168092 9.1158774553337e-05
Практический 0.6448286032891376 0.0004544246675751498
могут 0.3956128116651528 0.00027879690744549173
Серия 0.6448286032891376 0.0004544246675751498
февраля 0.5546775062948401 0.0035180391519757303
конспектов 3.9219733362813143 0.002763899461790919
правило 1.9760631872260008 0.001392574480074701
математики 3.9219733362813143 0.002763899461790919
должен 0.4407332469456224 0.00031059425436618916
подбирает 3.5165082281731497 0.002478159427888055
Другие 3.9219733362813143 0.002763899461790919
размер 1.1186129553747792 0.003941553753963281
условии 3.005682604407159 0.0021181695591311906
знаем 2.41789593950504 0.0034078871592741933
Далее 1.7819071727850435 0.0037672456084250393
определяется 3.005682604407159 0.0021181695591311906
функции 1.4796263009121098 0.0010427246659000069
получают 2.217225244042889 0.0015625265990436147
сутки 0.020000666706669435 1.4094902541697982e-05
попробуем 2.5356789751614235 0.0017869478330947313
внутренний 3.228826155721369 0.004550847294885651
Сеть 3.5165082281731497 0.002478159427888055
проверки 1.3962446919730587 0.0009839638421233676
выходных 2.6692103677859462 0.0018810502944227952
решаем 2.8233610476132043 0.001989683613539961
Рассмотрим 1.9760631872260008 0.001392574480074701
Читальный 3.9219733362813143 0.005527798923581838
закладки 0.009950330853168092 7.012213427179769e-06
начнем 3.005682604407159 0.0021181695591311906
нейросетями 3.5165082281731497 0.002478159427888055
алгоритму 3.9219733362813143 0.002763899461790919
книги 3.228826155721369 0.018203389179542603
соответствовать 3.5165082281731497 0.002478159427888055
значений 2.217225244042889 0.0031250531980872294
исходящего 3.5165082281731497 0.002478159427888055
выход 1.3570239788197773 0.0019126483140518356
скепсиса 3.9219733362813143 0.002763899461790919
Оптимизации 3.9219733362813143 0.002763899461790919
Онлайн 0.6448286032891376 0.0059075206784769485
профессиям 0.6448286032891376 0.0004544246675751498
определенного 2.41789593950504 0.0034078871592741933
Глубокое 3.9219733362813143 0.002763899461790919
Карма 0.009950330853168092 7.012213427179769e-06
найм 0.6448286032891376 0.0004544246675751498
каждому 2.5356789751614235 0.0017869478330947313
поймем 3.228826155721369 0.0022754236474428254
показателем 3.5165082281731497 0.002478159427888055
контента 2.217225244042889 0.0015625265990436147
вебинар 0.5720692490067093 0.0004031495764670256
поддержка 0.009950330853168092 7.012213427179769e-06
суммы 2.6692103677859462 0.0018810502944227952
нейронные 3.5165082281731497 0.00495631885577611
инженеров 0.6261364702769852 0.0008825038340760891
построения 0.5720692490067093 0.0004031495764670256
подборок 3.9219733362813143 0.002763899461790919
первый 1.5240780634829436 0.0010740507846955206
операций 1.9760631872260008 0.001392574480074701
использованием 1.5705980791178364 0.0022136688923436736
оригинального 3.5165082281731497 0.002478159427888055
скрытые 3.005682604407159 0.0021181695591311906
вакансия 2.217225244042889 0.0015625265990436147
попробовать 1.7247487589450947 0.0012154677652890028
Мы 1.149384614041533 0.0008099962043985433
обработка 2.130213867053259 0.0015012077991918668
другому 2.8233610476132043 0.001989683613539961
пробных 3.9219733362813143 0.002763899461790919
быстрого 2.6692103677859462 0.0018810502944227952
игры 1.9760631872260008 0.001392574480074701
многократную 3.9219733362813143 0.002763899461790919
тренировке 3.9219733362813143 0.002763899461790919
Москва 0.6261364702769852 0.0013237557511141336
коэффициенты 3.9219733362813143 0.002763899461790919
Яндекса 0.6448286032891376 0.0004544246675751498
Комментарии 0.009950330853168092 1.4024426854359539e-05
результате 1.4370666864933137 0.002025463969687546
облачные 0.6077873316087886 0.00042832088203579184
карьеры 0.6261364702769852 0.00044125191703804455
собственной 3.005682604407159 0.0021181695591311906
километров 3.5165082281731497 0.002478159427888055
Вывод 2.41789593950504 0.0017039435796370966
программ 0.6077873316087886 0.00042832088203579184
тему 0.9262410627273231 0.0006527421160869085
огромной 3.5165082281731497 0.002478159427888055
действуя 3.9219733362813143 0.002763899461790919
удачными 3.9219733362813143 0.002763899461790919
попытку 3.5165082281731497 0.002478159427888055
выходной 3.9219733362813143 0.002763899461790919
час 0.030153038170687457 2.1249498358483058e-05
различных 1.3570239788197773 0.0009563241570259178
такие 0.8309308829229982 0.0005855749703474265
требуют 1.9070703157390494 0.0013439537108802322
задачи 0.9015484501369516 0.0006353406977709314
Поиск 0.009950330853168092 7.012213427179769e-06
математических 3.9219733362813143 0.002763899461790919
алгоритмам 0.6448286032891376 0.0004544246675751498
заранее 2.5356789751614235 0.0017869478330947313
созданию 2.6692103677859462 0.0018810502944227952
Расскажу 3.9219733362813143 0.002763899461790919
оптимизируя 2.6692103677859462 0.0018810502944227952
Давайте 1.5705980791178364 0.0011068344461718368
игровой 0.6077873316087886 0.00042832088203579184
функция 1.7819071727850435 0.0012557485361416798
Вебинар 0.6448286032891376 0.0013632740027254495
алгоритмов 2.5356789751614235 0.0017869478330947313
глубокого 2.5356789751614235 0.0017869478330947313
сигнала 2.6692103677859462 0.005643150883268385
администраторов 0.6077873316087886 0.00042832088203579184
вопросом 2.6692103677859462 0.0018810502944227952
Компетенции 0.6448286032891376 0.0004544246675751498
Делитесь 3.9219733362813143 0.002763899461790919
аксон 3.9219733362813143 0.002763899461790919
Вправо 0.6448286032891376 0.0004544246675751498
нейронов 3.5165082281731497 0.002478159427888055
тестовых 3.228826155721369 0.0022754236474428254
Голосование 0.009950330853168092 1.4024426854359539e-05
Публикации 0.020000666706669435 1.4094902541697982e-05
качественной 0.6448286032891376 0.0004544246675751498
демо 0.4562374334815876 0.00032152039005044935
Тренировки 0.6448286032891376 0.0004544246675751498
случайное 3.9219733362813143 0.002763899461790919
определим 3.5165082281731497 0.002478159427888055
проверяются 3.9219733362813143 0.002763899461790919
Техническая 0.009950330853168092 7.012213427179769e-06
фраз 3.228826155721369 0.0022754236474428254
слое 2.8233610476132043 0.001989683613539961
какую 1.8425317946014783 0.0012984720187466374
входе 3.228826155721369 0.0022754236474428254
изменить 1.8425317946014783 0.0012984720187466374
рукописных 3.9219733362813143 0.002763899461790919
дендридами 3.9219733362813143 0.002763899461790919
апреля 0.6261364702769852 0.00044125191703804455
Войти 0.009950330853168092 7.012213427179769e-06
нужно 0.1607732205877518 0.0006798022012167095
ответ 0.4719857904497268 0.0006652371958417574
константа 3.005682604407159 0.0021181695591311906
запуск 0.297632403304949 0.00020974799387240946
Результаты 2.8233610476132043 0.001989683613539961
принципа 0.5720692490067093 0.0004031495764670256
слоями 3.9219733362813143 0.002763899461790919
будущего 0.5720692490067093 0.0004031495764670256
необходимости 1.670681537674819 0.0011773654247179838
входящих 3.9219733362813143 0.002763899461790919
языка 0.009950330853168092 7.012213427179769e-06
смертельного 3.9219733362813143 0.002763899461790919
Лекун 3.9219733362813143 0.002763899461790919
формулы 3.9219733362813143 0.005527798923581838
грани 0.20840126957700633 0.00014686488342283746
весовых 3.9219733362813143 0.002763899461790919
действовали 3.5165082281731497 0.002478159427888055
показатель 2.41789593950504 0.0017039435796370966
практики 2.312535423847214 0.0016296937447830965
подходов 3.5165082281731497 0.00495631885577611
загружаемых 3.9219733362813143 0.002763899461790919
исходящему 3.9219733362813143 0.002763899461790919
компьютеры 2.6692103677859462 0.0018810502944227952
сумма 2.130213867053259 0.0015012077991918668
превышения 3.9219733362813143 0.002763899461790919
значения 1.670681537674819 0.0035320962741539515
обучение 0.5207759546191588 0.0014680083287361772
вариантов 2.217225244042889 0.0015625265990436147
Создаем 3.228826155721369 0.004550847294885651
скоростью 2.6692103677859462 0.0018810502944227952
сравним 2.5356789751614235 0.0017869478330947313
выглядят 2.8233610476132043 0.001989683613539961
сигмоидой 3.9219733362813143 0.002763899461790919
индустрии 0.5720692490067093 0.0004031495764670256
Настройка 0.009950330853168092 7.012213427179769e-06
ажиотажа 3.9219733362813143 0.002763899461790919
действия 1.2478246868547855 0.0008793690534565085
Настройки 0.009950330853168092 7.012213427179769e-06
какое 2.41789593950504 0.0017039435796370966
сборщик 0.6077873316087886 0.00042832088203579184
Комментировать 1.149384614041533 0.0008099962043985433
логистическая 3.228826155721369 0.0022754236474428254
формул 2.130213867053259 0.0015012077991918668
параметры 1.9070703157390494 0.0013439537108802322
проводники 3.9219733362813143 0.002763899461790919
Макович 3.9219733362813143 0.002763899461790919
дело 1.5705980791178364 0.0011068344461718368
нейрона 3.9219733362813143 0.008291698385372758
входов 3.9219733362813143 0.002763899461790919
нейрон 3.005682604407159 0.0021181695591311906
вводную 3.9219733362813143 0.002763899461790919
своими 2.217225244042889 0.0015625265990436147
нейросетей 3.005682604407159 0.006354508677393572
которые 0.2456726643742379 0.0003462616834027314
стоящую 3.9219733362813143 0.002763899461790919
пошаговой 3.9219733362813143 0.002763899461790919
записать 2.8233610476132043 0.001989683613539961
описать 2.6692103677859462 0.0018810502944227952
актуальных 3.005682604407159 0.0021181695591311906
формате 1.7819071727850435 0.0012557485361416798
получим 2.41789593950504 0.0017039435796370966
повышать 3.5165082281731497 0.002478159427888055
развития 1.9070703157390494 0.0013439537108802322
Машинное 3.228826155721369 0.004550847294885651
тех 0.6261364702769852 0.00044125191703804455
участвовавших 3.9219733362813143 0.002763899461790919
разбираться 3.228826155721369 0.0022754236474428254
Яндекс 0.009950330853168092 7.012213427179769e-06
книг 2.130213867053259 0.0045036233975756
являющиеся 3.9219733362813143 0.002763899461790919
пороговых 3.228826155721369 0.0022754236474428254
ослабляя 3.9219733362813143 0.002763899461790919
подбирать 3.9219733362813143 0.005527798923581838
Дэвис 3.9219733362813143 0.002763899461790919
одного 0.9262410627273231 0.0006527421160869085
ведущие 3.228826155721369 0.0022754236474428254
Тренировочные 3.9219733362813143 0.002763899461790919
интеллекта 0.5375830729355401 0.0007576928441656661
Лучшие 0.020000666706669435 1.4094902541697982e-05
величину 3.9219733362813143 0.002763899461790919
поправка 3.9219733362813143 0.002763899461790919
постепенно 2.5356789751614235 0.0017869478330947313
четвергам 0.6448286032891376 0.0004544246675751498
знать 0.3246610756928683 0.00022879568406826518
Обзор 1.5240780634829436 0.0010740507846955206
ещё 1.0597724553518457 0.0007468445774149724
сеть 1.670681537674819 0.004709461698871935
почитать 2.41789593950504 0.0034078871592741933
несколькими 2.130213867053259 0.0015012077991918668
прохождение 3.9219733362813143 0.002763899461790919
события 0.5897688261061103 0.00041562285137851325
следование 2.130213867053259 0.0015012077991918668
Маркус 3.9219733362813143 0.002763899461790919
джуновские 0.6448286032891376 0.0004544246675751498
сложности 0.1607732205877518 0.00011330036686945158
создают 2.41789593950504 0.0017039435796370966
искусственного 0.5207759546191588 0.0007340041643680886
адекватного 3.9219733362813143 0.002763899461790919
количество 1.3192836508369303 0.0027891831941584152
проводят 2.41789593950504 0.0017039435796370966
компьютерной 3.9219733362813143 0.002763899461790919
диапазоне 3.228826155721369 0.0022754236474428254
истории 1.9070703157390494 0.0013439537108802322
минимальным 2.6692103677859462 0.0018810502944227952
Теги 0.009950330853168092 7.012213427179769e-06
нейронам 3.9219733362813143 0.002763899461790919
теме 1.3570239788197773 0.0009563241570259178
значениями 2.8233610476132043 0.003979367227079922
этих 1.004202604197035 0.0007076833010549931
Добавить 0.009950330853168092 7.012213427179769e-06
работает 0.22067136216882066 0.0001555118831351802
наименований 3.9219733362813143 0.002763899461790919
Вопрос 2.6692103677859462 0.0018810502944227952
ослабляющий 3.9219733362813143 0.002763899461790919
подробнее 2.217225244042889 0.0015625265990436147
первом 1.7247487589450947 0.0012154677652890028
заданному 3.005682604407159 0.0021181695591311906
сигналов 2.41789593950504 0.0034078871592741933
несколько 0.48798613179616795 0.00034389438463436784
будут 0.7864791203521645 0.000554248851551913
трудно 2.0501711593797225 0.0014447999713740117
возьмем 3.9219733362813143 0.002763899461790919
гуманитариев 3.9219733362813143 0.002763899461790919
определения 2.41789593950504 0.0017039435796370966
Меню 0.009950330853168092 7.012213427179769e-06
внести 2.6692103677859462 0.0037621005888455903
математику 3.9219733362813143 0.002763899461790919
разработчиков 0.4254657748148339 0.0002998349364445623
результат 0.8084580270709397 0.001139475725258548
облака 0.6448286032891376 0.0004544246675751498
выполняющие 3.9219733362813143 0.002763899461790919
ведётся 3.9219733362813143 0.002763899461790919
взяв 3.9219733362813143 0.002763899461790919
дополнительные 2.130213867053259 0.0015012077991918668
порогового 3.9219733362813143 0.005527798923581838
порцией 3.9219733362813143 0.002763899461790919
Искусственный 2.312535423847214 0.0016296937447830965
Рейтинг 0.009950330853168092 7.012213427179769e-06
значениях 3.228826155721369 0.0022754236474428254
сторону 2.312535423847214 0.0016296937447830965
Влево 0.6448286032891376 0.0004544246675751498
каждого 1.213923135179104 0.0008554778965321381
результатами 3.228826155721369 0.0022754236474428254
спуска 3.228826155721369 0.0022754236474428254
нейронным 3.9219733362813143 0.002763899461790919
инструкциям 3.005682604407159 0.004236339118262381
одной 0.7864791203521645 0.000554248851551913
следующей 1.670681537674819 0.0011773654247179838
наиболее 1.7247487589450947 0.0012154677652890028
Лихие 0.6448286032891376 0.0004544246675751498
личные 0.3246610756928683 0.00022879568406826518
который 0.3524406397999441 0.0002483725439041185
слой 2.41789593950504 0.0017039435796370966
подбора 3.228826155721369 0.0022754236474428254
усиливающий 3.9219733362813143 0.002763899461790919
стоящей 3.9219733362813143 0.005527798923581838
весов 3.228826155721369 0.0022754236474428254
достает 3.228826155721369 0.0022754236474428254
результаты 1.670681537674819 0.0011773654247179838
весовые 3.9219733362813143 0.002763899461790919
думать 2.41789593950504 0.0017039435796370966
арифметические 3.9219733362813143 0.002763899461790919
понимания 1.8425317946014783 0.0012984720187466374
вакансии 1.2829160066660557 0.0009040986657266073
Анализ 2.130213867053259 0.0015012077991918668
арифметических 3.9219733362813143 0.002763899461790919
Уровень 0.17246926035094298 0.00012154281913385693
Ближайшие 0.6448286032891376 0.0004544246675751498
рациональных 3.9219733362813143 0.002763899461790919
Обновить 0.009950330853168092 7.012213427179769e-06
ошибки 1.2829160066660557 0.007232789325812858
сайте 1.5240780634829436 0.0010740507846955206
Сила 3.9219733362813143 0.002763899461790919
итерации 3.9219733362813143 0.002763899461790919
данных 0.14921239818667575 0.00021030641041110042
простой 1.7819071727850435 0.0012557485361416798
таких 1.149384614041533 0.0008099962043985433
задач 0.4562374334815876 0.0006430407801008987
распознавание 3.5165082281731497 0.002478159427888055
встреч 0.5042466526679482 0.0003553535254883356
зал 0.5042466526679482 0.0007107070509766712
улучшить 2.312535423847214 0.0016296937447830965
Хекслета 0.6448286032891376 0.0004544246675751498
автор 1.2478246868547855 0.0008793690534565085
объяснённой 3.9219733362813143 0.002763899461790919
произносимых 3.9219733362813143 0.002763899461790919
определенный 2.5356789751614235 0.0017869478330947313
Стоит 2.6692103677859462 0.0018810502944227952
калькуляторы 3.9219733362813143 0.005527798923581838
интеллект 0.5207759546191588 0.0003670020821840443
СУБД 0.5207759546191588 0.0003670020821840443
начале 0.5375830729355401 0.00037884642208283305
дополнения 3.5165082281731497 0.002478159427888055
знакомые 2.6692103677859462 0.0018810502944227952
учится 1.9070703157390494 0.0013439537108802322
называемым 3.5165082281731497 0.002478159427888055
марта 0.6261364702769852 0.0013237557511141336
распознавания 3.9219733362813143 0.002763899461790919
сетям 3.5165082281731497 0.002478159427888055
усовершенствованные 3.9219733362813143 0.002763899461790919
видео 1.6193882432872684 0.002282435860870005
Конкурс 0.6448286032891376 0.0004544246675751498
работы 0.3524406397999441 0.0002483725439041185
операционного 0.5897688261061103 0.00041562285137851325
рекомендациями 3.9219733362813143 0.002763899461790919
результата 2.41789593950504 0.0017039435796370966
окажется 3.9219733362813143 0.002763899461790919
прочтение 0.009950330853168092 7.012213427179769e-06
формула 3.005682604407159 0.0021181695591311906
обработку 3.228826155721369 0.0022754236474428254
соответствующими 3.228826155721369 0.0022754236474428254
существуют 2.6692103677859462 0.0037621005888455903
случае 0.5897688261061103 0.0008312457027570265
обычных 2.8233610476132043 0.001989683613539961
лучших 2.130213867053259 0.0015012077991918668
входной 3.9219733362813143 0.002763899461790919
идет 1.004202604197035 0.0007076833010549931
текстов 1.9760631872260008 0.001392574480074701
переборов 3.9219733362813143 0.002763899461790919
задачу 1.9070703157390494 0.0013439537108802322
назад 0.13778370236305296 9.70991559993326e-05
ваш 0.7030975114131134 0.0004954880277752737
