листочке 4.61512051684126 0.0018098511830750036
использует 0.9262410627273231 0.0003632317893048326
сильно 1.5705980791178364 0.000615920815340328
Хабы 0.009950330853168092 3.902090530654154e-06
Кардашьян 4.61512051684126 0.0018098511830750036
аутентификация 3.9219733362813143 0.0015380287593260056
нужны 1.3570239788197773 0.0005321662662038342
Вы 0.5897688261061103 0.0004625637851812629
специалисту 3.228826155721369 0.0012662063355770073
облачному 4.61512051684126 0.0018098511830750036
селебрити 4.61512051684126 0.0036197023661500073
двойной 4.61512051684126 0.0018098511830750036
Канье 4.61512051684126 0.0018098511830750036
Рианна 4.61512051684126 0.0018098511830750036
добавили 2.41789593950504 0.0009481944860804079
Похожие 0.020000666706669435 7.843398708497817e-06
звезду 4.61512051684126 0.0018098511830750036
минут 2.0501711593797225 0.0008039886899528323
сливах 4.61512051684126 0.0018098511830750036
считать 2.217225244042889 0.0008695000957030937
распознавать 3.5165082281731497 0.0013790228345777057
каждом 1.5705980791178364 0.000615920815340328
заблокировали 4.61512051684126 0.0018098511830750036
созданный 3.005682604407159 0.001178699060551827
домашних 3.005682604407159 0.001178699060551827
взломов 4.61512051684126 0.0036197023661500073
ряда 2.41789593950504 0.0009481944860804079
целый 2.6692103677859462 0.001046749163837626
год 0.3110554236370897 0.00012198251907336852
имена 2.312535423847214 0.0009068766368028289
которых 0.6077873316087886 0.0004766959463598342
Билла 4.61512051684126 0.0018098511830750036
пароль 2.312535423847214 0.006348136457619803
выводила 4.61512051684126 0.0018098511830750036
Сам 1.213923135179104 0.00047604828830553094
отелей 4.61512051684126 0.005429553549225011
рабочей 2.312535423847214 0.0009068766368028289
человека 1.9760631872260008 0.0015498534801772555
обойти 2.8233610476132043 0.0011072004108287074
сотруднику 3.9219733362813143 0.0015380287593260056
признаки 3.005682604407159 0.001178699060551827
новые 1.0887599922250981 0.0004269647028333718
поддалась 4.61512051684126 0.0018098511830750036
внимание 1.1186129553747792 0.0008773434944115915
затрагивают 3.9219733362813143 0.0015380287593260056
системную 4.61512051684126 0.0018098511830750036
уговаривают 4.61512051684126 0.0018098511830750036
целью 2.217225244042889 0.0017390001914061874
Используйте 2.6692103677859462 0.001046749163837626
сомневаетесь 3.9219733362813143 0.0015380287593260056
хакерам 3.9219733362813143 0.009228172555956033
проникнуть 3.9219733362813143 0.0015380287593260056
данные 0.6261364702769852 0.0034376119936775657
ракушку 4.61512051684126 0.0036197023661500073
сообщества 2.6692103677859462 0.002093498327675252
держать 1.9070703157390494 0.0007478707120545291
женщины 4.61512051684126 0.0018098511830750036
отеле 3.9219733362813143 0.0015380287593260056
жертва 4.61512051684126 0.0036197023661500073
Измените 4.61512051684126 0.0018098511830750036
известных 2.8233610476132043 0.0011072004108287074
предназначенные 3.005682604407159 0.001178699060551827
усилителям 3.9219733362813143 0.0015380287593260056
устанавливала 4.61512051684126 0.0018098511830750036
российские 3.005682604407159 0.001178699060551827
внешнего 3.228826155721369 0.0012662063355770073
стандартом 4.61512051684126 0.0018098511830750036
затем 1.004202604197035 0.0003938049428223667
агенту 4.61512051684126 0.0018098511830750036
техника 2.8233610476132043 0.0011072004108287074
ценное 4.61512051684126 0.0018098511830750036
лично 1.1811333123561132 0.0004631895342572993
разработки 1.1186129553747792 0.00043867174720579573
временно 1.4370666864933137 0.0005635555633307113
интернет 1.7247487589450947 0.0006763720623314096
избежать 2.312535423847214 0.0009068766368028289
замен 1.2829160066660557 0.0005031043163396296
сервисы 1.7819071727850435 0.00069878712658237
Поддельные 4.61512051684126 0.0018098511830750036
золотым 4.61512051684126 0.0018098511830750036
соцсети 4.61512051684126 0.0018098511830750036
пяти 3.5165082281731497 0.0027580456691554114
убедиться 3.005682604407159 0.001178699060551827
защитить 3.9219733362813143 0.0015380287593260056
стараются 4.61512051684126 0.0018098511830750036
злоумышленнику 3.9219733362813143 0.0015380287593260056
безопасность 1.9760631872260008 0.0015498534801772555
штраф 3.228826155721369 0.0012662063355770073
аккаунтах 4.61512051684126 0.0018098511830750036
помогает 1.7819071727850435 0.00139757425316474
взломав 4.61512051684126 0.0018098511830750036
заменяет 3.9219733362813143 0.0015380287593260056
можете 1.3192836508369303 0.00051736613758311
основанные 3.005682604407159 0.001178699060551827
подключили 3.9219733362813143 0.0015380287593260056
добавьте 4.61512051684126 0.0018098511830750036
автоматически 1.4796263009121098 0.0005802456082008273
Скачать 3.5165082281731497 0.0013790228345777057
детей 4.61512051684126 0.0018098511830750036
придумываете 4.61512051684126 0.0018098511830750036
каждую 2.217225244042889 0.0008695000957030937
акция 2.0501711593797225 0.0008039886899528323
письмах 4.61512051684126 0.0018098511830750036
приложении 2.312535423847214 0.0018137532736056579
проверку 2.6692103677859462 0.001046749163837626
взлом 2.6692103677859462 0.005233745819188129
Блог 0.7439195059333684 0.0005834662791634261
пятеро 4.61512051684126 0.0018098511830750036
интересно 1.7247487589450947 0.0006763720623314096
фактом 4.61512051684126 0.0018098511830750036
Аврил 4.61512051684126 0.0018098511830750036
биткоин 4.61512051684126 0.0018098511830750036
фразы 4.61512051684126 0.0018098511830750036
Пользователю 4.61512051684126 0.0018098511830750036
коллег 2.0501711593797225 0.0008039886899528323
красивой 4.61512051684126 0.0018098511830750036
знаменитости 4.61512051684126 0.0018098511830750036
вымышленного 4.61512051684126 0.0018098511830750036
сложными 4.61512051684126 0.0018098511830750036
управляемых 4.61512051684126 0.0018098511830750036
сети 1.149384614041533 0.0022536953216500647
Ивановна 4.61512051684126 0.0036197023661500073
отклика 4.61512051684126 0.0018098511830750036
учетную 3.9219733362813143 0.0015380287593260056
вид 0.22067136216882066 8.653778908581202e-05
выше 0.7439195059333684 0.0005834662791634261
штрафы 4.61512051684126 0.0018098511830750036
публикации 2.5356789751614235 0.000994383911828009
чат 0.41042789745029334 0.00016095211664717387
возникают 3.228826155721369 0.0012662063355770073
Сочи 3.9219733362813143 0.004614086277978016
возможность 1.004202604197035 0.0007876098856447334
страстная 4.61512051684126 0.0018098511830750036
Дженнифер 4.61512051684126 0.0018098511830750036
разных 1.3962446919730587 0.0005475469380286504
любое 2.8233610476132043 0.0011072004108287074
приложения 1.0316015783851493 0.000809099277164823
ссылке 1.9760631872260008 0.0015498534801772555
взлома 2.8233610476132043 0.006643202464972245
анкету 3.9219733362813143 0.0015380287593260056
практически 1.149384614041533 0.0004507390643300129
удаленный 0.6077873316087886 0.0002383479731799171
предупредить 2.8233610476132043 0.0011072004108287074
прямого 3.228826155721369 0.0012662063355770073
Первая 2.312535423847214 0.0009068766368028289
похожие 3.005682604407159 0.001178699060551827
другие 1.213923135179104 0.0014281448649165929
ситуации 1.9760631872260008 0.0007749267400886278
Твиттер 3.9219733362813143 0.0015380287593260056
произошел 3.9219733362813143 0.0015380287593260056
давили 4.61512051684126 0.0018098511830750036
подрядчика 3.5165082281731497 0.0013790228345777057
отдельная 2.6692103677859462 0.001046749163837626
хотите 1.4370666864933137 0.0005635555633307113
слила 3.5165082281731497 0.0013790228345777057
деньги 2.312535423847214 0.0018137532736056579
разместили 4.61512051684126 0.0018098511830750036
размере 3.228826155721369 0.0012662063355770073
мало 1.670681537674819 0.0006551692304607133
оплате 4.61512051684126 0.0018098511830750036
разослал 4.61512051684126 0.0018098511830750036
личности 3.9219733362813143 0.0015380287593260056
исключили 4.61512051684126 0.0018098511830750036
выписать 4.61512051684126 0.0018098511830750036
капитана 4.61512051684126 0.0018098511830750036
платформы 0.5207759546191588 0.00020422586455653285
сервиса 2.0501711593797225 0.0008039886899528323
пошел 4.61512051684126 0.0018098511830750036
жертв 3.5165082281731497 0.0027580456691554114
корпоративную 4.61512051684126 0.0018098511830750036
выглядеть 1.8425317946014783 0.0007225614880790111
Хабр 0.009950330853168092 1.170627159196246e-05
доступ 0.7030975114131134 0.0033086941713558276
зовут 2.217225244042889 0.0008695000957030937
резонанс 4.61512051684126 0.0018098511830750036
аккаунт 2.6692103677859462 0.002093498327675252
атак 2.41789593950504 0.0009481944860804079
очевидные 3.9219733362813143 0.0015380287593260056
важных 2.5356789751614235 0.000994383911828009
взломали 3.5165082281731497 0.0013790228345777057
сайт 1.0887599922250981 0.0017078588113334872
интимными 4.61512051684126 0.0018098511830750036
аккаунтов 3.9219733362813143 0.0015380287593260056
году 1.3570239788197773 0.002660831331019171
организовать 2.312535423847214 0.0009068766368028289
отражать 3.9219733362813143 0.0015380287593260056
Материал 3.228826155721369 0.0012662063355770073
могут 0.3956128116651528 0.0009308536745062417
инициировавших 4.61512051684126 0.0018098511830750036
траты 2.41789593950504 0.0009481944860804079
Может 2.41789593950504 0.0009481944860804079
создать 1.5240780634829436 0.001195355343908191
позволяет 0.9262410627273231 0.0003632317893048326
сообщает 3.005682604407159 0.001178699060551827
украли 4.61512051684126 0.0018098511830750036
скандал 3.9219733362813143 0.0015380287593260056
кибергигиена 4.61512051684126 0.0018098511830750036
имиджу 4.61512051684126 0.0036197023661500073
итог 1.1811333123561132 0.0004631895342572993
получают 2.217225244042889 0.0017390001914061874
застрахованы 3.5165082281731497 0.0013790228345777057
Айклауд 4.61512051684126 0.0072394047323000145
библиотек 1.670681537674819 0.0006551692304607133
Артем 4.61512051684126 0.0018098511830750036
проверки 1.3962446919730587 0.0005475469380286504
шаблон 0.4719857904497268 0.00018509246684303012
помогут 3.005682604407159 0.002357398121103654
действиям 3.9219733362813143 0.0015380287593260056
фишинговое 4.61512051684126 0.0036197023661500073
утечки 2.8233610476132043 0.0033216012324861223
голове 2.6692103677859462 0.001046749163837626
упаковал 4.61512051684126 0.0018098511830750036
Ким 4.61512051684126 0.0018098511830750036
сообщении 3.9219733362813143 0.0015380287593260056
символами 4.61512051684126 0.0018098511830750036
чтении 3.9219733362813143 0.0015380287593260056
счетов 2.41789593950504 0.0018963889721608158
переходила 4.61512051684126 0.0018098511830750036
Такие 2.217225244042889 0.0008695000957030937
вопрос 0.7864791203521645 0.0003084231844518292
сели 4.61512051684126 0.0018098511830750036
работу 1.0887599922250981 0.0008539294056667436
распознать 4.61512051684126 0.0018098511830750036
бесплатные 2.6692103677859462 0.002093498327675252
сведениями 4.61512051684126 0.0018098511830750036
российских 2.6692103677859462 0.001046749163837626
информационных 3.9219733362813143 0.0015380287593260056
легче 3.5165082281731497 0.0013790228345777057
поддержка 0.009950330853168092 3.902090530654154e-06
привезла 4.61512051684126 0.0036197023661500073
автоматического 3.228826155721369 0.0012662063355770073
года 0.6261364702769852 0.0009821748553364472
Сайт 0.7233002187306328 0.00028364714460024816
вредоносное 4.61512051684126 0.0018098511830750036
злоумышленников 4.61512051684126 0.0018098511830750036
бухгалтеров 4.61512051684126 0.005429553549225011
клички 4.61512051684126 0.0018098511830750036
инцидент 3.5165082281731497 0.0013790228345777057
повелся 4.61512051684126 0.0018098511830750036
сильного 3.9219733362813143 0.0015380287593260056
фотографий 3.5165082281731497 0.0013790228345777057
знакомится 3.9219733362813143 0.0015380287593260056
подскажут 4.61512051684126 0.0018098511830750036
поимки 4.61512051684126 0.0018098511830750036
предлагает 1.7247487589450947 0.0013527441246628193
мошенников 4.61512051684126 0.0036197023661500073
тысяч 1.7819071727850435 0.00139757425316474
совершать 3.5165082281731497 0.0013790228345777057
чаще 1.7819071727850435 0.00069878712658237
латинице 4.61512051684126 0.0018098511830750036
качестве 0.27131509498757567 0.00010639807646571594
содержания 3.9219733362813143 0.0015380287593260056
персонал 2.41789593950504 0.0009481944860804079
украсть 4.61512051684126 0.0018098511830750036
будем 2.130213867053259 0.0008353779870797093
версия 1.8425317946014783 0.0007225614880790111
угрожали 4.61512051684126 0.0018098511830750036
сходите 4.61512051684126 0.0018098511830750036
происходил 2.8233610476132043 0.005536002054143538
происходило 3.005682604407159 0.001178699060551827
предложили 4.61512051684126 0.0018098511830750036
общественный 4.61512051684126 0.0018098511830750036
символов 3.228826155721369 0.003798619006731022
рабочий 3.228826155721369 0.0012662063355770073
системы 1.1186129553747792 0.00043867174720579573
Е 0.1607732205877518 6.304832179911834e-05
дополнительной 3.9219733362813143 0.0015380287593260056
записям 2.5356789751614235 0.000994383911828009
Поиск 0.009950330853168092 3.902090530654154e-06
отдельную 3.228826155721369 0.0012662063355770073
Бузова 4.61512051684126 0.0018098511830750036
двери 2.6692103677859462 0.001046749163837626
отправил 3.005682604407159 0.001178699060551827
Только 1.9760631872260008 0.0007749267400886278
рабочих 2.6692103677859462 0.001046749163837626
образы 3.5165082281731497 0.0013790228345777057
заполнить 2.8233610476132043 0.0011072004108287074
летний 4.61512051684126 0.0018098511830750036
войти 3.005682604407159 0.001178699060551827
персональные 3.228826155721369 0.0012662063355770073
таким 1.149384614041533 0.0004507390643300129
этапе 1.7247487589450947 0.0013527441246628193
скачивания 3.228826155721369 0.0012662063355770073
потеряться 4.61512051684126 0.0018098511830750036
символа 4.61512051684126 0.0018098511830750036
перейти 2.5356789751614235 0.001988767823656018
компаниям 2.6692103677859462 0.001046749163837626
букв 2.130213867053259 0.0008353779870797093
Публикации 0.020000666706669435 7.843398708497817e-06
упустить 3.9219733362813143 0.0015380287593260056
вероятных 4.61512051684126 0.0036197023661500073
своего 1.6193882432872684 0.0012701084261076614
требованиями 3.9219733362813143 0.0015380287593260056
оклад 2.5356789751614235 0.000994383911828009
руки 2.6692103677859462 0.001046749163837626
компьютерам 3.5165082281731497 0.0013790228345777057
входе 3.228826155721369 0.0012662063355770073
уязвимости 2.312535423847214 0.0009068766368028289
мошенникам 4.61512051684126 0.0018098511830750036
Войти 0.009950330853168092 3.902090530654154e-06
открыт 1.3570239788197773 0.0005321662662038342
кликала 4.61512051684126 0.0018098511830750036
хакера 3.9219733362813143 0.0015380287593260056
Снова 3.228826155721369 0.0012662063355770073
подозрительных 3.5165082281731497 0.0013790228345777057
получала 4.61512051684126 0.0018098511830750036
символы 3.005682604407159 0.0035360971816554812
указывали 3.9219733362813143 0.0015380287593260056
Заражение 4.61512051684126 0.0018098511830750036
среды 3.228826155721369 0.0012662063355770073
усмотрению 4.61512051684126 0.0018098511830750036
регистрах 4.61512051684126 0.0018098511830750036
действовать 1.9760631872260008 0.0007749267400886278
материалов 3.228826155721369 0.0025324126711540147
атака 3.5165082281731497 0.0013790228345777057
сливов 4.61512051684126 0.0036197023661500073
придумывать 4.61512051684126 0.0018098511830750036
миллион 2.0501711593797225 0.002411966069858497
страницы 2.217225244042889 0.0008695000957030937
метод 1.0597724553518457 0.0004155970413144493
Раньше 2.6692103677859462 0.001046749163837626
версии 1.2829160066660557 0.0010062086326792592
проживать 4.61512051684126 0.0018098511830750036
ввод 1.3192836508369303 0.00051736613758311
Придумывайте 4.61512051684126 0.0018098511830750036
Дзюбы 4.61512051684126 0.0072394047323000145
используемые 2.8233610476132043 0.0011072004108287074
минуты 3.5165082281731497 0.0013790228345777057
архив 2.6692103677859462 0.002093498327675252
внутрь 3.9219733362813143 0.0015380287593260056
алфавит 3.9219733362813143 0.0015380287593260056
получили 1.9760631872260008 0.002324780220265883
брутфорса 4.61512051684126 0.0018098511830750036
пальца 3.9219733362813143 0.0015380287593260056
обучение 0.5207759546191588 0.0004084517291130657
жертве 4.61512051684126 0.0018098511830750036
Сейчас 1.9760631872260008 0.0015498534801772555
называются 3.5165082281731497 0.0013790228345777057
электронном 3.5165082281731497 0.0013790228345777057
Товарной 4.61512051684126 0.0018098511830750036
действия 1.2478246868547855 0.000489343014452857
чатов 4.61512051684126 0.0018098511830750036
способ 0.5897688261061103 0.00023128189259063146
Зенита 4.61512051684126 0.0018098511830750036
Настройки 0.009950330853168092 3.902090530654154e-06
футболиста 4.61512051684126 0.0018098511830750036
срочно 3.005682604407159 0.001178699060551827
появились 2.5356789751614235 0.000994383911828009
хакер 3.005682604407159 0.001178699060551827
команде 1.9760631872260008 0.0007749267400886278
менеджер 1.9760631872260008 0.0007749267400886278
Порноместь 4.61512051684126 0.0018098511830750036
Йоханссон 4.61512051684126 0.0018098511830750036
шантажа 4.61512051684126 0.0018098511830750036
случайные 3.5165082281731497 0.0013790228345777057
комментировал 4.61512051684126 0.0018098511830750036
аутентификацией 3.5165082281731497 0.0013790228345777057
которые 0.2456726643742379 0.0009634222132323055
безопасные 4.61512051684126 0.0018098511830750036
Мессенджеры 3.9219733362813143 0.003076057518652011
заключения 4.61512051684126 0.0018098511830750036
тех 0.6261364702769852 0.0002455437138341118
сложнее 2.312535423847214 0.0009068766368028289
Яндекс 0.009950330853168092 3.902090530654154e-06
муторными 4.61512051684126 0.0018098511830750036
других 1.213923135179104 0.00047604828830553094
узнал 3.228826155721369 0.0012662063355770073
фишинговых 4.61512051684126 0.0018098511830750036
миллионов 2.312535423847214 0.0018137532736056579
угрожал 4.61512051684126 0.0018098511830750036
Эмбер 4.61512051684126 0.0018098511830750036
утекли 4.61512051684126 0.0018098511830750036
небезопасные 4.61512051684126 0.0018098511830750036
жертвами 4.61512051684126 0.0036197023661500073
сложно 0.1153108465109944 4.5219939808233096e-05
пользователей 1.1186129553747792 0.00043867174720579573
страница 3.5165082281731497 0.0013790228345777057
взломанных 4.61512051684126 0.0018098511830750036
парольный 4.61512051684126 0.0018098511830750036
Лучшие 0.020000666706669435 7.843398708497817e-06
запрашивают 4.61512051684126 0.0036197023661500073
Маска 4.61512051684126 0.0018098511830750036
организацию 3.5165082281731497 0.0013790228345777057
иммунитет 3.9219733362813143 0.0015380287593260056
человек 1.3962446919730587 0.0005475469380286504
написан 1.5705980791178364 0.000615920815340328
добавляет 1.8425317946014783 0.0007225614880790111
деле 0.4254657748148339 0.0003336986469135952
ассоциации 3.005682604407159 0.002357398121103654
конфиденциальные 4.61512051684126 0.0018098511830750036
выкупа 3.9219733362813143 0.003076057518652011
риски 3.005682604407159 0.001178699060551827
запутывают 4.61512051684126 0.0018098511830750036
кейлоггерами 4.61512051684126 0.0018098511830750036
Венгрии 4.61512051684126 0.0018098511830750036
России 1.8425317946014783 0.0028902459523160442
создают 2.41789593950504 0.0009481944860804079
девушкой 4.61512051684126 0.0018098511830750036
заявлений 3.9219733362813143 0.0015380287593260056
попытаться 2.312535423847214 0.0009068766368028289
Мошенники 4.61512051684126 0.005429553549225011
россиянах 4.61512051684126 0.0018098511830750036
клавиатуру 4.61512051684126 0.0018098511830750036
истории 1.9070703157390494 0.0014957414241090583
тюремного 4.61512051684126 0.0018098511830750036
Тут 1.3962446919730587 0.0005475469380286504
Тренируйтесь 4.61512051684126 0.0018098511830750036
ИТ 2.41789593950504 0.0018963889721608158
прилетел 4.61512051684126 0.0018098511830750036
вымогатели 4.61512051684126 0.0018098511830750036
словам 2.312535423847214 0.0009068766368028289
последовательности 3.005682604407159 0.001178699060551827
этих 1.004202604197035 0.0003938049428223667
работает 0.22067136216882066 8.653778908581202e-05
масштабная 4.61512051684126 0.0018098511830750036
любых 2.312535423847214 0.0018137532736056579
первом 1.7247487589450947 0.0013527441246628193
бесконечных 4.61512051684126 0.0018098511830750036
ущерб 3.228826155721369 0.003798619006731022
несколько 0.48798613179616795 0.0005741013315249034
смартфон 2.5356789751614235 0.000994383911828009
интернете 2.6692103677859462 0.003140247491512878
стало 1.5705980791178364 0.000615920815340328
обратились 3.9219733362813143 0.0015380287593260056
захотелось 4.61512051684126 0.0018098511830750036
взломать 4.61512051684126 0.00904925591537502
выгоду 4.61512051684126 0.0018098511830750036
Даем 4.61512051684126 0.0018098511830750036
уничижительными 4.61512051684126 0.0018098511830750036
входите 3.5165082281731497 0.0013790228345777057
заставляют 4.61512051684126 0.0018098511830750036
скачать 3.005682604407159 0.001178699060551827
какие 1.0316015783851493 0.0012136489157472344
слив 3.9219733362813143 0.0015380287593260056
животных 3.228826155721369 0.0012662063355770073
поддерживайте 4.61512051684126 0.0018098511830750036
Фальшивая 4.61512051684126 0.0036197023661500073
учетным 3.228826155721369 0.0012662063355770073
ссылка 2.217225244042889 0.0008695000957030937
установки 2.130213867053259 0.0008353779870797093
мнение 1.9760631872260008 0.0007749267400886278
другим 1.5705980791178364 0.000615920815340328
Лавин 4.61512051684126 0.0018098511830750036
систему 1.4796263009121098 0.0005802456082008273
запятнанная 4.61512051684126 0.0018098511830750036
формат 1.2829160066660557 0.0005031043163396296
Немет 4.61512051684126 0.00904925591537502
авторитет 3.5165082281731497 0.0013790228345777057
лишили 3.5165082281731497 0.0013790228345777057
выложить 3.9219733362813143 0.0015380287593260056
Дзюба 4.61512051684126 0.005429553549225011
ищут 3.9219733362813143 0.0015380287593260056
слой 2.41789593950504 0.0009481944860804079
подбора 3.228826155721369 0.0012662063355770073
сентиментальные 4.61512051684126 0.0018098511830750036
информационной 2.6692103677859462 0.002093498327675252
латинской 4.61512051684126 0.0018098511830750036
сферы 3.005682604407159 0.001178699060551827
непрерывное 4.61512051684126 0.0018098511830750036
кошельков 3.005682604407159 0.001178699060551827
правила 2.5356789751614235 0.000994383911828009
Иногда 1.9070703157390494 0.0007478707120545291
Дзюбой 4.61512051684126 0.0018098511830750036
технические 2.8233610476132043 0.0011072004108287074
Примеры 3.5165082281731497 0.0013790228345777057
сценариях 3.5165082281731497 0.0013790228345777057
названиями 3.5165082281731497 0.0013790228345777057
помощью 0.6448286032891376 0.0017701177345192012
поверивших 4.61512051684126 0.0018098511830750036
сайтах 3.9219733362813143 0.0015380287593260056
письме 3.5165082281731497 0.0027580456691554114
месяцев 2.217225244042889 0.0008695000957030937
кибербезопасности 3.005682604407159 0.001178699060551827
право 0.5546775062948401 0.00021752059070385886
логин 2.41789593950504 0.0018963889721608158
данных 0.14921239818667575 0.00023405866382223648
персональных 4.61512051684126 0.0018098511830750036
рублей 2.130213867053259 0.0008353779870797093
руководителю 3.9219733362813143 0.0015380287593260056
красивую 3.9219733362813143 0.003076057518652011
учреждений 4.61512051684126 0.0018098511830750036
риск 1.4370666864933137 0.0005635555633307113
хранить 1.8425317946014783 0.0007225614880790111
показали 3.9219733362813143 0.0015380287593260056
отправляет 3.228826155721369 0.0012662063355770073
заполнять 3.9219733362813143 0.0015380287593260056
Запомнить 4.61512051684126 0.0018098511830750036
пройдемся 3.9219733362813143 0.0015380287593260056
месяцам 3.5165082281731497 0.0013790228345777057
инженерию 4.61512051684126 0.0018098511830750036
Гейтса 4.61512051684126 0.0018098511830750036
эмоции 3.9219733362813143 0.0015380287593260056
парольная 4.61512051684126 0.0018098511830750036
аккаунты 3.9219733362813143 0.003076057518652011
товаров 3.5165082281731497 0.0013790228345777057
время 0.5897688261061103 0.00023128189259063146
информации 1.5240780634829436 0.001195355343908191
думают 3.005682604407159 0.001178699060551827
объясняю 3.005682604407159 0.001178699060551827
Программа 2.8233610476132043 0.0011072004108287074
каторжной 4.61512051684126 0.0018098511830750036
сложную 3.005682604407159 0.001178699060551827
звезд 2.6692103677859462 0.002093498327675252
двойном 4.61512051684126 0.0018098511830750036
видео 1.6193882432872684 0.0031752710652691537
моральный 3.9219733362813143 0.004614086277978016
СМС 4.61512051684126 0.0018098511830750036
лица 1.9070703157390494 0.0007478707120545291
работы 0.3524406397999441 0.0002764240312156424
замок 4.61512051684126 0.0018098511830750036
продуктов 2.217225244042889 0.0008695000957030937
удаленно 2.8233610476132043 0.0011072004108287074
перелеты 4.61512051684126 0.0018098511830750036
упакованные 4.61512051684126 0.0018098511830750036
парольные 4.61512051684126 0.0018098511830750036
репутация 3.9219733362813143 0.003076057518652011
создания 1.2829160066660557 0.0005031043163396296
сливам 4.61512051684126 0.0018098511830750036
лежит 1.8425317946014783 0.0007225614880790111
Затем 2.0501711593797225 0.0008039886899528323
Некоторые 2.312535423847214 0.0009068766368028289
переписка 4.61512051684126 0.0018098511830750036
фишинговые 4.61512051684126 0.005429553549225011
менеджеры 3.5165082281731497 0.0013790228345777057
Один 2.312535423847214 0.0009068766368028289
придумали 3.9219733362813143 0.0015380287593260056
сразу 0.8539204011476971 0.0003348707455481165
доступов 4.61512051684126 0.0018098511830750036
номерах 4.61512051684126 0.0018098511830750036
дома 1.9760631872260008 0.0007749267400886278
побуждают 4.61512051684126 0.0018098511830750036
рангом 4.61512051684126 0.0018098511830750036
обычных 2.8233610476132043 0.0033216012324861223
пройти 3.228826155721369 0.0012662063355770073
парольных 4.61512051684126 0.0018098511830750036
выслать 3.9219733362813143 0.0015380287593260056
задачу 1.9070703157390494 0.0007478707120545291
накладной 4.61512051684126 0.0018098511830750036
атаковали 4.61512051684126 0.0018098511830750036
ваш 0.7030975114131134 0.0008271735428389569
команды 1.3192836508369303 0.00051736613758311
компании 0.5042466526679482 0.0021751816389597766
паролям 4.61512051684126 0.0018098511830750036
арестовали 3.9219733362813143 0.0015380287593260056
оценке 3.5165082281731497 0.0013790228345777057
конкурентам 4.61512051684126 0.0018098511830750036
футболист 4.61512051684126 0.0018098511830750036
защиты 2.130213867053259 0.0016707559741594186
общечеловеческие 4.61512051684126 0.0018098511830750036
отпуск 3.5165082281731497 0.0013790228345777057
зависит 1.8425317946014783 0.0007225614880790111
хранит 1.6193882432872684 0.0006350542130538307
заметили 3.5165082281731497 0.0013790228345777057
факт 1.2478246868547855 0.000489343014452857
административных 3.9219733362813143 0.0015380287593260056
триггеры 4.61512051684126 0.0036197023661500073
удалось 2.41789593950504 0.0018963889721608158
мин 0.009950330853168092 3.902090530654154e-06
корпоративное 3.9219733362813143 0.0015380287593260056
регистр 1.4370666864933137 0.0005635555633307113
мессенджеры 3.5165082281731497 0.0013790228345777057
свой 0.9775343571148737 0.0007666936134234304
самом 1.4796263009121098 0.0011604912164016547
программы 1.4796263009121098 0.0023209824328033093
шаги 2.130213867053259 0.0016707559741594186
приложений 1.5705980791178364 0.000615920815340328
Виталия 4.61512051684126 0.0018098511830750036
мужчину 4.61512051684126 0.0018098511830750036
средства 1.3570239788197773 0.0005321662662038342
уникальные 3.005682604407159 0.001178699060551827
буквы 4.61512051684126 0.005429553549225011
вводит 2.41789593950504 0.0009481944860804079
Аттила 4.61512051684126 0.00904925591537502
просмотров 0.009950330853168092 3.902090530654154e-06
Этот 1.3962446919730587 0.0005475469380286504
опираться 3.9219733362813143 0.003076057518652011
длина 4.61512051684126 0.0018098511830750036
Информационная 2.5356789751614235 0.001988767823656018
становились 4.61512051684126 0.0018098511830750036
тому 0.3384543978252041 0.00013272721483341337
культуру 3.228826155721369 0.0012662063355770073
Жертве 4.61512051684126 0.0018098511830750036
Слаке 4.61512051684126 0.0018098511830750036
Нераскрытым 4.61512051684126 0.0018098511830750036
записывать 3.005682604407159 0.001178699060551827
паролем 2.8233610476132043 0.0011072004108287074
рекордсменом 4.61512051684126 0.0018098511830750036
подозрительном 4.61512051684126 0.0018098511830750036
званий 3.9219733362813143 0.0015380287593260056
миру 1.5240780634829436 0.0005976776719540955
шантажировать 4.61512051684126 0.0036197023661500073
подозрительные 3.5165082281731497 0.0013790228345777057
набора 2.8233610476132043 0.0011072004108287074
публично 2.8233610476132043 0.0011072004108287074
техники 2.5356789751614235 0.000994383911828009
фотографии 2.6692103677859462 0.001046749163837626
директоров 3.228826155721369 0.0012662063355770073
воображаемых 4.61512051684126 0.0018098511830750036
перебора 3.228826155721369 0.003798619006731022
метода 2.41789593950504 0.0009481944860804079
попали 2.5356789751614235 0.000994383911828009
вернуть 1.8425317946014783 0.0007225614880790111
замена 3.228826155721369 0.0012662063355770073
атаку 3.005682604407159 0.002357398121103654
психологические 4.61512051684126 0.0018098511830750036
используйте 2.0501711593797225 0.0008039886899528323
Дзен 0.009950330853168092 3.902090530654154e-06
Престиж 4.61512051684126 0.0018098511830750036
сталкивались 3.005682604407159 0.001178699060551827
интервью 3.9219733362813143 0.0015380287593260056
статуса 4.61512051684126 0.0018098511830750036
Пользователь 0.8539204011476971 0.000669741491096233
навредить 4.61512051684126 0.0018098511830750036
чувствительной 4.61512051684126 0.0018098511830750036
говоря 1.670681537674819 0.0006551692304607133
службе 3.9219733362813143 0.0015380287593260056
замените 3.5165082281731497 0.0013790228345777057
сделать 0.9015484501369516 0.0003535484118184124
Википедии 4.61512051684126 0.0036197023661500073
исключение 2.312535423847214 0.0009068766368028289
США 2.8233610476132043 0.0011072004108287074
опубликовать 4.61512051684126 0.0018098511830750036
Язык 0.009950330853168092 3.902090530654154e-06
преступлений 4.61512051684126 0.0018098511830750036
важен 3.9219733362813143 0.0015380287593260056
перевести 3.228826155721369 0.0025324126711540147
встрече 4.61512051684126 0.0018098511830750036
Артема 4.61512051684126 0.0036197023661500073
срочность 4.61512051684126 0.0036197023661500073
Полный 3.005682604407159 0.001178699060551827
подозревающая 4.61512051684126 0.0018098511830750036
сборной 4.61512051684126 0.0036197023661500073
украденные 4.61512051684126 0.0018098511830750036
получил 1.3570239788197773 0.0015964987986115027
Итог 2.5356789751614235 0.004971919559140046
даты 2.41789593950504 0.0009481944860804079
направлениях 3.9219733362813143 0.0015380287593260056
заметкам 4.61512051684126 0.0018098511830750036
ущерба 4.61512051684126 0.005429553549225011
клавиатуре 4.61512051684126 0.0018098511830750036
антивирусы 4.61512051684126 0.0018098511830750036
рычагов 4.61512051684126 0.0018098511830750036
крупнейшую 4.61512051684126 0.0018098511830750036
соцсетей 3.5165082281731497 0.0013790228345777057
троян 4.61512051684126 0.0018098511830750036
обращать 1.9760631872260008 0.0007749267400886278
максимально 2.130213867053259 0.0008353779870797093
способом 2.6692103677859462 0.001046749163837626
никак 1.4796263009121098 0.0005802456082008273
порноместь 4.61512051684126 0.0036197023661500073
уничтожить 4.61512051684126 0.0018098511830750036
информацию 1.1186129553747792 0.0008773434944115915
Научитесь 4.61512051684126 0.0018098511830750036
переводы 2.6692103677859462 0.001046749163837626
переходит 2.41789593950504 0.0009481944860804079
самих 3.5165082281731497 0.0013790228345777057
поэтому 0.7649729151312009 0.0002999893784828239
секунд 2.312535423847214 0.0009068766368028289
пароля 3.228826155721369 0.007597238013462044
долларов 3.228826155721369 0.006331031677885037
авторитетных 4.61512051684126 0.0018098511830750036
сложные 2.0501711593797225 0.002411966069858497
показаться 2.312535423847214 0.0009068766368028289
жертву 4.61512051684126 0.0018098511830750036
каждой 1.4796263009121098 0.0005802456082008273
виноват 3.005682604407159 0.001178699060551827
снизить 2.8233610476132043 0.0011072004108287074
взломы 4.61512051684126 0.0018098511830750036
узнать 1.7247487589450947 0.0013527441246628193
нерационально 4.61512051684126 0.0018098511830750036
свободный 4.61512051684126 0.0018098511830750036
позволяющей 4.61512051684126 0.0018098511830750036
открывала 3.5165082281731497 0.0013790228345777057
мнемоническая 4.61512051684126 0.0018098511830750036
паролей 3.5165082281731497 0.0027580456691554114
выбрать 1.670681537674819 0.0006551692304607133
надавить 4.61512051684126 0.0018098511830750036
обычного 2.6692103677859462 0.001046749163837626
техподдержка 4.61512051684126 0.0036197023661500073
фразу 3.9219733362813143 0.006152115037304022
доставки 3.228826155721369 0.0012662063355770073
Многофакторная 4.61512051684126 0.0018098511830750036
интимные 4.61512051684126 0.0036197023661500073
личных 1.213923135179104 0.0023802414415276547
некоторые 1.2478246868547855 0.000978686028905714
Демехина 4.61512051684126 0.0018098511830750036
примерах 3.5165082281731497 0.0013790228345777057
хранилищу 4.61512051684126 0.0018098511830750036
Артемом 4.61512051684126 0.0018098511830750036
опасность 1.9070703157390494 0.0007478707120545291
преступники 4.61512051684126 0.0036197023661500073
Мистера 4.61512051684126 0.0018098511830750036
таком 1.5240780634829436 0.0005976776719540955
Нина 4.61512051684126 0.0036197023661500073
Количество 0.009950330853168092 3.902090530654154e-06
получить 0.951558870711613 0.0003731603414555345
лист 0.951558870711613 0.000746320682911069
популярный 2.5356789751614235 0.000994383911828009
времени 0.9015484501369516 0.0007070968236368248
Простой 0.2843871765549284 0.00011152438296271701
участием 4.61512051684126 0.0018098511830750036
опираются 4.61512051684126 0.0018098511830750036
Время 0.009950330853168092 3.902090530654154e-06
вводите 3.9219733362813143 0.0015380287593260056
унизить 4.61512051684126 0.0018098511830750036
Скорость 3.9219733362813143 0.0015380287593260056
неправильного 3.5165082281731497 0.0013790228345777057
всей 2.0501711593797225 0.0008039886899528323
копию 3.5165082281731497 0.0027580456691554114
Смогу 4.61512051684126 0.0018098511830750036
компьютер 1.4370666864933137 0.0005635555633307113
становятся 2.8233610476132043 0.0011072004108287074
повторить 3.9219733362813143 0.0015380287593260056
громких 4.61512051684126 0.005429553549225011
бухгалтер 3.005682604407159 0.002357398121103654
размер 1.1186129553747792 0.00043867174720579573
остался 3.5165082281731497 0.0013790228345777057
сутки 0.020000666706669435 7.843398708497817e-06
обнаружила 3.9219733362813143 0.0015380287593260056
двух 1.149384614041533 0.0004507390643300129
использовали 2.41789593950504 0.0028445834582412235
своих 1.2829160066660557 0.0010062086326792592
аналогичная 3.5165082281731497 0.0013790228345777057
Ничего 3.5165082281731497 0.0013790228345777057
обеление 4.61512051684126 0.0018098511830750036
бумажках 4.61512051684126 0.0018098511830750036
ведет 1.8425317946014783 0.0007225614880790111
перепискам 4.61512051684126 0.0018098511830750036
русском 3.005682604407159 0.001178699060551827
которой 0.9262410627273231 0.0003632317893048326
киберграмотность 4.61512051684126 0.0018098511830750036
уловку 4.61512051684126 0.0018098511830750036
введенные 3.228826155721369 0.0012662063355770073
длилась 3.9219733362813143 0.0015380287593260056
возможные 3.005682604407159 0.001178699060551827
закладки 0.009950330853168092 3.902090530654154e-06
Возьмем 3.9219733362813143 0.0015380287593260056
компаний 2.130213867053259 0.0033415119483188372
достаточно 0.9775343571148737 0.0003833468067117152
шаблонами 3.5165082281731497 0.0013790228345777057
выучить 4.61512051684126 0.0018098511830750036
мошенники 3.5165082281731497 0.011032182676621646
топовые 3.5165082281731497 0.0013790228345777057
подтверждение 3.228826155721369 0.0012662063355770073
богатых 3.9219733362813143 0.0015380287593260056
обычно 1.0597724553518457 0.0004155970413144493
шантажисты 4.61512051684126 0.0018098511830750036
раскрыл 3.228826155721369 0.0012662063355770073
собеседование 3.9219733362813143 0.0015380287593260056
незаметно 4.61512051684126 0.0018098511830750036
сложная 2.8233610476132043 0.0011072004108287074
Ольга 3.9219733362813143 0.0015380287593260056
Карма 0.009950330853168092 3.902090530654154e-06
судьбу 4.61512051684126 0.0018098511830750036
содержимым 4.61512051684126 0.0018098511830750036
вашей 1.7247487589450947 0.0020291161869942288
похитили 4.61512051684126 0.0018098511830750036
обучите 4.61512051684126 0.0018098511830750036
собирала 4.61512051684126 0.0018098511830750036
фото 1.8425317946014783 0.0036128074403950555
создали 2.217225244042889 0.0008695000957030937
созвониться 4.61512051684126 0.0018098511830750036
тренировку 4.61512051684126 0.0018098511830750036
Условно 4.61512051684126 0.0018098511830750036
сервисов 1.7819071727850435 0.00069878712658237
тревожно 4.61512051684126 0.0018098511830750036
мнемонической 4.61512051684126 0.0018098511830750036
вещи 2.8233610476132043 0.0011072004108287074
первый 1.5240780634829436 0.001195355343908191
сами 1.0316015783851493 0.0004045496385824115
Преобразуйте 4.61512051684126 0.0018098511830750036
сможете 2.8233610476132043 0.0011072004108287074
физической 3.228826155721369 0.0012662063355770073
пояс 2.0501711593797225 0.0008039886899528323
пытается 2.6692103677859462 0.001046749163837626
логином 3.5165082281731497 0.0013790228345777057
похитил 4.61512051684126 0.0036197023661500073
чатики 4.61512051684126 0.0018098511830750036
сотрудникам 3.005682604407159 0.001178699060551827
дополнительную 3.5165082281731497 0.0013790228345777057
Фишинговые 4.61512051684126 0.0018098511830750036
известного 3.005682604407159 0.001178699060551827
взломщиков 4.61512051684126 0.0018098511830750036
Комментарии 0.009950330853168092 7.804181061308308e-06
Придумайте 4.61512051684126 0.0018098511830750036
летом 3.9219733362813143 0.0015380287593260056
многофакторную 4.61512051684126 0.0036197023661500073
прибегают 3.9219733362813143 0.0015380287593260056
шаблоны 3.5165082281731497 0.0013790228345777057
сотрудников 2.5356789751614235 0.007955071294624073
пообещали 4.61512051684126 0.0018098511830750036
эмоциональных 4.61512051684126 0.0018098511830750036
ресурсы 2.217225244042889 0.0017390001914061874
попасть 3.5165082281731497 0.0013790228345777057
эйчара 4.61512051684126 0.0018098511830750036
открытии 3.5165082281731497 0.0013790228345777057
другого 2.5356789751614235 0.000994383911828009
такие 0.8309308829229982 0.0006517104964101946
Лоуренс 4.61512051684126 0.0018098511830750036
основам 3.228826155721369 0.0012662063355770073
своей 1.5240780634829436 0.0005976776719540955
письмо 3.5165082281731497 0.0027580456691554114
просится 4.61512051684126 0.0018098511830750036
версий 2.130213867053259 0.0008353779870797093
нападающим 4.61512051684126 0.0018098511830750036
знаменитостей 4.61512051684126 0.005429553549225011
навыков 3.228826155721369 0.0012662063355770073
коллегами 3.005682604407159 0.001178699060551827
той 0.061243625240718594 2.4017107937536703e-05
оправданиями 4.61512051684126 0.0018098511830750036
отпечаток 4.61512051684126 0.0018098511830750036
снижаете 4.61512051684126 0.0018098511830750036
Злоумышленники 4.61512051684126 0.0018098511830750036
Твиттера 3.9219733362813143 0.003076057518652011
Собчак 4.61512051684126 0.0018098511830750036
приходит 1.6193882432872684 0.0012701084261076614
предоставит 2.8233610476132043 0.0011072004108287074
социальную 3.5165082281731497 0.0013790228345777057
Голосование 0.009950330853168092 7.804181061308308e-06
одинаковые 3.5165082281731497 0.0013790228345777057
запомнить 4.61512051684126 0.0018098511830750036
мнемоники 4.61512051684126 0.0018098511830750036
тексты 3.5165082281731497 0.0027580456691554114
Венгерский 4.61512051684126 0.0018098511830750036
которая 0.663876798259832 0.0005206876849096722
записей 1.9760631872260008 0.0007749267400886278
компания 1.4796263009121098 0.0005802456082008273
Техническая 0.009950330853168092 3.902090530654154e-06
код 0.6077873316087886 0.0002383479731799171
трояна 4.61512051684126 0.0018098511830750036
приложение 1.5240780634829436 0.0017930330158622864
выходят 2.6692103677859462 0.001046749163837626
паспорта 3.5165082281731497 0.0013790228345777057
устроили 4.61512051684126 0.0018098511830750036
займет 3.9219733362813143 0.0015380287593260056
нужно 0.1607732205877518 6.304832179911834e-05
считалась 4.61512051684126 0.0018098511830750036
поделиться 2.312535423847214 0.0009068766368028289
языка 0.009950330853168092 1.170627159196246e-05
удар 1.9760631872260008 0.0015498534801772555
сценарии 2.8233610476132043 0.0011072004108287074
учетные 3.5165082281731497 0.0027580456691554114
Обращайте 4.61512051684126 0.0018098511830750036
Социальные 2.8233610476132043 0.002214400821657415
людей 1.6193882432872684 0.0031752710652691537
Секретной 4.61512051684126 0.0018098511830750036
аутентификацию 3.9219733362813143 0.003076057518652011
отеля 4.61512051684126 0.0018098511830750036
заявила 4.61512051684126 0.0018098511830750036
интимного 4.61512051684126 0.0018098511830750036
схема 2.41789593950504 0.0009481944860804079
справа 3.5165082281731497 0.0013790228345777057
вариантов 2.217225244042889 0.0008695000957030937
увольняете 4.61512051684126 0.0018098511830750036
написал 2.41789593950504 0.0009481944860804079
Настройка 0.009950330853168092 3.902090530654154e-06
остается 2.41789593950504 0.0009481944860804079
примеру 2.41789593950504 0.0009481944860804079
длины 3.9219733362813143 0.0015380287593260056
считается 2.6692103677859462 0.001046749163837626
технологии 1.9070703157390494 0.0007478707120545291
сайты 2.41789593950504 0.0037927779443216315
обменяться 4.61512051684126 0.0018098511830750036
Скарлетт 4.61512051684126 0.0018098511830750036
приговорили 3.9219733362813143 0.0015380287593260056
Комментировать 1.149384614041533 0.0004507390643300129
способе 2.8233610476132043 0.0011072004108287074
Даллас 4.61512051684126 0.0018098511830750036
Завладев 4.61512051684126 0.0018098511830750036
скандала 3.9219733362813143 0.0015380287593260056
Хакер 4.61512051684126 0.0018098511830750036
попало 4.61512051684126 0.0036197023661500073
чек 1.670681537674819 0.0013103384609214265
используют 1.3962446919730587 0.0010950938760573008
самый 1.8425317946014783 0.0007225614880790111
Часто 2.5356789751614235 0.000994383911828009
Корпоративные 4.61512051684126 0.0018098511830750036
имени 1.7247487589450947 0.0006763720623314096
пароли 3.5165082281731497 0.015169251180354762
открытый 3.5165082281731497 0.0013790228345777057
временное 3.5165082281731497 0.0013790228345777057
кажутся 4.61512051684126 0.0018098511830750036
статьей 4.61512051684126 0.0018098511830750036
запись 1.9760631872260008 0.0015498534801772555
цифровой 3.5165082281731497 0.0013790228345777057
профиль 2.41789593950504 0.0009481944860804079
Гугл 3.005682604407159 0.002357398121103654
сильнее 3.5165082281731497 0.0013790228345777057
утечек 3.9219733362813143 0.0015380287593260056
аббревиатуру 4.61512051684126 0.0036197023661500073
лучшим 3.005682604407159 0.001178699060551827
отслеживает 3.9219733362813143 0.0015380287593260056
Антифишинг 4.61512051684126 0.005429553549225011
сеть 1.670681537674819 0.0013103384609214265
легко 1.149384614041533 0.0004507390643300129
банка 2.8233610476132043 0.002214400821657415
дают 1.1811333123561132 0.0004631895342572993
аккаунту 4.61512051684126 0.0018098511830750036
сложности 0.1607732205877518 6.304832179911834e-05
хитрые 4.61512051684126 0.0018098511830750036
своему 2.41789593950504 0.0009481944860804079
покажутся 4.61512051684126 0.0018098511830750036
цифры 3.228826155721369 0.003798619006731022
коды 3.005682604407159 0.002357398121103654
обеспечению 3.228826155721369 0.0012662063355770073
Теги 0.009950330853168092 3.902090530654154e-06
мошеннику 4.61512051684126 0.0018098511830750036
Выясняю 4.61512051684126 0.0018098511830750036
щедрость 4.61512051684126 0.0018098511830750036
апреле 4.61512051684126 0.0018098511830750036
первой 1.9760631872260008 0.0007749267400886278
сообщение 1.7247487589450947 0.0013527441246628193
Добавить 0.009950330853168092 3.902090530654154e-06
знает 1.9760631872260008 0.0007749267400886278
наоборот 3.9219733362813143 0.0015380287593260056
кого 0.41042789745029334 0.00016095211664717387
адрес 1.6193882432872684 0.0006350542130538307
отпуска 3.9219733362813143 0.003076057518652011
руководитель 2.8233610476132043 0.002214400821657415
сказали 3.9219733362813143 0.0015380287593260056
точно 0.663876798259832 0.0007810315273645082
прибыльнее 4.61512051684126 0.0018098511830750036
насмешек 4.61512051684126 0.0018098511830750036
рекламу 3.9219733362813143 0.0015380287593260056
Закрепите 4.61512051684126 0.0018098511830750036
Она 1.7247487589450947 0.0006763720623314096
Сообщите 4.61512051684126 0.0018098511830750036
Кейлоггеры 4.61512051684126 0.0018098511830750036
Меню 0.009950330853168092 3.902090530654154e-06
работать 1.004202604197035 0.0003938049428223667
несостоятельный 4.61512051684126 0.0018098511830750036
предсказуемость 3.9219733362813143 0.0015380287593260056
сканирование 3.228826155721369 0.0012662063355770073
забыть 3.5165082281731497 0.0013790228345777057
Херд 4.61512051684126 0.0018098511830750036
специальные 2.8233610476132043 0.0033216012324861223
Рейтинг 0.009950330853168092 3.902090530654154e-06
разные 1.3570239788197773 0.0005321662662038342
пострадали 3.5165082281731497 0.0013790228345777057
часовой 3.9219733362813143 0.0015380287593260056
защита 3.9219733362813143 0.0015380287593260056
личные 0.3246610756928683 0.00025463613779832807
доверчивого 4.61512051684126 0.0018098511830750036
личную 2.8233610476132043 0.0011072004108287074
который 0.3524406397999441 0.0001382120156078212
семейный 3.9219733362813143 0.0015380287593260056
Биста 4.61512051684126 0.0018098511830750036
расчетных 4.61512051684126 0.0018098511830750036
делаете 2.8233610476132043 0.0011072004108287074
Дзюбу 4.61512051684126 0.0018098511830750036
Ксения 3.005682604407159 0.001178699060551827
юристов 3.5165082281731497 0.0013790228345777057
сменяется 4.61512051684126 0.0018098511830750036
ресурсе 4.61512051684126 0.0018098511830750036
требованиях 3.5165082281731497 0.0013790228345777057
безопасности 1.4796263009121098 0.0029012280410041368
Меня 2.217225244042889 0.0008695000957030937
злоумышленники 3.5165082281731497 0.004137068503733117
действительно 1.9760631872260008 0.0007749267400886278
документов 3.5165082281731497 0.0013790228345777057
Уровень 0.17246926035094298 6.763500405919333e-05
хакеры 3.5165082281731497 0.004137068503733117
дней 1.4370666864933137 0.0005635555633307113
техподдержки 4.61512051684126 0.0018098511830750036
Обновить 0.009950330853168092 3.902090530654154e-06
сайте 1.5240780634829436 0.0005976776719540955
Дайджест 4.61512051684126 0.0018098511830750036
усложнили 4.61512051684126 0.0018098511830750036
вытащить 2.8233610476132043 0.0011072004108287074
разберемся 3.228826155721369 0.0012662063355770073
заплатили 4.61512051684126 0.0018098511830750036
Илона 4.61512051684126 0.0018098511830750036
Уэста 4.61512051684126 0.0018098511830750036
проблем 0.6448286032891376 0.0002528739620741716
скачивала 4.61512051684126 0.0018098511830750036
представителей 3.9219733362813143 0.0015380287593260056
нарушают 3.5165082281731497 0.0013790228345777057
обещал 3.5165082281731497 0.0013790228345777057
тюрьму 4.61512051684126 0.0018098511830750036
хакеров 3.9219733362813143 0.0015380287593260056
Есть 2.0501711593797225 0.0008039886899528323
показал 1.9070703157390494 0.0007478707120545291
Напоследок 3.005682604407159 0.001178699060551827
ежегодный 4.61512051684126 0.0018098511830750036
людям 2.8233610476132043 0.0011072004108287074
почту 2.41789593950504 0.0009481944860804079
СМИ 3.005682604407159 0.002357398121103654
аналог 1.4796263009121098 0.0005802456082008273
занимает 2.41789593950504 0.0009481944860804079
рождения 3.9219733362813143 0.0015380287593260056
видом 3.9219733362813143 0.003076057518652011
вчера 2.0501711593797225 0.0008039886899528323
нанимаете 4.61512051684126 0.0018098511830750036
системе 1.5705980791178364 0.001231841630680656
котором 1.004202604197035 0.0003938049428223667
ездили 4.61512051684126 0.0018098511830750036
нужен 1.8425317946014783 0.0007225614880790111
которого 1.3192836508369303 0.00051736613758311
скандале 4.61512051684126 0.0018098511830750036
атаки 3.5165082281731497 0.006895114172888529
виде 0.5720692490067093 0.0002243408819634154
любовнице 4.61512051684126 0.0018098511830750036
продолжается 3.5165082281731497 0.0013790228345777057
язык 0.009950330853168092 3.902090530654154e-06
письма 3.005682604407159 0.009429592484414617
прочтение 0.009950330853168092 3.902090530654154e-06
зарегистрировано 4.61512051684126 0.0018098511830750036
программа 2.130213867053259 0.0008353779870797093
фишинг 3.9219733362813143 0.003076057518652011
случае 0.5897688261061103 0.00023128189259063146
штуки 3.9219733362813143 0.0015380287593260056
менеджеров 4.61512051684126 0.0018098511830750036
взламывать 4.61512051684126 0.005429553549225011
гораздо 2.217225244042889 0.0008695000957030937
