джуновские 0.6448286032891376 0.000449985068589768
сложности 0.1607732205877518 0.0001121934547018505
приложением 2.6692103677859462 0.0018626729712393204
Подписывайтесь 3.005682604407159 0.0020974756485744304
эффекта 3.005682604407159 0.0020974756485744304
искусственного 0.5207759546191588 0.00036341657684519106
Хабы 0.009950330853168092 6.94370610828199e-06
погрузиться 3.9219733362813143 0.002736896954836925
делимся 4.61512051684126 0.003220600500238143
час 0.030153038170687457 2.1041896839279453e-05
макеты 4.61512051684126 0.003220600500238143
удаленный 0.6077873316087886 0.00042413630956649584
Работа 0.9015484501369516 0.0006291336009329739
календаре 0.5897688261061103 0.005350310355463666
предлагаю 2.217225244042889 0.0015472611612302085
кроссплатформенная 4.61512051684126 0.003220600500238143
мобильное 3.9219733362813143 0.00547379390967385
Поиск 0.009950330853168092 6.94370610828199e-06
Теги 0.009950330853168092 6.94370610828199e-06
алгоритмам 0.6448286032891376 0.000449985068589768
темы 0.877450898557891 0.0006123174449112987
агентства 2.5356789751614235 0.0017694898640344893
позволяют 1.5705980791178364 0.0010960209903125167
мусора 0.5375830729355401 0.0003751452009319889
Подробнее 0.5375830729355401 0.004876887612115855
соавтор 3.9219733362813143 0.002736896954836925
ведем 3.5165082281731497 0.0024539485193113397
Истории 0.6077873316087886 0.00042413630956649584
серия 0.6077873316087886 0.00042413630956649584
Рассказываем 4.61512051684126 0.003220600500238143
Похожие 0.020000666706669435 1.395719937660114e-05
сегодня 2.130213867053259 0.0014865414285089036
другие 1.213923135179104 0.0008471201222464089
сервер 0.36662527479190044 0.0002558445741743897
использовать 0.19627990904466155 0.00013697132522307156
перекрытия 4.61512051684126 0.003220600500238143
мин 0.009950330853168092 6.94370610828199e-06
вакансий 1.4796263009121098 0.0030976126327538936
Добавить 0.009950330853168092 6.94370610828199e-06
работает 0.22067136216882066 0.0001539925765309286
рады 3.5165082281731497 0.0024539485193113397
пользователя 1.2829160066660557 0.0008952658804368845
телеграм 3.9219733362813143 0.00547379390967385
Давайте 1.5705980791178364 0.0010960209903125167
командой 2.41789593950504 0.001687296538384536
игровой 0.6077873316087886 0.00042413630956649584
технических 2.41789593950504 0.001687296538384536
виджеты 4.61512051684126 0.003220600500238143
Вебинар 0.6448286032891376 0.0013499552057693043
грантов 0.6448286032891376 0.000449985068589768
свой 0.9775343571148737 0.0006821593559768832
Дата 0.6448286032891376 0.005849805891666985
Будем 3.228826155721369 0.0022531934094357072
улучшения 2.130213867053259 0.0014865414285089036
объемами 3.9219733362813143 0.002736896954836925
приложений 1.5705980791178364 0.0021920419806250335
применяем 4.61512051684126 0.003220600500238143
работе 1.1186129553747792 0.0007806091803034048
пользовательского 3.5165082281731497 0.0024539485193113397
вопросов 2.130213867053259 0.0014865414285089036
администраторов 0.6077873316087886 0.00042413630956649584
урок 0.5546775062948401 0.001161222972005946
Компетенции 0.6448286032891376 0.000449985068589768
Меню 0.009950330853168092 6.94370610828199e-06
Место 0.6448286032891376 0.005849805891666985
работать 1.004202604197035 0.0007007694376811131
пользователи 1.8425317946014783 0.0012857863186332716
Вправо 0.6448286032891376 0.000449985068589768
личный 2.5356789751614235 0.0017694898640344893
Голосование 0.009950330853168092 1.388741221656398e-05
используем 1.2829160066660557 0.001790531760873769
Публикации 0.020000666706669435 1.395719937660114e-05
наш 0.663876798259832 0.000926555196454755
качественной 0.6448286032891376 0.000449985068589768
разработчик 0.3246610756928683 0.0006796812470890474
разработчиков 0.4254657748148339 0.0005938112698043738
облака 0.6448286032891376 0.000449985068589768
применение 2.217225244042889 0.003094522322460417
демо 0.4562374334815876 0.00031837922783083567
интересных 3.005682604407159 0.0020974756485744304
Тренировки 0.6448286032891376 0.000449985068589768
просмотров 0.009950330853168092 6.94370610828199e-06
использования 1.3192836508369303 0.0009206445574577322
понимать 0.5897688261061103 0.0004115623350356666
Используем 3.5165082281731497 0.0024539485193113397
Рейтинг 0.009950330853168092 6.94370610828199e-06
гибких 3.5165082281731497 0.0024539485193113397
Развитие 0.6261364702769852 0.00043694101205651436
Влево 0.6448286032891376 0.000449985068589768
платформы 0.5207759546191588 0.00036341657684519106
Техническая 0.009950330853168092 6.94370610828199e-06
Разработка 2.130213867053259 0.002973082857017807
софт 2.6692103677859462 0.0018626729712393204
инструмент 0.9775343571148737 0.0006821593559768832
Открытый 0.6448286032891376 0.000899970137179536
касались 3.5165082281731497 0.0024539485193113397
связи 1.149384614041533 0.0008020827732320537
элемент 1.8425317946014783 0.0012857863186332716
множество 1.4796263009121098 0.0010325375442512977
приложение 1.5240780634829436 0.002127115231657981
Хабр 0.009950330853168092 2.0831118324845972e-05
контроллер 2.41789593950504 0.001687296538384536
апреля 0.6261364702769852 0.00043694101205651436
Два 0.6448286032891376 0.000449985068589768
Войти 0.009950330853168092 6.94370610828199e-06
нужно 0.1607732205877518 0.0001121934547018505
знаний 2.0501711593797225 0.0014306846890298132
Количество 0.009950330853168092 6.94370610828199e-06
Лихие 0.6448286032891376 0.000449985068589768
реагировать 3.5165082281731497 0.0024539485193113397
личные 0.3246610756928683 0.00022656041569634911
который 0.3524406397999441 0.00024594601521280116
базы 0.5207759546191588 0.00036341657684519106
запуск 0.297632403304949 0.00020769881598391415
принципа 0.5720692490067093 0.0003992109204512975
текущей 2.217225244042889 0.0015472611612302085
будущего 0.5720692490067093 0.0003992109204512975
языка 0.009950330853168092 6.94370610828199e-06
Время 0.009950330853168092 9.026817940766587e-05
Средний 2.217225244042889 0.0015472611612302085
Практический 0.6448286032891376 0.000449985068589768
навыки 0.3956128116651528 0.0002760731414271827
могут 0.3956128116651528 0.0002760731414271827
Много 2.6692103677859462 0.003725345942478641
февраля 0.5546775062948401 0.0034836689160178376
Серия 0.6448286032891376 0.000449985068589768
шаблонов 0.6077873316087886 0.00042413630956649584
участникам 3.005682604407159 0.0020974756485744304
грани 0.20840126957700633 0.00014543005553175597
техники 2.5356789751614235 0.0017694898640344893
кроссплатформа 4.61512051684126 0.003220600500238143
должен 0.4407332469456224 0.0003075598373661007
разработка 1.7819071727850435 0.0012434802322296185
интерфейса 2.6692103677859462 0.003725345942478641
опыт 0.8309308829229982 0.0005798540704277726
Смело 4.61512051684126 0.003220600500238143
пекарен 4.61512051684126 0.003220600500238143
вакансии 1.2829160066660557 0.0008952658804368845
канала 3.005682604407159 0.0020974756485744304
Уровень 0.17246926035094298 0.00012035538056590577
Ближайшие 0.6448286032891376 0.000449985068589768
большими 3.005682604407159 0.0020974756485744304
Они 1.6193882432872684 0.0011300685577719945
Обновить 0.009950330853168092 6.94370610828199e-06
сутки 0.020000666706669435 1.395719937660114e-05
Облачные 0.6448286032891376 0.000449985068589768
продуктовой 3.5165082281731497 0.0024539485193113397
анимированные 4.61512051684126 0.003220600500238143
разработки 1.1186129553747792 0.0007806091803034048
используйте 2.0501711593797225 0.0014306846890298132
Дзен 0.009950330853168092 6.94370610828199e-06
конференция 0.6077873316087886 0.0012724089286994878
данных 0.14921239818667575 0.0002082517769527924
обучение 0.5207759546191588 0.00036341657684519106
Девять 0.6448286032891376 0.000449985068589768
скролл 3.228826155721369 0.0022531934094357072
ы 0.009950330853168092 6.94370610828199e-06
индустрии 0.5720692490067093 0.0003992109204512975
Настройка 0.009950330853168092 6.94370610828199e-06
элементов 3.005682604407159 0.0020974756485744304
таких 1.149384614041533 0.0008020827732320537
задач 0.4562374334815876 0.00031837922783083567
действия 1.2478246868547855 0.0008707778694031999
Разрабатываем 0.6448286032891376 0.000449985068589768
НОВИНКИ 4.61512051684126 0.003220600500238143
Настройки 0.009950330853168092 6.94370610828199e-06
сборщик 0.6077873316087886 0.00042413630956649584
канал 1.149384614041533 0.0008020827732320537
мощный 3.005682604407159 0.0020974756485744304
Комментировать 1.149384614041533 0.0008020827732320537
привлекательные 3.5165082281731497 0.0024539485193113397
скиллов 4.61512051684126 0.003220600500238143
встреч 0.5042466526679482 0.00035188182321559537
Хекслета 0.6448286032891376 0.000449985068589768
закладки 0.009950330853168092 6.94370610828199e-06
эффективных 3.228826155721369 0.0022531934094357072
активно 1.1186129553747792 0.0007806091803034048
ваших 1.7247487589450947 0.001203592992983318
представляют 1.9070703157390494 0.001330823667647627
скажут 3.228826155721369 0.0022531934094357072
списков 3.005682604407159 0.0020974756485744304
назад 0.13778370236305296 9.615052502655475e-05
практику 3.5165082281731497 0.0024539485193113397
Практическое 3.5165082281731497 0.004907897038622679
директора 0.6261364702769852 0.00043694101205651436
Онлайн 0.6448286032891376 0.005849805891666985
занятий 0.6261364702769852 0.00043694101205651436
создание 1.7819071727850435 0.0012434802322296185
СУБД 0.5207759546191588 0.00036341657684519106
начале 0.5375830729355401 0.0003751452009319889
профессиям 0.6448286032891376 0.000449985068589768
нашей 1.6193882432872684 0.0011300685577719945
рассмотрим 1.9070703157390494 0.001330823667647627
Язык 0.009950330853168092 6.94370610828199e-06
авторский 4.61512051684126 0.003220600500238143
Карма 0.009950330853168092 6.94370610828199e-06
найм 0.6448286032891376 0.000449985068589768
советами 3.5165082281731497 0.0024539485193113397
приложениях 3.228826155721369 0.0022531934094357072
марта 0.6261364702769852 0.0013108230361695433
создавать 1.6193882432872684 0.0011300685577719945
Саша 4.61512051684126 0.006441201000476286
вебинар 0.5720692490067093 0.0003992109204512975
поддержка 0.009950330853168092 6.94370610828199e-06
новым 2.130213867053259 0.0014865414285089036
Яндекс 0.009950330853168092 6.94370610828199e-06
Конкурс 0.6448286032891376 0.000449985068589768
инженеров 0.6261364702769852 0.0008738820241130287
Чаплыгин 4.61512051684126 0.006441201000476286
построения 0.5720692490067093 0.0003992109204512975
передаем 4.61512051684126 0.003220600500238143
операционного 0.5897688261061103 0.0004115623350356666
прокручиваемых 4.61512051684126 0.003220600500238143
создания 1.2829160066660557 0.002685797641310654
карточки 3.9219733362813143 0.002736896954836925
Мы 1.149384614041533 0.0008020827732320537
мобильных 2.5356789751614235 0.005308469592103468
применяю 2.312535423847214 0.0016137721031732127
интеллекта 0.5375830729355401 0.0003751452009319889
преобразить 4.61512051684126 0.003220600500238143
прочтение 0.009950330853168092 6.94370610828199e-06
сети 1.149384614041533 0.0008020827732320537
собой 1.2829160066660557 0.0008952658804368845
Лучшие 0.020000666706669435 1.395719937660114e-05
Москва 0.6261364702769852 0.0013108230361695433
Яндекса 0.6448286032891376 0.000449985068589768
Комментарии 0.009950330853168092 1.388741221656398e-05
облачные 0.6077873316087886 0.00042413630956649584
четвергам 0.6448286032891376 0.000449985068589768
июня 0.6448286032891376 0.000449985068589768
карьеры 0.6261364702769852 0.00043694101205651436
знать 0.3246610756928683 0.00022656041569634911
Туториал 1.7247487589450947 0.001203592992983318
современного 4.61512051684126 0.009661801500714431
легко 1.149384614041533 0.0008020827732320537
события 0.5897688261061103 0.0004115623350356666
