События 3.228826155721369 0.0018717832786790544
созданными 3.5165082281731497 0.0020385554945931304
Хабы 0.009950330853168092 5.76830774096701e-06
значимости 3.5165082281731497 0.0020385554945931304
защиты 2.130213867053259 0.001234906589596092
Бинарный 3.9219733362813143 0.0022736077311775733
сайтов 2.8233610476132043 0.0016367310420946112
программного 2.217225244042889 0.001285347967561095
Файлы 3.9219733362813143 0.0022736077311775733
структуру 2.217225244042889 0.001285347967561095
Работа 0.9015484501369516 0.0005226367826880879
календаре 0.5897688261061103 0.004444634631524309
рынке 1.9760631872260008 0.001145543876652754
журналом 3.9219733362813143 0.0022736077311775733
сократить 2.6692103677859462 0.0015473683291512732
мусора 0.5375830729355401 0.00031164236112205223
Истории 0.6077873316087886 0.00035234048209205137
Похожие 0.020000666706669435 1.1594589395170686e-05
отчет 1.9760631872260008 0.001145543876652754
сервер 0.36662527479190044 0.00021253639118371038
мин 0.009950330853168092 5.76830774096701e-06
интенсивной 3.9219733362813143 0.0022736077311775733
вновь 3.228826155721369 0.0018717832786790544
программы 1.4796263009121098 0.0025732631320210604
программное 2.6692103677859462 0.0015473683291512732
приложений 1.5705980791178364 0.001820983280136622
помогающая 3.9219733362813143 0.0022736077311775733
ранней 2.8233610476132043 0.0016367310420946112
простых 2.8233610476132043 0.0016367310420946112
расшифровки 3.9219733362813143 0.0022736077311775733
администраторам 2.8233610476132043 0.0016367310420946112
сервера 1.9070703157390494 0.00331664402737226
настройки 1.5240780634829436 0.001767047030125152
распространенный 3.9219733362813143 0.0022736077311775733
общих 3.005682604407159 0.0017424246982070488
Место 0.6448286032891376 0.004859577879860168
другую 2.6692103677859462 0.0015473683291512732
учитываются 3.5165082281731497 0.0020385554945931304
отдельного 3.005682604407159 0.0017424246982070488
текстовые 3.9219733362813143 0.0022736077311775733
процессе 1.3570239788197773 0.0007866805674317549
работоспособности 2.8233610476132043 0.0016367310420946112
утилитами 3.9219733362813143 0.0022736077311775733
маркетологам 3.9219733362813143 0.0022736077311775733
значимы 2.8233610476132043 0.0016367310420946112
которому 2.5356789751614235 0.0014699588261805354
учитывать 2.6692103677859462 0.0015473683291512732
указанных 2.8233610476132043 0.0016367310420946112
просмотров 0.009950330853168092 5.76830774096701e-06
понимать 0.5897688261061103 0.0003418949716557161
Развитие 0.6261364702769852 0.00036297766392868704
возникшие 3.9219733362813143 0.0022736077311775733
является 0.6448286032891376 0.0011214410491985002
самой 2.217225244042889 0.001285347967561095
хранения 1.2478246868547855 0.002170129890182236
заменой 3.9219733362813143 0.0022736077311775733
уровня 1.6193882432872684 0.0009387757932100107
сложных 1.9070703157390494 0.0011055480091240865
структурированием 3.9219733362813143 0.0022736077311775733
представляет 2.0501711593797225 0.0011885050199302739
д 0.009950330853168092 1.730492322290103e-05
части 0.877450898557891 0.0005086671875697919
детализации 3.228826155721369 0.0018717832786790544
запуске 2.5356789751614235 0.0014699588261805354
представление 2.217225244042889 0.00257069593512219
данные 0.6261364702769852 0.0007259553278573741
важную 3.9219733362813143 0.004547215462355147
Два 0.6448286032891376 0.0003738136830661667
запрос 1.0316015783851493 0.00059802990051313
строкой 2.8233610476132043 0.0016367310420946112
переименование 3.9219733362813143 0.0022736077311775733
нам 0.36662527479190044 0.00021253639118371038
сформированных 3.5165082281731497 0.0020385554945931304
проблемы 1.3962446919730587 0.00161883442547601
навыки 0.3956128116651528 0.0002293407603855958
совершали 3.9219733362813143 0.0022736077311775733
шаблонов 0.6077873316087886 0.00035234048209205137
возникновения 2.8233610476132043 0.0016367310420946112
правильно 1.4370666864933137 0.0008330821370975732
называют 1.9070703157390494 0.0011055480091240865
сказано 2.8233610476132043 0.0016367310420946112
высокими 3.228826155721369 0.0018717832786790544
инженер 0.5720692490067093 0.0003316343472502663
недостатком 3.9219733362813143 0.0022736077311775733
Теперь 1.213923135179104 0.0007037235566255675
Облачные 0.6448286032891376 0.0003738136830661667
разработки 1.1186129553747792 0.0006484712784781329
Дзен 0.009950330853168092 5.76830774096701e-06
конференция 0.6077873316087886 0.001057021446276154
проанализировать 3.5165082281731497 0.0020385554945931304
Девять 0.6448286032891376 0.0003738136830661667
реализуют 3.5165082281731497 0.0020385554945931304
географию 3.9219733362813143 0.0022736077311775733
прочее 3.228826155721369 0.0018717832786790544
Самый 2.6692103677859462 0.0015473683291512732
посещения 3.005682604407159 0.0017424246982070488
существует 1.670681537674819 0.0019370220726664567
возможностью 3.5165082281731497 0.0020385554945931304
лога 1.9070703157390494 0.0011055480091240865
Разрабатываем 0.6448286032891376 0.0003738136830661667
редакторе 3.228826155721369 0.0018717832786790544
ресурса 2.217225244042889 0.00257069593512219
логи 0.41042789745029334 0.0019034337273057082
эффективно 1.213923135179104 0.0007037235566255675
повышения 2.312535423847214 0.0013406002457085296
сохранения 2.312535423847214 0.0013406002457085296
которым 1.2829160066660557 0.0007437194241542352
решений 1.9760631872260008 0.001145543876652754
помогает 1.7819071727850435 0.001032989665382634
читать 1.3962446919730587 0.00161883442547601
разработкой 2.130213867053259 0.002469813179192184
посторонних 3.9219733362813143 0.0022736077311775733
записываются 3.228826155721369 0.0018717832786790544
системного 3.5165082281731497 0.0020385554945931304
ранее 1.1186129553747792 0.0006484712784781329
директора 0.6261364702769852 0.00036297766392868704
программным 3.005682604407159 0.0034848493964140977
нехватки 3.228826155721369 0.0018717832786790544
занятий 0.6261364702769852 0.00036297766392868704
имеет 1.1811333123561132 0.0006847149636847033
БД 0.4719857904497268 0.0005472299019706978
основная 2.6692103677859462 0.0015473683291512732
Язык 0.009950330853168092 5.76830774096701e-06
запускается 2.6692103677859462 0.0015473683291512732
значимых 2.8233610476132043 0.0016367310420946112
некорректные 3.9219733362813143 0.0022736077311775733
обыкновенный 3.9219733362813143 0.0022736077311775733
незаметным 3.9219733362813143 0.0022736077311775733
странице 2.5356789751614235 0.0014699588261805354
приложении 2.312535423847214 0.0013406002457085296
файл 0.9775343571148737 0.0022667463353388375
вызовах 3.9219733362813143 0.0022736077311775733
проводит 1.6193882432872684 0.0009387757932100107
событий 2.0501711593797225 0.007131030119581644
количеством 2.41789593950504 0.001401678805510168
программисту 3.9219733362813143 0.004547215462355147
Выбрали 3.9219733362813143 0.0022736077311775733
конкретные 2.0501711593797225 0.0011885050199302739
механизмы 3.228826155721369 0.0056153498360371635
строками 3.5165082281731497 0.0020385554945931304
определить 2.130213867053259 0.001234906589596092
оптимизации 2.5356789751614235 0.0014699588261805354
конверсии 3.228826155721369 0.0018717832786790544
выше 0.7439195059333684 0.0008625153691981083
обращается 3.005682604407159 0.0034848493964140977
зависимости 1.3192836508369303 0.001529604232854412
фиксации 3.228826155721369 0.0037435665573581087
коэффициент 3.005682604407159 0.0017424246982070488
июня 0.6448286032891376 0.0003738136830661667
конкретной 2.217225244042889 0.001285347967561095
углубленный 3.9219733362813143 0.0022736077311775733
компьютере 3.005682604407159 0.0017424246982070488
должно 1.6193882432872684 0.0009387757932100107
Логирование 3.5165082281731497 0.008154221978372522
месте 1.0887599922250981 0.0006311652128841148
возможность 1.004202604197035 0.0005821464372156725
информацию 1.1186129553747792 0.0012969425569562658
требующие 3.9219733362813143 0.0022736077311775733
е 0.009950330853168092 5.76830774096701e-06
заложен 3.005682604407159 0.0017424246982070488
важной 2.8233610476132043 0.0016367310420946112
поэтому 0.7649729151312009 0.00044346255949634833
удаленный 0.6077873316087886 0.00035234048209205137
верификация 3.9219733362813143 0.0022736077311775733
понятный 3.005682604407159 0.0017424246982070488
программиста 3.5165082281731497 0.0020385554945931304
журналах 3.9219733362813143 0.0022736077311775733
места 1.7819071727850435 0.001032989665382634
Представим 3.005682604407159 0.0017424246982070488
порядке 2.5356789751614235 0.0014699588261805354
Подробнее 0.5375830729355401 0.0040513506945866785
Подобная 3.5165082281731497 0.004077110989186261
отдельной 2.6692103677859462 0.0015473683291512732
порядок 2.8233610476132043 0.0016367310420946112
серия 0.6077873316087886 0.00035234048209205137
использовать 0.19627990904466155 0.00022757090903728877
вакансий 1.4796263009121098 0.0025732631320210604
исправлять 3.5165082281731497 0.0020385554945931304
разобраться 2.130213867053259 0.001234906589596092
ситуации 1.9760631872260008 0.002291087753305508
грантов 0.6448286032891376 0.0003738136830661667
уровне 1.4370666864933137 0.0016661642741951463
Дата 0.6448286032891376 0.004859577879860168
выхода 2.6692103677859462 0.0015473683291512732
пропустить 3.228826155721369 0.0018717832786790544
какого 2.312535423847214 0.0013406002457085296
ограниченным 3.5165082281731497 0.0020385554945931304
Ошибки 3.9219733362813143 0.0022736077311775733
дата 2.6692103677859462 0.0015473683291512732
урок 0.5546775062948401 0.0009646565326866786
уровням 3.5165082281731497 0.0020385554945931304
налажено 3.9219733362813143 0.0022736077311775733
ответа 2.312535423847214 0.0013406002457085296
соблюдались 3.9219733362813143 0.0022736077311775733
Запись 3.228826155721369 0.0018717832786790544
самых 1.3962446919730587 0.000809417212738005
доступом 2.5356789751614235 0.0014699588261805354
Системное 2.8233610476132043 0.0032734620841892224
часов 0.8309308829229982 0.00048169906256405695
сайта 2.130213867053259 0.002469813179192184
доступа 1.4796263009121098 0.0008577543773403535
процедур 2.217225244042889 0.001285347967561095
иного 3.9219733362813143 0.0022736077311775733
платформы 0.5207759546191588 0.00030189910412704857
сервиса 2.0501711593797225 0.0023770100398605477
системные 3.005682604407159 0.0034848493964140977
Открытый 0.6448286032891376 0.0007476273661323334
отдельные 2.0501711593797225 0.0011885050199302739
замедления 3.9219733362813143 0.0022736077311775733
структурируют 3.9219733362813143 0.0022736077311775733
Хабр 0.009950330853168092 1.730492322290103e-05
должна 1.7247487589450947 0.001999708706023298
готовых 3.9219733362813143 0.0022736077311775733
обычные 3.228826155721369 0.0018717832786790544
доступ 0.7030975114131134 0.000407592760239486
жёстком 3.9219733362813143 0.004547215462355147
производит 1.149384614041533 0.001998929763550492
важных 2.5356789751614235 0.0029399176523610708
Количество 0.009950330853168092 5.76830774096701e-06
своевременный 3.9219733362813143 0.0022736077311775733
производительность 1.9070703157390494 0.0011055480091240865
быстрый 3.005682604407159 0.0017424246982070488
базы 0.5207759546191588 0.0006037982082540971
Грамотные 3.9219733362813143 0.0022736077311775733
журналов 3.5165082281731497 0.006115666483779391
разработчика 1.9070703157390494 0.0011055480091240865
всем 0.7649729151312009 0.00044346255949634833
времени 0.9015484501369516 0.0005226367826880879
многоступенчатый 3.9219733362813143 0.0022736077311775733
структурирование 3.9219733362813143 0.0022736077311775733
Простой 0.2843871765549284 0.00016486213133619037
Время 0.009950330853168092 7.498800063257112e-05
обращении 3.5165082281731497 0.0020385554945931304
Практический 0.6448286032891376 0.0003738136830661667
могут 0.3956128116651528 0.0004586815207711916
страниц 1.7247487589450947 0.000999854353011649
трафика 3.228826155721369 0.0018717832786790544
февраля 0.5546775062948401 0.0028939695980600357
реагировала 3.228826155721369 0.0018717832786790544
Серия 0.6448286032891376 0.0003738136830661667
контролем 3.9219733362813143 0.0022736077311775733
вся 1.6193882432872684 0.0009387757932100107
остановка 3.228826155721369 0.0018717832786790544
должен 0.4407332469456224 0.00025549753446123036
позволяет 0.9262410627273231 0.0010739026814229832
иное 3.228826155721369 0.0018717832786790544
использовании 2.6692103677859462 0.0015473683291512732
ротации 3.9219733362813143 0.00682082319353272
фиксация 3.5165082281731497 0.006115666483779391
пользователь 1.3570239788197773 0.0007866805674317549
сутки 0.020000666706669435 1.1594589395170686e-05
функций 2.217225244042889 0.001285347967561095
облачных 3.005682604407159 0.0017424246982070488
заключается 1.9760631872260008 0.001145543876652754
журнал 1.9760631872260008 0.001145543876652754
Ассортимент 3.9219733362813143 0.0022736077311775733
исправить 2.6692103677859462 0.0015473683291512732
Типы 3.9219733362813143 0.0022736077311775733
т 0.009950330853168092 2.307323096386804e-05
которой 0.9262410627273231 0.0005369513407114916
закладки 0.009950330853168092 5.76830774096701e-06
происходит 1.2478246868547855 0.0014467532601214904
достаточно 0.9775343571148737 0.0017000597515041283
Подобные 3.228826155721369 0.0018717832786790544
рейтингами 3.9219733362813143 0.0022736077311775733
увеличить 3.005682604407159 0.0017424246982070488
проблему 1.9070703157390494 0.0011055480091240865
открыв 1.4796263009121098 0.0008577543773403535
Такие 2.217225244042889 0.001285347967561095
Онлайн 0.6448286032891376 0.004859577879860168
профессиям 0.6448286032891376 0.0003738136830661667
программисты 3.9219733362813143 0.0022736077311775733
работу 1.0887599922250981 0.0012623304257682296
аутентификации 2.6692103677859462 0.0015473683291512732
администратор 0.5375830729355401 0.00031164236112205223
Карма 0.009950330853168092 5.76830774096701e-06
контроля 2.41789593950504 0.002803357611020336
информация 2.217225244042889 0.0038560439026832853
задача 1.1186129553747792 0.0006484712784781329
найм 0.6448286032891376 0.0003738136830661667
входа 2.130213867053259 0.001234906589596092
исходя 2.41789593950504 0.001401678805510168
вебинар 0.5720692490067093 0.0003316343472502663
поддержка 0.009950330853168092 5.76830774096701e-06
отладка 3.5165082281731497 0.0020385554945931304
архивирование 3.5165082281731497 0.004077110989186261
построения 0.5720692490067093 0.0003316343472502663
автоматического 3.228826155721369 0.0018717832786790544
инженеров 0.6261364702769852 0.0007259553278573741
сами 1.0316015783851493 0.00059802990051313
веб 0.3524406397999441 0.0002043134143767792
оптимизировать 2.6692103677859462 0.0015473683291512732
специальным 2.6692103677859462 0.0015473683291512732
событие 2.312535423847214 0.0026812004914170593
обработка 2.130213867053259 0.001234906589596092
обращения 2.5356789751614235 0.0014699588261805354
ошибок 1.670681537674819 0.0038740441453329133
памяти 1.8425317946014783 0.002136268747364033
собой 1.2829160066660557 0.0007437194241542352
быстрого 2.6692103677859462 0.0015473683291512732
Москва 0.6261364702769852 0.0010889329917860612
вида 1.7819071727850435 0.001032989665382634
Яндекса 0.6448286032891376 0.0003738136830661667
записью 3.228826155721369 0.0018717832786790544
стоит 0.8539204011476971 0.001485078958517734
Комментарии 0.009950330853168092 1.730492322290103e-05
облачные 0.6077873316087886 0.00035234048209205137
карьеры 0.6261364702769852 0.00036297766392868704
правильная 2.6692103677859462 0.0015473683291512732
качестве 0.27131509498757567 0.00015728411303627575
упрощено 3.9219733362813143 0.0022736077311775733
носителе 3.5165082281731497 0.0020385554945931304
особый 3.5165082281731497 0.0020385554945931304
программ 0.6077873316087886 0.00035234048209205137
сложный 2.8233610476132043 0.0032734620841892224
механизма 2.312535423847214 0.0026812004914170593
такого 1.6193882432872684 0.0009387757932100107
логам 3.5165082281731497 0.0020385554945931304
происходило 3.005682604407159 0.006969698792828195
объем 1.7819071727850435 0.0030989689961479017
Срочное 3.9219733362813143 0.0022736077311775733
специалист 1.6193882432872684 0.0009387757932100107
системы 1.1186129553747792 0.007133184063259462
такие 0.8309308829229982 0.00048169906256405695
едет 1.6193882432872684 0.0009387757932100107
благополучно 3.9219733362813143 0.0022736077311775733
записям 2.5356789751614235 0.0014699588261805354
внимания 1.9070703157390494 0.0011055480091240865
Поиск 0.009950330853168092 5.76830774096701e-06
алгоритмам 0.6448286032891376 0.0003738136830661667
специалиста 2.8233610476132043 0.0016367310420946112
Несанкционированные 3.9219733362813143 0.0022736077311775733
нужный 2.312535423847214 0.0013406002457085296
Расшифровка 3.9219733362813143 0.0022736077311775733
чтения 2.130213867053259 0.002469813179192184
вовремя 2.6692103677859462 0.0030947366583025464
одно 0.19627990904466155 0.00011378545451864438
являются 1.2829160066660557 0.0007437194241542352
фиксируется 3.5165082281731497 0.004077110989186261
система 1.2478246868547855 0.0028935065202429808
Руководитель 2.5356789751614235 0.0014699588261805354
журнала 2.6692103677859462 0.0015473683291512732
событиях 3.9219733362813143 0.0022736077311775733
технических 2.41789593950504 0.001401678805510168
игровой 0.6077873316087886 0.00035234048209205137
записи 1.7819071727850435 0.008263917323061072
удалении 3.228826155721369 0.0018717832786790544
значимой 3.5165082281731497 0.0020385554945931304
Вебинар 0.6448286032891376 0.0011214410491985002
Программисты 3.9219733362813143 0.0022736077311775733
фиксировать 2.217225244042889 0.001285347967561095
крайне 1.670681537674819 0.0009685110363332283
таким 1.149384614041533 0.0006663099211834973
работе 1.1186129553747792 0.0038908276708687975
Информация 3.228826155721369 0.0018717832786790544
следующие 1.3570239788197773 0.0007866805674317549
Компетенции 0.6448286032891376 0.0003738136830661667
Основные 2.8233610476132043 0.0016367310420946112
администраторов 0.6077873316087886 0.00035234048209205137
Экстренные 3.9219733362813143 0.0022736077311775733
пользователи 1.8425317946014783 0.0010681343736820164
Вправо 0.6448286032891376 0.0003738136830661667
сбора 2.217225244042889 0.001285347967561095
отдельном 3.228826155721369 0.0037435665573581087
оформляется 3.9219733362813143 0.0022736077311775733
Голосование 0.009950330853168092 1.153661548193402e-05
логирование 3.9219733362813143 0.011368038655887867
настройкой 3.9219733362813143 0.0022736077311775733
Публикации 0.020000666706669435 1.1594589395170686e-05
качественной 0.6448286032891376 0.0003738136830661667
проведена 3.9219733362813143 0.0022736077311775733
посетитель 3.9219733362813143 0.0022736077311775733
которая 0.663876798259832 0.00038485611493323593
демо 0.4562374334815876 0.0002644854686849783
Тренировки 0.6448286032891376 0.0003738136830661667
записей 1.9760631872260008 0.004582175506611016
обеспечением 3.9219733362813143 0.004547215462355147
реальности 3.005682604407159 0.0017424246982070488
условия 1.2829160066660557 0.0014874388483084703
баз 0.2456726643742379 0.0001424189358691234
предотвращать 2.8233610476132043 0.0016367310420946112
Техническая 0.009950330853168092 5.76830774096701e-06
журналы 3.5165082281731497 0.0020385554945931304
код 0.6077873316087886 0.00035234048209205137
абсолютно 2.130213867053259 0.002469813179192184
стадии 2.6692103677859462 0.0015473683291512732
Более 2.130213867053259 0.001234906589596092
имеют 1.7819071727850435 0.001032989665382634
специальное 3.228826155721369 0.0018717832786790544
апреля 0.6261364702769852 0.00036297766392868704
Войти 0.009950330853168092 5.76830774096701e-06
сортировка 3.9219733362813143 0.0022736077311775733
нужно 0.1607732205877518 0.000279605601022177
снижаться 3.9219733362813143 0.0022736077311775733
запуск 0.297632403304949 0.00034508104731008577
предотвратить 2.5356789751614235 0.0029399176523610708
редактор 2.312535423847214 0.0013406002457085296
работой 3.005682604407159 0.0017424246982070488
сохраненные 3.9219733362813143 0.0022736077311775733
воспользоваться 2.130213867053259 0.001234906589596092
принципа 0.5720692490067093 0.0003316343472502663
будущего 0.5720692490067093 0.0003316343472502663
необходимости 1.670681537674819 0.0009685110363332283
языка 0.009950330853168092 5.76830774096701e-06
текстовом 3.5165082281731497 0.0020385554945931304
грани 0.20840126957700633 0.00012081233018956889
человеку 3.5165082281731497 0.0020385554945931304
выявлять 2.8233610476132043 0.0016367310420946112
страницы 2.217225244042889 0.001285347967561095
объемов 3.9219733362813143 0.0022736077311775733
подобным 2.5356789751614235 0.0014699588261805354
ситуационной 3.9219733362813143 0.0022736077311775733
механизм 1.7247487589450947 0.001999708706023298
справочник 3.9219733362813143 0.0022736077311775733
используемой 3.228826155721369 0.0018717832786790544
группировка 3.9219733362813143 0.0022736077311775733
обучение 0.5207759546191588 0.00030189910412704857
индустрии 0.5720692490067093 0.0003316343472502663
Настройка 0.009950330853168092 1.153661548193402e-05
одновременным 3.9219733362813143 0.0022736077311775733
серверов 3.005682604407159 0.0034848493964140977
действия 1.2478246868547855 0.0014467532601214904
обращаться 2.0501711593797225 0.0011885050199302739
свои 0.5720692490067093 0.0003316343472502663
Настройки 0.009950330853168092 5.76830774096701e-06
сборщик 0.6077873316087886 0.00035234048209205137
состояний 3.005682604407159 0.0017424246982070488
процесс 0.5207759546191588 0.0006037982082540971
значительно 1.7819071727850435 0.001032989665382634
влияющие 3.9219733362813143 0.0022736077311775733
разделение 3.005682604407159 0.0017424246982070488
появление 2.312535423847214 0.0026812004914170593
хронологическая 3.9219733362813143 0.0022736077311775733
выявить 3.9219733362813143 0.00682082319353272
момент 0.663876798259832 0.00038485611493323593
записывается 3.9219733362813143 0.0022736077311775733
старых 2.130213867053259 0.002469813179192184
сбой 2.8233610476132043 0.0032734620841892224
этапом 3.9219733362813143 0.0022736077311775733
нового 1.5240780634829436 0.000883523515062576
Выбирать 3.9219733362813143 0.0022736077311775733
которые 0.2456726643742379 0.0001424189358691234
одинаково 2.5356789751614235 0.0014699588261805354
используют 1.3962446919730587 0.000809417212738005
самый 1.8425317946014783 0.0010681343736820164
вашего 1.9070703157390494 0.0011055480091240865
тех 0.6261364702769852 0.00036297766392868704
хронологической 3.9219733362813143 0.0022736077311775733
формируются 3.228826155721369 0.0018717832786790544
храниться 2.8233610476132043 0.0016367310420946112
Яндекс 0.009950330853168092 5.76830774096701e-06
Наиболее 3.005682604407159 0.0017424246982070488
администратора 2.41789593950504 0.001401678805510168
системой 2.217225244042889 0.00257069593512219
запись 1.9760631872260008 0.005727719383263771
спровоцировал 3.9219733362813143 0.0022736077311775733
браузер 1.9070703157390494 0.0011055480091240865
переходных 3.9219733362813143 0.0022736077311775733
сложно 0.1153108465109944 6.684686754260544e-05
пользователей 1.1186129553747792 0.0006484712784781329
интеллекта 0.5375830729355401 0.00031164236112205223
важным 2.130213867053259 0.001234906589596092
необходимо 0.6077873316087886 0.00035234048209205137
Лучшие 0.020000666706669435 1.1594589395170686e-05
возникли 3.9219733362813143 0.0022736077311775733
исправление 3.5165082281731497 0.0020385554945931304
организация 3.005682604407159 0.0017424246982070488
Уровни 3.9219733362813143 0.0022736077311775733
четвергам 0.6448286032891376 0.0003738136830661667
собираются 3.005682604407159 0.0017424246982070488
знать 0.3246610756928683 0.00018820931924224248
прописали 3.9219733362813143 0.0022736077311775733
легко 1.149384614041533 0.0013326198423669947
несколькими 2.130213867053259 0.001234906589596092
производительности 1.8425317946014783 0.0010681343736820164
события 0.5897688261061103 0.0010256849149671483
джуновские 0.6448286032891376 0.0003738136830661667
сложности 0.1607732205877518 9.320186700739234e-05
анализа 1.6193882432872684 0.0037551031728400427
администрирование 2.312535423847214 0.0026812004914170593
искусственного 0.5207759546191588 0.00030189910412704857
точное 2.6692103677859462 0.0015473683291512732
делается 3.228826155721369 0.0018717832786790544
действий 2.41789593950504 0.002803357611020336
используются 1.9070703157390494 0.002211096018248173
диске 3.228826155721369 0.0056153498360371635
вредоносных 3.5165082281731497 0.0020385554945931304
истории 1.9070703157390494 0.0011055480091240865
позволяющим 3.9219733362813143 0.0022736077311775733
быстрее 2.130213867053259 0.002469813179192184
используемый 3.228826155721369 0.0018717832786790544
Теги 0.009950330853168092 5.76830774096701e-06
Система 3.005682604407159 0.0017424246982070488
последовательности 3.005682604407159 0.0017424246982070488
конкретный 2.41789593950504 0.001401678805510168
Обычно 2.312535423847214 0.0013406002457085296
Добавить 0.009950330853168092 5.76830774096701e-06
работает 0.22067136216882066 0.00012792542734424385
пользователя 1.2829160066660557 0.0022311582724627056
почтовые 3.5165082281731497 0.0020385554945931304
адрес 1.6193882432872684 0.0009387757932100107
Заключение 1.670681537674819 0.0009685110363332283
компьютера 2.5356789751614235 0.0014699588261805354
уровни 3.005682604407159 0.008712123491035244
образом 0.9775343571148737 0.0011333731676694187
ротацией 3.9219733362813143 0.0022736077311775733
востребованными 3.9219733362813143 0.0022736077311775733
объемных 3.9219733362813143 0.0022736077311775733
точно 0.663876798259832 0.00038485611493323593
несколько 0.48798613179616795 0.0002828905111861843
будут 0.7864791203521645 0.00045592992484183445
текстовый 3.228826155721369 0.0037435665573581087
Она 1.7247487589450947 0.000999854353011649
Меню 0.009950330853168092 5.76830774096701e-06
работать 1.004202604197035 0.0005821464372156725
получать 1.9070703157390494 0.0011055480091240865
установление 3.228826155721369 0.0018717832786790544
будущем 1.9760631872260008 0.002291087753305508
разработчиков 0.4254657748148339 0.00024664682597961386
запросы 1.8425317946014783 0.002136268747364033
какие 1.0316015783851493 0.00119605980102626
фиксируются 3.5165082281731497 0.0020385554945931304
облака 0.6448286032891376 0.0003738136830661667
рассказывающий 3.9219733362813143 0.0022736077311775733
использующие 3.9219733362813143 0.0022736077311775733
операционная 3.9219733362813143 0.0022736077311775733
файлов 1.7247487589450947 0.007998834824093193
Настраивая 3.9219733362813143 0.0022736077311775733
рекомендациям 2.8233610476132043 0.0016367310420946112
прописать 3.228826155721369 0.0018717832786790544
Рейтинг 0.009950330853168092 5.76830774096701e-06
специальные 2.8233610476132043 0.0016367310420946112
администраторы 3.9219733362813143 0.004547215462355147
выставить 3.228826155721369 0.0018717832786790544
Влево 0.6448286032891376 0.0003738136830661667
каждого 1.213923135179104 0.0007037235566255675
занимаются 3.5165082281731497 0.0020385554945931304
компонентой 3.9219733362813143 0.0022736077311775733
механизме 3.9219733362813143 0.0022736077311775733
функцию 2.217225244042889 0.001285347967561095
период 1.5705980791178364 0.000910491640068311
обеспечивать 2.8233610476132043 0.0016367310420946112
одна 0.9262410627273231 0.0005369513407114916
Лог 2.5356789751614235 0.0029399176523610708
последующей 3.9219733362813143 0.0022736077311775733
разные 1.3570239788197773 0.0015733611348635098
типы 2.312535423847214 0.0013406002457085296
наиболее 1.7247487589450947 0.001999708706023298
Таким 1.7247487589450947 0.001999708706023298
файлом 3.005682604407159 0.0017424246982070488
личные 0.3246610756928683 0.00018820931924224248
следовать 2.5356789751614235 0.0014699588261805354
любом 1.7819071727850435 0.0030989689961479017
Лихие 0.6448286032891376 0.0003738136830661667
ведения 1.2829160066660557 0.0007437194241542352
который 0.3524406397999441 0.0004086268287535584
логов 2.312535423847214 0.022790204177045005
файлы 1.5705980791178364 0.003641966560273244
Такой 1.9760631872260008 0.001145543876652754
находить 2.6692103677859462 0.0015473683291512732
серверные 3.005682604407159 0.0017424246982070488
логирования 3.228826155721369 0.018717832786790546
хранилищах 3.9219733362813143 0.0022736077311775733
авторизации 2.6692103677859462 0.0015473683291512732
такое 1.4370666864933137 0.0024992464112927196
обращаясь 3.9219733362813143 0.0022736077311775733
Еще 2.0501711593797225 0.0011885050199302739
обрабатываются 3.9219733362813143 0.004547215462355147
обеспечения 1.8425317946014783 0.0010681343736820164
формирования 2.6692103677859462 0.007736841645756366
вероятность 2.130213867053259 0.001234906589596092
вакансии 1.2829160066660557 0.0007437194241542352
Уровень 0.17246926035094298 0.00019996435982718027
Ближайшие 0.6448286032891376 0.0003738136830661667
Обновить 0.009950330853168092 5.76830774096701e-06
ошибки 1.2829160066660557 0.0022311582724627056
Фиксацию 3.9219733362813143 0.0022736077311775733
возникновении 3.5165082281731497 0.0020385554945931304
сохранение 3.228826155721369 0.0018717832786790544
данных 0.14921239818667575 0.0005189996458666983
баги 3.9219733362813143 0.0022736077311775733
сервере 1.9760631872260008 0.002291087753305508
удалённом 3.9219733362813143 0.0022736077311775733
записаны 3.5165082281731497 0.0020385554945931304
типа 1.5705980791178364 0.000910491640068311
посетителей 3.5165082281731497 0.0020385554945931304
задач 0.4562374334815876 0.0002644854686849783
лог 0.1607732205877518 0.000559211202044354
Системный 3.005682604407159 0.0017424246982070488
проблем 0.6448286032891376 0.0003738136830661667
широк 1.5705980791178364 0.000910491640068311
мониторинга 2.41789593950504 0.002803357611020336
записывающее 3.9219733362813143 0.0022736077311775733
встреч 0.5042466526679482 0.00029231690009736127
Хекслета 0.6448286032891376 0.0003738136830661667
особенности 2.130213867053259 0.001234906589596092
Поэтому 0.9775343571148737 0.0022667463353388375
большим 1.7247487589450947 0.000999854353011649
понятие 2.6692103677859462 0.0030947366583025464
удобном 3.228826155721369 0.0018717832786790544
подход 0.877450898557891 0.0005086671875697919
удалением 3.5165082281731497 0.0020385554945931304
важно 1.0316015783851493 0.0017940897015393902
время 0.5897688261061103 0.0020513698299342966
информации 1.5240780634829436 0.005301141090375456
содержат 1.7247487589450947 0.000999854353011649
СУБД 0.5207759546191588 0.0006037982082540971
начале 0.5375830729355401 0.00031164236112205223
Основным 2.8233610476132043 0.0016367310420946112
сложную 3.005682604407159 0.0017424246982070488
четко 2.312535423847214 0.0013406002457085296
книга 3.9219733362813143 0.0022736077311775733
специальными 3.005682604407159 0.0017424246982070488
дает 0.5897688261061103 0.0003418949716557161
удаление 2.41789593950504 0.002803357611020336
Ротация 3.9219733362813143 0.004547215462355147
марта 0.6261364702769852 0.0010889329917860612
системе 1.5705980791178364 0.001820983280136622
Механизмы 3.5165082281731497 0.0020385554945931304
Конкурс 0.6448286032891376 0.0003738136830661667
работы 0.3524406397999441 0.0010215670718838959
делятся 3.5165082281731497 0.0020385554945931304
операционного 0.5897688261061103 0.0003418949716557161
ротация 3.9219733362813143 0.0022736077311775733
расскажет 3.005682604407159 0.0017424246982070488
журналами 3.9219733362813143 0.0022736077311775733
Управление 2.0501711593797225 0.0023770100398605477
прочтение 0.009950330853168092 5.76830774096701e-06
сбоев 3.228826155721369 0.0018717832786790544
внешнее 3.228826155721369 0.0018717832786790544
многоступенчатую 3.9219733362813143 0.0022736077311775733
Приложения 3.9219733362813143 0.0022736077311775733
эффективности 2.217225244042889 0.001285347967561095
вмешательство 3.9219733362813143 0.0022736077311775733
обеспечение 2.5356789751614235 0.0014699588261805354
смысл 2.0501711593797225 0.0011885050199302739
случае 0.5897688261061103 0.0003418949716557161
известными 3.228826155721369 0.0018717832786790544
назад 0.13778370236305296 7.987461006553794e-05
