выяснил 3.005682604407159 0.003281312886907379
компании 0.5042466526679482 0.0022019504483316516
Хабы 0.009950330853168092 1.0862806608262108e-05
популярными 3.005682604407159 0.003281312886907379
отношения 3.005682604407159 0.006562625773814758
брендов 3.228826155721369 0.007049838767950587
нагрузкой 3.5165082281731497 0.0038389827818484166
многочисленным 3.9219733362813143 0.004281630279783094
Дизайн 3.005682604407159 0.003281312886907379
Китае 2.6692103677859462 0.002913985117670247
элементы 2.6692103677859462 0.005827970235340494
тока 2.130213867053259 0.0023255609902328154
покупает 3.5165082281731497 0.0038389827818484166
светодиодным 3.9219733362813143 0.004281630279783094
Начнём 3.228826155721369 0.0035249193839752935
Истории 0.6077873316087886 0.0006635232877825203
Похожие 0.020000666706669435 2.1834788981080167e-05
отличаются 3.228826155721369 0.0035249193839752935
удалось 2.41789593950504 0.002639624388105939
мин 0.009950330853168092 1.0862806608262108e-05
небольшого 2.8233610476132043 0.003082271886040616
самом 1.4796263009121098 0.0016153125555809058
Надежин 3.9219733362813143 0.004281630279783094
Собственный 3.9219733362813143 0.004281630279783094
просмотров 0.009950330853168092 1.0862806608262108e-05
Этот 1.3962446919730587 0.0015242845982238631
самой 2.217225244042889 0.002420551576466036
хуже 2.6692103677859462 0.005827970235340494
получились 3.9219733362813143 0.004281630279783094
режимах 3.9219733362813143 0.004281630279783094
плюшевый 3.9219733362813143 0.008563260559566188
части 0.877450898557891 0.0009579158281199684
указан 1.0887599922250981 0.001188602611599452
купить 2.0501711593797225 0.0022381781215935832
идее 3.5165082281731497 0.0038389827818484166
запрос 1.0316015783851493 0.0011262025964903376
одним 1.2478246868547855 0.0013622540249506392
химических 3.5165082281731497 0.0038389827818484166
выпуска 2.6692103677859462 0.005827970235340494
выводы 2.5356789751614235 0.002768208488167493
отсортированы 3.9219733362813143 0.004281630279783094
производства 2.312535423847214 0.0025246019910995783
Батарейки 3.9219733362813143 0.02997141195848166
дату 2.6692103677859462 0.002913985117670247
Дзен 0.009950330853168092 1.0862806608262108e-05
батареек 3.9219733362813143 0.03853467251804785
Задонатить 2.5356789751614235 0.002768208488167493
заказ 1.8425317946014783 0.0020114975923596922
анализатора 3.005682604407159 0.003281312886907379
протестировал 3.9219733362813143 0.008563260559566188
проект 0.6261364702769852 0.0006835550985556606
говоря 1.670681537674819 0.0018238881415663963
разряд 3.005682604407159 0.019687877321444273
тёмно 3.5165082281731497 0.007677965563696833
ранее 1.1186129553747792 0.001221193182723558
Язык 0.009950330853168092 1.0862806608262108e-05
Блог 0.7439195059333684 0.0016242783972344288
стесняйтесь 2.5356789751614235 0.002768208488167493
могу 0.3246610756928683 0.0003544334887476728
нагрузочной 3.9219733362813143 0.004281630279783094
получил 1.3570239788197773 0.001481467225785783
частично 3.005682604407159 0.003281312886907379
вообще 1.670681537674819 0.0018238881415663963
ничем 3.228826155721369 0.0035249193839752935
поменьше 3.9219733362813143 0.008563260559566188
моём 3.228826155721369 0.0035249193839752935
оптимальные 3.9219733362813143 0.004281630279783094
столбики 3.9219733362813143 0.008563260559566188
хорошими 3.9219733362813143 0.004281630279783094
добавляю 2.8233610476132043 0.003082271886040616
результатам 3.005682604407159 0.003281312886907379
важной 2.8233610476132043 0.003082271886040616
практически 1.149384614041533 0.0012547866965518918
дорогих 3.9219733362813143 0.004281630279783094
сетей 2.0501711593797225 0.0022381781215935832
сомнения 3.5165082281731497 0.0038389827818484166
назывался 3.9219733362813143 0.004281630279783094
другие 1.213923135179104 0.0013252435973571005
Минпромторг 3.9219733362813143 0.004281630279783094
завода 3.228826155721369 0.007049838767950587
теста 2.312535423847214 0.005049203982199157
Эта 1.5240780634829436 0.0016638406806582353
показано 3.005682604407159 0.003281312886907379
розовому 3.9219733362813143 0.004281630279783094
высказывались 3.9219733362813143 0.004281630279783094
хотите 1.4370666864933137 0.0015688500944250148
просьбам 3.9219733362813143 0.004281630279783094
понятно 1.9070703157390494 0.002081954493164901
второго 2.41789593950504 0.002639624388105939
руководством 3.228826155721369 0.0035249193839752935
ответа 2.312535423847214 0.0025246019910995783
экземпляра 3.5165082281731497 0.0038389827818484166
током 3.005682604407159 0.009843938660722137
мной 1.670681537674819 0.0018238881415663963
датой 3.228826155721369 0.007049838767950587
часов 0.8309308829229982 0.0009071297848504347
тестирования 2.312535423847214 0.005049203982199157
Алексей 2.6692103677859462 0.002913985117670247
экземплярам 3.9219733362813143 0.004281630279783094
эмуляция 3.5165082281731497 0.0038389827818484166
представительства 3.5165082281731497 0.0038389827818484166
Хабр 0.009950330853168092 3.2588419824786325e-05
полная 3.005682604407159 0.003281312886907379
зелёные 3.9219733362813143 0.008563260559566188
производит 1.149384614041533 0.0012547866965518918
основных 2.0501711593797225 0.0022381781215935832
Количество 0.009950330853168092 1.0862806608262108e-05
компанию 2.217225244042889 0.002420551576466036
синие 3.9219733362813143 0.008563260559566188
делать 0.5546775062948401 0.0006055431291428385
Простой 0.2843871765549284 0.0003104663499507952
хорошие 2.8233610476132043 0.003082271886040616
Время 0.009950330853168092 1.0862806608262108e-05
могут 0.3956128116651528 0.0004318917157916515
грейда 3.5165082281731497 0.0038389827818484166
создан 0.663876798259832 0.0007247563299779826
розового 3.9219733362813143 0.004281630279783094
российский 2.8233610476132043 0.003082271886040616
Завод 3.9219733362813143 0.004281630279783094
сутки 0.020000666706669435 2.1834788981080167e-05
двух 1.149384614041533 0.0025095733931037837
Тестирование 3.228826155721369 0.0035249193839752935
упаковки 3.9219733362813143 0.004281630279783094
Я 0.009950330853168092 2.1725613216524216e-05
другими 1.8425317946014783 0.006034492777079077
Яростанмаш 3.9219733362813143 0.004281630279783094
важнее 3.9219733362813143 0.004281630279783094
зайцу 3.9219733362813143 0.004281630279783094
спросил 3.5165082281731497 0.0038389827818484166
отданной 3.9219733362813143 0.004281630279783094
промежуточное 3.9219733362813143 0.004281630279783094
закладки 0.009950330853168092 1.0862806608262108e-05
сравнение 3.228826155721369 0.0035249193839752935
покупке 2.5356789751614235 0.002768208488167493
обычно 1.0597724553518457 0.002313913657973462
похожих 3.9219733362813143 0.008563260559566188
Мне 1.7819071727850435 0.0019453135074072527
Сравнить 3.9219733362813143 0.004281630279783094
устройствах 2.41789593950504 0.002639624388105939
Карма 0.009950330853168092 1.0862806608262108e-05
заявлял 3.5165082281731497 0.0038389827818484166
зайца 3.9219733362813143 0.004281630279783094
дать 0.5207759546191588 0.0005685327015493
российских 2.6692103677859462 0.002913985117670247
самая 2.217225244042889 0.002420551576466036
поддержка 0.009950330853168092 1.0862806608262108e-05
наверняка 3.228826155721369 0.0035249193839752935
протестированным 3.9219733362813143 0.004281630279783094
дольше 3.5165082281731497 0.0038389827818484166
светло 3.5165082281731497 0.007677965563696833
попались 3.9219733362813143 0.004281630279783094
источников 2.8233610476132043 0.003082271886040616
отношение 2.6692103677859462 0.005827970235340494
года 0.6261364702769852 0.0006835550985556606
Сайт 0.7233002187306328 0.0015792581194991981
медтехника 3.9219733362813143 0.004281630279783094
вида 1.7819071727850435 0.0019453135074072527
Комментарии 0.009950330853168092 3.2588419824786325e-05
диаграммах 3.9219733362813143 0.004281630279783094
мВтч 3.9219733362813143 0.004281630279783094
раньше 2.130213867053259 0.0023255609902328154
тестировал 3.9219733362813143 0.004281630279783094
Энергия 3.9219733362813143 0.008563260559566188
дизайн 1.7819071727850435 0.0019453135074072527
бренд 2.312535423847214 0.0025246019910995783
писали 2.41789593950504 0.002639624388105939
означает 1.3192836508369303 0.002880531988726922
часть 0.8539204011476971 0.0018644550243399499
упаковках 3.9219733362813143 0.004281630279783094
предположения 3.5165082281731497 0.0038389827818484166
энергии 2.6692103677859462 0.00874195535301074
называться 3.5165082281731497 0.0038389827818484166
такие 0.8309308829229982 0.0018142595697008693
Поиск 0.009950330853168092 1.0862806608262108e-05
Тест 3.005682604407159 0.009843938660722137
смену 3.005682604407159 0.003281312886907379
игрушки 3.9219733362813143 0.004281630279783094
партий 3.9219733362813143 0.004281630279783094
отправил 3.005682604407159 0.003281312886907379
ёмкость 3.005682604407159 0.003281312886907379
Перевод 1.8425317946014783 0.0020114975923596922
сравнимыми 3.9219733362813143 0.004281630279783094
завод 2.6692103677859462 0.005827970235340494
разряжались 3.9219733362813143 0.004281630279783094
тонометры 3.9219733362813143 0.004281630279783094
являются 1.2829160066660557 0.0014005633260546458
вернется 3.5165082281731497 0.0038389827818484166
дали 1.149384614041533 0.0012547866965518918
копирует 3.9219733362813143 0.004281630279783094
переходим 2.6692103677859462 0.002913985117670247
вдохновила 2.5356789751614235 0.002768208488167493
Летом 3.9219733362813143 0.004281630279783094
мощной 3.228826155721369 0.0035249193839752935
Лента 3.9219733362813143 0.004281630279783094
Голосование 0.009950330853168092 2.1725613216524216e-05
одинаковые 3.5165082281731497 0.0038389827818484166
Ом 3.5165082281731497 0.015355931127393667
Публикации 0.020000666706669435 2.1834788981080167e-05
среднее 3.5165082281731497 0.0038389827818484166
проектом 2.0501711593797225 0.0022381781215935832
встретить 3.9219733362813143 0.004281630279783094
эта 0.6832948841169337 0.0007459551136647748
правду 3.228826155721369 0.0035249193839752935
Техническая 0.009950330853168092 1.0862806608262108e-05
характеристикам 2.41789593950504 0.002639624388105939
нажать 2.130213867053259 0.0023255609902328154
имеют 1.7819071727850435 0.007781254029629011
сопротивления 3.5165082281731497 0.01151694834554525
Войти 0.009950330853168092 1.0862806608262108e-05
те 0.009950330853168092 1.0862806608262108e-05
ответ 0.4719857904497268 0.0005152683301852913
тестам 3.9219733362813143 0.004281630279783094
Россию 3.9219733362813143 0.004281630279783094
имеющий 3.9219733362813143 0.004281630279783094
Результаты 2.8233610476132043 0.003082271886040616
перечисленные 3.9219733362813143 0.004281630279783094
языка 0.009950330853168092 1.0862806608262108e-05
Эксперт 3.228826155721369 0.0035249193839752935
товарищ 3.228826155721369 0.0035249193839752935
батарейкам 3.9219733362813143 0.008563260559566188
производитель 1.4796263009121098 0.0016153125555809058
действительности 3.9219733362813143 0.004281630279783094
работали 2.130213867053259 0.0023255609902328154
Настройка 0.009950330853168092 1.0862806608262108e-05
оказались 2.41789593950504 0.002639624388105939
рекомендовать 3.228826155721369 0.0035249193839752935
батарейками 3.9219733362813143 0.012844890839349282
считается 2.6692103677859462 0.002913985117670247
Настройки 0.009950330853168092 1.0862806608262108e-05
какое 2.41789593950504 0.002639624388105939
бывшего 3.9219733362813143 0.004281630279783094
большая 2.0501711593797225 0.0022381781215935832
Мерлен 3.9219733362813143 0.004281630279783094
Леруа 3.9219733362813143 0.004281630279783094
способности 2.0501711593797225 0.0022381781215935832
которые 0.2456726643742379 0.0002682015986618318
тех 0.6261364702769852 0.0006835550985556606
новым 2.130213867053259 0.0023255609902328154
Яндекс 0.009950330853168092 1.0862806608262108e-05
моторами 3.9219733362813143 0.004281630279783094
элементам 2.8233610476132043 0.003082271886040616
полученными 3.228826155721369 0.0035249193839752935
питания 2.312535423847214 0.0075738059732987344
разновидности 3.5165082281731497 0.0038389827818484166
светодиодных 3.9219733362813143 0.004281630279783094
Лучшие 0.020000666706669435 2.1834788981080167e-05
другая 2.217225244042889 0.002420551576466036
деле 0.4254657748148339 0.0004644822869157575
ещё 1.0597724553518457 0.002313913657973462
дорогие 2.8233610476132043 0.003082271886040616
Российских 3.9219733362813143 0.004281630279783094
батарейки 3.5165082281731497 0.034550845036635754
России 1.8425317946014783 0.008045990369438769
сложности 0.1607732205877518 0.00017551661636217443
новость 3.228826155721369 0.0035249193839752935
подобрать 3.9219733362813143 0.004281630279783094
батарейка 3.5165082281731497 0.0038389827818484166
неразбериха 3.9219733362813143 0.004281630279783094
Теги 0.009950330853168092 1.0862806608262108e-05
дешевле 2.6692103677859462 0.005827970235340494
этих 1.004202604197035 0.002192582105233701
Добавить 0.009950330853168092 1.0862806608262108e-05
продаже 2.6692103677859462 0.005827970235340494
вполне 1.7819071727850435 0.0019453135074072527
приходят 3.228826155721369 0.0035249193839752935
точно 0.663876798259832 0.0007247563299779826
несколько 0.48798613179616795 0.0005327359517425414
должны 1.4796263009121098 0.0016153125555809058
Меню 0.009950330853168092 1.0862806608262108e-05
американской 3.9219733362813143 0.004281630279783094
числе 0.8309308829229982 0.0009071297848504347
Рейтинг 0.009950330853168092 1.0862806608262108e-05
результатами 3.228826155721369 0.0035249193839752935
поддержать 2.5356789751614235 0.002768208488167493
ушедшим 3.9219733362813143 0.004281630279783094
брендами 3.9219733362813143 0.004281630279783094
брендом 3.5165082281731497 0.0038389827818484166
похоже 2.217225244042889 0.002420551576466036
результаты 1.670681537674819 0.0018238881415663963
принадлежит 3.005682604407159 0.003281312886907379
лампам 3.9219733362813143 0.004281630279783094
помощью 0.6448286032891376 0.0007039613573025519
автора 2.312535423847214 0.0025246019910995783
Уровень 0.17246926035094298 0.00018828521872373688
Обновить 0.009950330853168092 1.0862806608262108e-05
сайте 1.5240780634829436 0.0016638406806582353
множества 2.8233610476132043 0.003082271886040616
сравнил 3.5165082281731497 0.007677965563696833
многие 1.9070703157390494 0.002081954493164901
типа 1.5705980791178364 0.001714626723927769
которую 1.670681537674819 0.0018238881415663963
Фотон 3.9219733362813143 0.004281630279783094
кнопку 1.7819071727850435 0.0019453135074072527
большим 1.7247487589450947 0.0018829134922981382
отличающиеся 3.5165082281731497 0.0038389827818484166
развеять 3.9219733362813143 0.004281630279783094
СМИ 3.005682604407159 0.006562625773814758
котором 1.004202604197035 0.0010962910526168504
найти 1.0597724553518457 0.002313913657973462
ёмкости 3.005682604407159 0.006562625773814758
Ашан 3.9219733362813143 0.004281630279783094
слухам 3.9219733362813143 0.004281630279783094
тест 0.9775343571148737 0.0010671772457585956
работы 0.3524406397999441 0.0003847605237990656
отечественным 3.228826155721369 0.0035249193839752935
публикация 2.0501711593797225 0.0022381781215935832
расследования 3.005682604407159 0.003281312886907379
прочтение 0.009950330853168092 1.0862806608262108e-05
медведь 3.9219733362813143 0.008563260559566188
следующими 2.6692103677859462 0.002913985117670247
магазинов 3.005682604407159 0.003281312886907379
сразу 0.8539204011476971 0.0009322275121699749
эквивалентом 3.9219733362813143 0.012844890839349282
соответствует 2.5356789751614235 0.002768208488167493
лучших 2.130213867053259 0.0023255609902328154
ламп 2.8233610476132043 0.003082271886040616
энергопотреблением 3.005682604407159 0.003281312886907379
гораздо 2.217225244042889 0.002420551576466036
назад 0.13778370236305296 0.00015041888904263422
