использует 0.9262410627273231 0.0006755952317485946
располагают 3.228826155721369 0.002355088370329226
компании 0.5042466526679482 0.002574563507422055
снова 0.7864791203521645 0.0011473072506960824
выкатили 3.9219733362813143 0.0028606661825538397
Хабы 0.009950330853168092 7.257717617190439e-06
самое 1.9070703157390494 0.0013910067948497808
предыдущих 2.5356789751614235 0.0018495105581046124
Работа 0.9015484501369516 0.0006575845734040493
обучить 3.5165082281731497 0.0025649221212057983
календаре 0.5897688261061103 0.0004301741984727281
электронный 3.5165082281731497 0.0025649221212057983
складывания 3.9219733362813143 0.0028606661825538397
кое 0.7030975114131134 0.0005128355298418041
содержание 3.5165082281731497 0.0025649221212057983
мусора 0.5375830729355401 0.00039211019178376377
повторяющихся 3.9219733362813143 0.0028606661825538397
Похожие 0.020000666706669435 1.4588378341844956e-05
новой 1.5240780634829436 0.002223308626525082
минут 2.0501711593797225 0.0014953837778116138
работа 0.08252102368800344 6.019038926914912e-05
мин 0.009950330853168092 7.257717617190439e-06
ответы 2.312535423847214 0.001686750856197822
системам 3.005682604407159 0.002192328668422436
человечества 3.5165082281731497 0.0025649221212057983
свой 0.9775343571148737 0.0007130082838182886
ремонта 2.8233610476132043 0.0020593443089811847
которых 0.6077873316087886 0.00044331679913113683
приходится 2.217225244042889 0.0016172321254871547
ранней 2.8233610476132043 0.0020593443089811847
точкой 2.6692103677859462 0.0019469076351465691
человеческому 3.9219733362813143 0.005721332365107679
собрал 2.6692103677859462 0.0019469076351465691
человека 1.9760631872260008 0.002882659645843911
капибары 3.9219733362813143 0.0028606661825538397
одну 1.1811333123561132 0.0008615122628418039
аппаратов 3.9219733362813143 0.0028606661825538397
заболеваний 3.9219733362813143 0.0028606661825538397
анализируя 3.9219733362813143 0.0028606661825538397
планируют 3.9219733362813143 0.0028606661825538397
просмотров 0.009950330853168092 7.257717617190439e-06
говорить 2.0501711593797225 0.0014953837778116138
человеческое 3.228826155721369 0.002355088370329226
организует 3.9219733362813143 0.0028606661825538397
Этот 1.3962446919730587 0.0010184133420664176
мире 2.312535423847214 0.005060252568593465
набаловались 3.9219733362813143 0.0028606661825538397
процессов 2.130213867053259 0.003107532993513142
расти 3.005682604407159 0.002192328668422436
сложных 1.9070703157390494 0.0013910067948497808
инструмент 0.9775343571148737 0.0007130082838182886
приглашения 3.228826155721369 0.002355088370329226
мозг 3.005682604407159 0.002192328668422436
быстрой 3.9219733362813143 0.0028606661825538397
прогресс 2.5356789751614235 0.0018495105581046124
д 0.009950330853168092 2.1773152851571318e-05
коробок 3.9219733362813143 0.0028606661825538397
рутинная 3.228826155721369 0.002355088370329226
данные 0.6261364702769852 0.0004567005618358754
знаний 2.0501711593797225 0.005981535111246455
запрос 1.0316015783851493 0.0007524446231839164
поделится 3.9219733362813143 0.0028606661825538397
нам 0.36662527479190044 0.0002674144965659376
Главную 3.9219733362813143 0.0028606661825538397
главный 2.8233610476132043 0.0020593443089811847
тренды 3.005682604407159 0.004384657336844872
очередь 2.6692103677859462 0.0019469076351465691
считают 3.5165082281731497 0.0025649221212057983
собственную 2.8233610476132043 0.0020593443089811847
голову 3.005682604407159 0.002192328668422436
изображение 2.6692103677859462 0.0038938152702931383
созданием 3.005682604407159 0.002192328668422436
этому 0.41042789745029334 0.000299363893107435
коробкой 3.228826155721369 0.002355088370329226
котятами 3.9219733362813143 0.0028606661825538397
противостоять 3.9219733362813143 0.0028606661825538397
аудиосообщением 3.9219733362813143 0.0028606661825538397
свое 0.663876798259832 0.0004842281533623866
глубокая 3.228826155721369 0.002355088370329226
фотографии 2.6692103677859462 0.0019469076351465691
написать 1.9070703157390494 0.0013910067948497808
называют 1.9070703157390494 0.0013910067948497808
скорость 1.9760631872260008 0.0014413298229219555
генеральный 3.9219733362813143 0.0028606661825538397
ассистент 3.5165082281731497 0.007694766363617395
осилит 3.5165082281731497 0.0025649221212057983
выявление 3.9219733362813143 0.0028606661825538397
самого 1.9760631872260008 0.0014413298229219555
Теперь 1.213923135179104 0.0008854289826251671
машина 2.6692103677859462 0.0019469076351465691
разработки 1.1186129553747792 0.0008159102519144998
обучения 1.9760631872260008 0.007206649114609777
Дзен 0.009950330853168092 7.257717617190439e-06
сталкивались 3.005682604407159 0.002192328668422436
кнопка 2.5356789751614235 0.0018495105581046124
профессии 3.5165082281731497 0.0025649221212057983
разработчики 2.41789593950504 0.0035272004952662875
точной 3.005682604407159 0.002192328668422436
изображения 2.5356789751614235 0.0018495105581046124
проектировки 3.9219733362813143 0.0028606661825538397
журналисты 3.9219733362813143 0.0028606661825538397
явление 1.5705980791178364 0.0011455857615739144
эффективно 1.213923135179104 0.0008854289826251671
приведет 3.005682604407159 0.002192328668422436
офис 2.6692103677859462 0.0019469076351465691
Больше 1.8425317946014783 0.0013439327458799988
происходящее 3.9219733362813143 0.0028606661825538397
сделать 0.9015484501369516 0.0006575845734040493
помогает 1.7819071727850435 0.0012997134739497036
предсказано 3.9219733362813143 0.0028606661825538397
разработкой 2.130213867053259 0.001553766496756571
минимизировать 2.312535423847214 0.001686750856197822
составит 2.41789593950504 0.0017636002476331437
Владимир 3.5165082281731497 0.005129844242411597
дорогу 3.9219733362813143 0.0028606661825538397
имеет 1.1811333123561132 0.0008615122628418039
ограниченный 3.005682604407159 0.002192328668422436
сохранить 2.8233610476132043 0.0020593443089811847
Язык 0.009950330853168092 7.257717617190439e-06
показатели 2.6692103677859462 0.0019469076351465691
Коллеги 3.228826155721369 0.002355088370329226
готовы 1.3962446919730587 0.0010184133420664176
изучают 3.9219733362813143 0.0028606661825538397
Суть 3.228826155721369 0.002355088370329226
создавать 1.6193882432872684 0.002362346087946416
Блог 0.7439195059333684 0.0010852217446146878
научились 3.228826155721369 0.002355088370329226
текста 2.130213867053259 0.001553766496756571
текстом 3.228826155721369 0.004710176740658452
Надежда 3.9219733362813143 0.0028606661825538397
текст 1.004202604197035 0.0014649199185952373
робот 3.5165082281731497 0.0025649221212057983
инструкций 3.228826155721369 0.002355088370329226
вообще 1.670681537674819 0.0012185860960429022
нейросети 2.41789593950504 0.0035272004952662875
медицины 3.5165082281731497 0.0025649221212057983
поведение 2.8233610476132043 0.004118688617962369
основывается 3.9219733362813143 0.0028606661825538397
конфликт 2.41789593950504 0.0017636002476331437
соцсетей 3.5165082281731497 0.0025649221212057983
чат 0.41042789745029334 0.0008980916793223048
научиться 3.5165082281731497 0.0025649221212057983
демонстрировать 3.005682604407159 0.002192328668422436
компьютере 3.005682604407159 0.002192328668422436
быту 3.9219733362813143 0.0028606661825538397
берут 2.8233610476132043 0.0020593443089811847
полета 3.5165082281731497 0.0025649221212057983
Давно 3.5165082281731497 0.0025649221212057983
разных 1.3962446919730587 0.0020368266841328353
диаграммы 3.5165082281731497 0.0025649221212057983
нейросеть 3.005682604407159 0.002192328668422436
суть 3.228826155721369 0.002355088370329226
Результатом 3.228826155721369 0.002355088370329226
Приходите 3.9219733362813143 0.0028606661825538397
философам 3.9219733362813143 0.0028606661825538397
грань 3.228826155721369 0.002355088370329226
копирайтеров 3.9219733362813143 0.0028606661825538397
Мгновенные 3.9219733362813143 0.0028606661825538397
Луна 3.5165082281731497 0.0025649221212057983
Чесноков 3.9219733362813143 0.0028606661825538397
отдавать 3.5165082281731497 0.0025649221212057983
визуальных 3.9219733362813143 0.0028606661825538397
сложные 2.0501711593797225 0.004486151333434841
поднимают 3.228826155721369 0.002355088370329226
роботы 3.9219733362813143 0.011442664730215359
следующее 1.7819071727850435 0.0012997134739497036
серию 3.228826155721369 0.002355088370329226
разобраться 2.130213867053259 0.001553766496756571
необходимы 1.4796263009121098 0.001079231437572655
прототипы 3.228826155721369 0.002355088370329226
выполняет 2.217225244042889 0.0016172321254871547
массово 3.005682604407159 0.002192328668422436
управление 1.670681537674819 0.0012185860960429022
главное 2.217225244042889 0.0016172321254871547
Генеральный 3.228826155721369 0.004710176740658452
генерацию 3.005682604407159 0.002192328668422436
дальнейшем 2.312535423847214 0.003373501712395644
вооружение 3.5165082281731497 0.0025649221212057983
прочие 3.228826155721369 0.002355088370329226
мгновенно 2.5356789751614235 0.003699021116209225
текстовых 2.8233610476132043 0.004118688617962369
агентов 2.6692103677859462 0.0019469076351465691
мало 1.670681537674819 0.0012185860960429022
нейросетью 3.9219733362813143 0.0028606661825538397
стоят 1.0887599922250981 0.0007941356617250898
часов 0.8309308829229982 0.0012121530020758543
осенью 3.9219733362813143 0.0028606661825538397
алгоритм 0.5546775062948401 0.00040457877920849027
которыми 2.130213867053259 0.001553766496756571
механические 3.9219733362813143 0.0028606661825538397
некоторые 1.2478246868547855 0.000910156591433104
платформы 0.5207759546191588 0.0003798511704005535
утомительная 3.9219733362813143 0.0028606661825538397
передач 1.9760631872260008 0.0014413298229219555
разработчиками 2.6692103677859462 0.0019469076351465691
начнет 3.228826155721369 0.002355088370329226
принцип 0.3810140122440001 0.0002779095640000001
уложить 3.228826155721369 0.002355088370329226
предложении 3.5165082281731497 0.0025649221212057983
Хабр 0.009950330853168092 2.1773152851571318e-05
развитии 3.005682604407159 0.004384657336844872
зовут 2.217225244042889 0.0016172321254871547
работают 1.4370666864933137 0.0010481886845319574
ними 1.2478246868547855 0.001820313182866208
бизнес 1.3570239788197773 0.0009898059655870002
Зачем 3.228826155721369 0.002355088370329226
Количество 0.009950330853168092 7.257717617190439e-06
инструменты 1.9070703157390494 0.0013910067948497808
получить 0.951558870711613 0.0006940619042389591
роботам 3.9219733362813143 0.0028606661825538397
базы 0.5207759546191588 0.000759702340801107
компанию 2.217225244042889 0.0016172321254871547
делать 0.5546775062948401 0.00040457877920849027
Простой 0.2843871765549284 0.00020743047159367498
году 1.3570239788197773 0.0049490298279350016
Получается 2.312535423847214 0.001686750856197822
Время 0.009950330853168092 7.257717617190439e-06
вопросы 1.5240780634829436 0.0033349629397876226
могут 0.3956128116651528 0.0008656735485014284
сгенерированные 3.9219733362813143 0.0028606661825538397
февраля 0.5546775062948401 0.00040457877920849027
Приветствую 3.5165082281731497 0.0025649221212057983
вся 1.6193882432872684 0.001181173043973208
выйдет 3.005682604407159 0.002192328668422436
видели 2.8233610476132043 0.0020593443089811847
хлеб 3.5165082281731497 0.0025649221212057983
технологий 2.41789593950504 0.0035272004952662875
Цель 3.005682604407159 0.002192328668422436
сотни 2.5356789751614235 0.0018495105581046124
близкое 3.9219733362813143 0.0028606661825538397
большими 3.005682604407159 0.002192328668422436
сутки 0.020000666706669435 1.4588378341844956e-05
происшествия 3.9219733362813143 0.0028606661825538397
Исполнительный 3.9219733362813143 0.0028606661825538397
заключается 1.9760631872260008 0.0014413298229219555
согласны 2.8233610476132043 0.0020593443089811847
Люди 2.5356789751614235 0.0018495105581046124
рекламная 3.5165082281731497 0.0025649221212057983
боты 0.3524406397999441 0.0012853415018232828
т 0.009950330853168092 2.1773152851571318e-05
услышав 3.9219733362813143 0.0028606661825538397
голове 2.6692103677859462 0.0019469076351465691
закладки 0.009950330853168092 7.257717617190439e-06
переносится 3.9219733362813143 0.0028606661825538397
сборка 2.6692103677859462 0.0019469076351465691
коротких 3.9219733362813143 0.0028606661825538397
прошлой 3.5165082281731497 0.0025649221212057983
шагов 1.7819071727850435 0.0012997134739497036
построит 3.5165082281731497 0.0025649221212057983
рабочую 3.9219733362813143 0.0028606661825538397
скоро 1.4370666864933137 0.0010481886845319574
генерацией 3.9219733362813143 0.0028606661825538397
Такие 2.217225244042889 0.0016172321254871547
вопрос 0.7864791203521645 0.0011473072506960824
контекст 1.7819071727850435 0.0012997134739497036
вести 0.951558870711613 0.0006940619042389591
Пока 2.217225244042889 0.0016172321254871547
Карма 0.009950330853168092 7.257717617190439e-06
проанализирует 3.9219733362813143 0.0028606661825538397
выясняли 3.9219733362813143 0.0028606661825538397
мира 1.7819071727850435 0.0012997134739497036
поддержка 0.009950330853168092 7.257717617190439e-06
Сайт 0.7233002187306328 0.0005275712755146848
отделом 3.5165082281731497 0.0025649221212057983
сами 1.0316015783851493 0.0007524446231839164
парк 3.5165082281731497 0.0025649221212057983
усовершенствованный 3.9219733362813143 0.0028606661825538397
гуманоидных 3.9219733362813143 0.0028606661825538397
событие 2.312535423847214 0.001686750856197822
Мы 1.149384614041533 0.000838354933655385
полной 2.8233610476132043 0.0020593443089811847
отдает 3.005682604407159 0.002192328668422436
текстовыми 3.9219733362813143 0.0028606661825538397
повторяют 3.228826155721369 0.002355088370329226
аналитик 1.8425317946014783 0.0013439327458799988
генеративных 3.9219733362813143 0.0028606661825538397
бытовыми 3.9219733362813143 0.0028606661825538397
Задача 2.41789593950504 0.0017636002476331437
просторное 3.9219733362813143 0.0028606661825538397
устояли 3.9219733362813143 0.0028606661825538397
приложениями 3.005682604407159 0.002192328668422436
Комментарии 0.009950330853168092 2.1773152851571318e-05
люди 1.8425317946014783 0.0013439327458799988
сделают 3.9219733362813143 0.005721332365107679
онлайн 1.7247487589450947 0.0025160448708170602
инструментов 1.9070703157390494 0.0013910067948497808
список 1.670681537674819 0.0012185860960429022
баре 3.9219733362813143 0.0028606661825538397
взаимосвязи 3.5165082281731497 0.0025649221212057983
сотрудников 2.5356789751614235 0.0018495105581046124
Манеров 3.9219733362813143 0.005721332365107679
генерации 1.8425317946014783 0.0013439327458799988
машине 2.5356789751614235 0.0018495105581046124
неплохо 2.41789593950504 0.0017636002476331437
своей 1.5240780634829436 0.001111654313262541
задачи 0.9015484501369516 0.002630338293616197
Поиск 0.009950330853168092 7.257717617190439e-06
степени 2.6692103677859462 0.0019469076351465691
пауза 3.9219733362813143 0.0028606661825538397
Чат 3.5165082281731497 0.0025649221212057983
желание 2.6692103677859462 0.0019469076351465691
большой 1.5240780634829436 0.001111654313262541
космических 3.228826155721369 0.002355088370329226
текучкой 3.9219733362813143 0.0028606661825538397
внедрения 2.6692103677859462 0.0019469076351465691
последовательном 3.9219733362813143 0.0028606661825538397
пока 0.6261364702769852 0.002283502809179377
начал 0.22067136216882066 0.0001609565004878342
гайды 3.9219733362813143 0.0028606661825538397
научить 2.8233610476132043 0.0020593443089811847
нашу 2.5356789751614235 0.0018495105581046124
глубокого 2.5356789751614235 0.0018495105581046124
представить 2.6692103677859462 0.0019469076351465691
Назначение 3.228826155721369 0.002355088370329226
алгоритмов 2.5356789751614235 0.0018495105581046124
замене 3.5165082281731497 0.0025649221212057983
добавил 2.0501711593797225 0.0014953837778116138
слишком 1.7247487589450947 0.0012580224354085301
роль 1.3570239788197773 0.0009898059655870002
ботами 2.8233610476132043 0.0020593443089811847
приблизит 3.5165082281731497 0.0025649221212057983
учиться 2.6692103677859462 0.0019469076351465691
физическом 3.9219733362813143 0.0028606661825538397
направления 2.5356789751614235 0.0018495105581046124
жизни 1.8425317946014783 0.0026878654917599975
поле 0.8539204011476971 0.0006228449315446368
учет 1.7247487589450947 0.0012580224354085301
каждое 2.217225244042889 0.0016172321254871547
Голосование 0.009950330853168092 1.4515435234380878e-05
искусственным 3.5165082281731497 0.005129844242411597
Публикации 0.020000666706669435 1.4588378341844956e-05
итоге 1.5240780634829436 0.001111654313262541
типов 2.0501711593797225 0.0014953837778116138
помощник 2.41789593950504 0.0017636002476331437
объединить 3.5165082281731497 0.0025649221212057983
сортировщики 3.9219733362813143 0.0028606661825538397
которая 0.663876798259832 0.0004842281533623866
разошлет 3.9219733362813143 0.0028606661825538397
боли 2.5356789751614235 0.0018495105581046124
маленький 3.5165082281731497 0.0025649221212057983
гуманитариям 3.9219733362813143 0.0028606661825538397
гиганты 3.9219733362813143 0.008581998547661519
дипфейкам 3.9219733362813143 0.0028606661825538397
Техническая 0.009950330853168092 7.257717617190439e-06
Умные 3.9219733362813143 0.0028606661825538397
Пелевин 3.9219733362813143 0.0028606661825538397
решении 2.6692103677859462 0.0019469076351465691
круто 3.228826155721369 0.002355088370329226
какую 1.8425317946014783 0.0013439327458799988
руки 2.6692103677859462 0.0019469076351465691
зрения 1.4796263009121098 0.001079231437572655
Войти 0.009950330853168092 7.257717617190439e-06
шаг 1.1811333123561132 0.0034460490513672157
сольются 3.9219733362813143 0.0028606661825538397
рассуждениях 3.9219733362813143 0.0028606661825538397
качественным 3.9219733362813143 0.0028606661825538397
те 0.009950330853168092 7.257717617190439e-06
ответ 0.4719857904497268 0.00034426388800125953
маркетинга 3.5165082281731497 0.0025649221212057983
объектами 2.8233610476132043 0.0020593443089811847
генеративным 3.9219733362813143 0.0028606661825538397
Агенты 3.9219733362813143 0.005721332365107679
управленческий 3.9219733362813143 0.0028606661825538397
языка 0.009950330853168092 7.257717617190439e-06
ожидал 3.5165082281731497 0.005129844242411597
человеческого 3.005682604407159 0.002192328668422436
отметим 3.9219733362813143 0.0028606661825538397
мощностями 3.9219733362813143 0.0028606661825538397
обработки 1.5240780634829436 0.0033349629397876226
факапами 3.9219733362813143 0.0028606661825538397
основном 2.41789593950504 0.0017636002476331437
выполняют 2.312535423847214 0.001686750856197822
философский 3.228826155721369 0.002355088370329226
перекатывают 3.228826155721369 0.002355088370329226
раздолье 3.9219733362813143 0.0028606661825538397
рутинных 3.9219733362813143 0.0028606661825538397
митап 3.228826155721369 0.002355088370329226
Сейчас 1.9760631872260008 0.002882659645843911
настроит 2.130213867053259 0.001553766496756571
мозгах 3.9219733362813143 0.0028606661825538397
Настройка 0.009950330853168092 7.257717617190439e-06
ИИ 3.228826155721369 0.016485618592304584
директор 0.4254657748148339 0.0015516621984494308
Можно 1.3570239788197773 0.0009898059655870002
Настройки 0.009950330853168092 7.257717617190439e-06
большую 1.670681537674819 0.0012185860960429022
диагностики 3.228826155721369 0.002355088370329226
немного 1.3962446919730587 0.003055240026199253
блэкджеком 3.9219733362813143 0.0028606661825538397
Мультиканальные 3.9219733362813143 0.0028606661825538397
активно 1.1186129553747792 0.0008159102519144998
медиафайлы 3.9219733362813143 0.0028606661825538397
очевидно 2.5356789751614235 0.0018495105581046124
прямо 1.4370666864933137 0.0010481886845319574
статью 2.130213867053259 0.001553766496756571
статьи 1.8425317946014783 0.0013439327458799988
исполнительный 3.9219733362813143 0.0028606661825538397
проникать 3.005682604407159 0.002192328668422436
краткое 3.228826155721369 0.002355088370329226
создание 1.7819071727850435 0.0012997134739497036
новых 1.1186129553747792 0.0008159102519144998
нейросетей 3.005682604407159 0.004384657336844872
которые 0.2456726643742379 0.0007167692614857415
толкают 3.9219733362813143 0.0028606661825538397
обществу 3.5165082281731497 0.0025649221212057983
прежнему 2.5356789751614235 0.0018495105581046124
даешь 3.5165082281731497 0.0025649221212057983
выйти 2.5356789751614235 0.0018495105581046124
развития 1.9070703157390494 0.0013910067948497808
электронных 3.005682604407159 0.002192328668422436
тех 0.6261364702769852 0.0004567005618358754
роботов 3.9219733362813143 0.0028606661825538397
Яндекс 0.009950330853168092 7.257717617190439e-06
ответственности 2.6692103677859462 0.0019469076351465691
базе 1.5705980791178364 0.0011455857615739144
передать 2.312535423847214 0.001686750856197822
земные 3.228826155721369 0.002355088370329226
юридические 3.5165082281731497 0.0025649221212057983
ботов 3.9219733362813143 0.0028606661825538397
рассуждение 3.9219733362813143 0.0028606661825538397
создаст 2.5356789751614235 0.0018495105581046124
одного 0.9262410627273231 0.0006755952317485946
Ожидается 3.005682604407159 0.002192328668422436
физический 3.5165082281731497 0.0025649221212057983
вперед 3.005682604407159 0.0065769860052673065
речь 1.9070703157390494 0.0013910067948497808
бесчисленные 3.9219733362813143 0.0028606661825538397
Компания 1.7819071727850435 0.0012997134739497036
интеллекта 0.5375830729355401 0.002352661150702582
рано 2.41789593950504 0.0017636002476331437
жизнь 1.9070703157390494 0.0013910067948497808
необходимо 0.6077873316087886 0.00044331679913113683
музыку 3.9219733362813143 0.0028606661825538397
пользоваться 1.1811333123561132 0.0008615122628418039
аудио 3.5165082281731497 0.0025649221212057983
Лучшие 0.020000666706669435 1.4588378341844956e-05
предполагается 3.228826155721369 0.002355088370329226
человек 1.3962446919730587 0.0010184133420664176
умным 3.228826155721369 0.002355088370329226
регистрации 2.5356789751614235 0.0018495105581046124
участников 2.6692103677859462 0.0019469076351465691
исполнено 3.9219733362813143 0.0028606661825538397
разной 3.9219733362813143 0.0028606661825538397
отдельных 2.0501711593797225 0.0014953837778116138
Обзор 1.5240780634829436 0.001111654313262541
имитируют 3.9219733362813143 0.0028606661825538397
хромает 3.9219733362813143 0.0028606661825538397
сложности 0.1607732205877518 0.00011726711932002318
искусственного 0.5207759546191588 0.002279107022403321
действий 2.41789593950504 0.0017636002476331437
ест 0.009950330853168092 7.257717617190439e-06
возможности 0.9262410627273231 0.0006755952317485946
Главное 2.312535423847214 0.001686750856197822
стартапы 3.005682604407159 0.002192328668422436
никто 2.217225244042889 0.0032344642509743093
рассуждения 3.5165082281731497 0.0025649221212057983
готовят 3.9219733362813143 0.0028606661825538397
корпорации 3.9219733362813143 0.0028606661825538397
играют 3.5165082281731497 0.0025649221212057983
сатаны 3.9219733362813143 0.0028606661825538397
Теги 0.009950330853168092 7.257717617190439e-06
Виктор 3.005682604407159 0.002192328668422436
руковожу 3.9219733362813143 0.0028606661825538397
выводами 3.9219733362813143 0.0028606661825538397
идею 3.5165082281731497 0.0025649221212057983
Добавить 0.009950330853168092 7.257717617190439e-06
искусственный 3.5165082281731497 0.005129844242411597
стать 0.6077873316087886 0.00044331679913113683
вполне 1.7819071727850435 0.0038991404218491105
Виталий 3.9219733362813143 0.0028606661825538397
мир 0.4719857904497268 0.00034426388800125953
случаи 2.6692103677859462 0.0019469076351465691
прокладывает 3.9219733362813143 0.0028606661825538397
руководитель 2.8233610476132043 0.0020593443089811847
смогут 2.217225244042889 0.0016172321254871547
каждый 1.0597724553518457 0.0015459846175811024
будут 0.7864791203521645 0.0005736536253480412
место 0.7649729151312009 0.0005579671153400444
Разбираемся 3.9219733362813143 0.0028606661825538397
текстовый 3.228826155721369 0.002355088370329226
предыдущий 2.8233610476132043 0.0020593443089811847
Меню 0.009950330853168092 7.257717617190439e-06
роботами 3.9219733362813143 0.0028606661825538397
мозгу 3.5165082281731497 0.0025649221212057983
дальше 1.3192836508369303 0.000962278374060489
разгрузить 3.9219733362813143 0.005721332365107679
руководителя 3.5165082281731497 0.0025649221212057983
человеческий 3.5165082281731497 0.0025649221212057983
разработчиков 0.4254657748148339 0.00031033243968988614
числе 0.8309308829229982 0.0006060765010379272
какие 1.0316015783851493 0.0007524446231839164
Где 2.6692103677859462 0.0019469076351465691
книгу 3.005682604407159 0.002192328668422436
Искусственный 2.312535423847214 0.005060252568593465
Рейтинг 0.009950330853168092 7.257717617190439e-06
функцию 2.217225244042889 0.0016172321254871547
рабочее 3.228826155721369 0.002355088370329226
запросов 2.41789593950504 0.0017636002476331437
некоторых 1.670681537674819 0.0012185860960429022
перейдет 3.9219733362813143 0.0028606661825538397
систему 1.4796263009121098 0.001079231437572655
технари 3.9219733362813143 0.0028606661825538397
мог 0.13778370236305296 0.00010049868881331361
пылесосом 3.9219733362813143 0.0028606661825538397
бот 0.020000666706669435 2.9176756683689912e-05
заняты 3.228826155721369 0.002355088370329226
личную 2.8233610476132043 0.0020593443089811847
который 0.3524406397999441 0.0005141366007293131
условиях 2.5356789751614235 0.0018495105581046124
блог 2.130213867053259 0.001553766496756571
прикладные 3.9219733362813143 0.0028606661825538397
Такой 1.9760631872260008 0.0014413298229219555
Уже 2.8233610476132043 0.0020593443089811847
которое 1.0316015783851493 0.0015048892463678327
слово 2.217225244042889 0.0016172321254871547
намерены 3.9219733362813143 0.0028606661825538397
рассказывать 3.9219733362813143 0.0028606661825538397
такое 1.4370666864933137 0.0010481886845319574
реалистичность 3.9219733362813143 0.0028606661825538397
упоротости 3.9219733362813143 0.0028606661825538397
дела 0.2456726643742379 0.00017919231537143538
Оставим 3.9219733362813143 0.0028606661825538397
изображений 2.6692103677859462 0.0038938152702931383
Меня 2.217225244042889 0.0016172321254871547
ожидаемо 3.005682604407159 0.002192328668422436
помощью 0.6448286032891376 0.0004703345027637765
дочитали 3.9219733362813143 0.0028606661825538397
Уровень 0.17246926035094298 0.0001257981475936856
ведущими 3.5165082281731497 0.0025649221212057983
Они 1.6193882432872684 0.002362346087946416
Обновить 0.009950330853168092 7.257717617190439e-06
первые 1.7819071727850435 0.0012997134739497036
заявляя 3.9219733362813143 0.0028606661825538397
ошибки 1.2829160066660557 0.0009357520106973419
ждем 3.005682604407159 0.002192328668422436
перемещают 3.228826155721369 0.002355088370329226
данных 0.14921239818667575 0.0004353388714417965
статье 0.951558870711613 0.0020821857127168776
Сергеева 3.5165082281731497 0.0025649221212057983
ТИМЛИ 3.9219733362813143 0.0028606661825538397
доставщиком 3.9219733362813143 0.0028606661825538397
типа 1.5705980791178364 0.0011455857615739144
задач 0.4562374334815876 0.0006655542428615428
мнению 3.005682604407159 0.002192328668422436
функционал 1.0887599922250981 0.0007941356617250898
пары 2.8233610476132043 0.0020593443089811847
дизайнеров 3.228826155721369 0.002355088370329226
сотрется 3.9219733362813143 0.0028606661825538397
анонсируют 3.9219733362813143 0.0028606661825538397
новую 1.9070703157390494 0.0013910067948497808
выросла 3.228826155721369 0.002355088370329226
время 0.5897688261061103 0.0004301741984727281
информации 1.5240780634829436 0.002223308626525082
интеллект 0.5207759546191588 0.0018992558520027675
сторонними 3.9219733362813143 0.0028606661825538397
традиции 3.9219733362813143 0.0028606661825538397
ошибками 3.228826155721369 0.002355088370329226
Системы 3.228826155721369 0.002355088370329226
реальном 3.005682604407159 0.002192328668422436
обрабатывать 2.130213867053259 0.001553766496756571
маркетплейсах 3.9219733362813143 0.0028606661825538397
существенно 2.0501711593797225 0.0014953837778116138
интеллектом 3.5165082281731497 0.005129844242411597
предсказывать 3.9219733362813143 0.0028606661825538397
рубашек 3.9219733362813143 0.0028606661825538397
чему 1.2829160066660557 0.0009357520106973419
видео 1.6193882432872684 0.009449384351785665
философские 3.9219733362813143 0.0028606661825538397
вопросах 3.005682604407159 0.002192328668422436
набор 1.6193882432872684 0.001181173043973208
сэкономить 2.5356789751614235 0.0018495105581046124
производствах 3.9219733362813143 0.0028606661825538397
которого 1.3192836508369303 0.001924556748120978
работы 0.3524406397999441 0.0005141366007293131
пределы 3.228826155721369 0.004710176740658452
заменить 2.0501711593797225 0.0014953837778116138
напишет 3.9219733362813143 0.0028606661825538397
Какие 2.130213867053259 0.001553766496756571
пишет 1.9760631872260008 0.0014413298229219555
расскажет 3.005682604407159 0.002192328668422436
крупные 2.6692103677859462 0.0038938152702931383
прочтение 0.009950330853168092 7.257717617190439e-06
чаты 2.41789593950504 0.0017636002476331437
решать 1.9760631872260008 0.004323989468765866
столько 2.41789593950504 0.0017636002476331437
внедрив 3.9219733362813143 0.0028606661825538397
сразу 0.8539204011476971 0.0006228449315446368
масштабирование 3.005682604407159 0.002192328668422436
пост 0.13778370236305296 0.00010049868881331361
решаются 3.5165082281731497 0.0025649221212057983
имитировать 3.005682604407159 0.002192328668422436
основе 1.3962446919730587 0.0010184133420664176
Планируем 3.9219733362813143 0.0028606661825538397
заменять 3.9219733362813143 0.0028606661825538397
специализацию 3.5165082281731497 0.0025649221212057983
текстов 1.9760631872260008 0.0014413298229219555
выдавать 3.005682604407159 0.002192328668422436
собственности 3.5165082281731497 0.0025649221212057983
назад 0.13778370236305296 0.00010049868881331361
строить 1.7247487589450947 0.0012580224354085301
